<?xml version="1.0" standalone="no"?>
<!DOCTYPE svg PUBLIC "-//W3C//DTD SVG 20010904//EN"
 "http://www.w3.org/TR/2001/REC-SVG-20010904/DTD/svg10.dtd">
<svg version="1.0" xmlns="http://www.w3.org/2000/svg"
 width="500.000000pt" height="500.000000pt" viewBox="0 0 500.000000 500.000000"
 preserveAspectRatio="xMidYMid meet">
<metadata>
Created by potrace 1.14, written by Peter Selinger 2001-2017
</metadata>
<g transform="translate(0.000000,500.000000) scale(0.100000,-0.100000)"
fill="#000000" stroke="none">
<path d="M2408 4865 c-2 -1 -43 -5 -93 -9 -167 -12 -291 -35 -472 -87 -930
-267 -1623 -1120 -1690 -2084 -11 -156 -4 -469 11 -494 2 -3 7 -33 11 -66 3
-33 24 -127 45 -210 166 -654 600 -1200 1200 -1514 267 -139 560 -226 865
-257 138 -14 404 -8 555 12 154 21 418 91 560 150 387 161 740 431 991 759
132 171 265 416 343 627 32 85 87 285 100 358 11 66 16 98 20 130 3 19 7 55
11 80 16 112 11 393 -10 560 -40 316 -182 697 -363 971 -350 531 -893 902
-1497 1024 -185 37 -263 46 -449 49 -74 2 -137 2 -138 1z m247 -29 c122 -7
170 -12 246 -26 32 -6 71 -13 86 -16 182 -32 540 -169 708 -272 513 -311 888
-786 1054 -1332 31 -102 69 -269 77 -335 3 -33 10 -80 15 -105 8 -46 6 -499
-4 -535 -2 -11 -8 -42 -11 -70 -4 -27 -18 -100 -32 -162 -149 -671 -603 -1255
-1219 -1568 -169 -86 -415 -176 -550 -202 -22 -4 -42 -8 -45 -8 -3 -1 -25 -5
-50 -9 -25 -5 -54 -10 -65 -12 -11 -2 -45 -6 -75 -9 -30 -3 -73 -8 -95 -10
-93 -10 -341 -5 -475 10 -144 16 -424 85 -525 130 -16 7 -41 16 -55 20 -34 9
-265 122 -315 154 -139 86 -217 141 -289 201 -464 390 -728 845 -838 1445 -23
125 -34 510 -17 625 22 159 28 195 39 240 5 19 12 49 14 65 3 17 14 59 25 95
231 788 850 1396 1640 1611 166 45 296 66 471 76 58 3 106 6 108 8 1 1 19 1
40 -1 20 -2 82 -5 137 -8z"/>
<path d="M2539 4751 c0 -9 -2 -25 -4 -36 -2 -11 -5 -58 -7 -104 l-3 -84 33 -2
c28 -1 32 2 33 24 1 14 1 29 0 34 0 4 8 7 20 7 15 0 19 -4 15 -16 -4 -11 1
-18 14 -21 11 -3 20 -12 20 -19 0 -8 3 -14 8 -15 81 -9 92 -7 92 12 0 12 -4
17 -11 14 -6 -4 -13 2 -16 14 -3 11 -13 23 -24 26 -29 10 -12 38 19 30 32 -8
42 7 42 63 0 31 -4 42 -15 42 -8 0 -15 7 -15 15 0 8 -6 15 -12 16 -7 0 -33 3
-58 5 -127 11 -130 11 -131 -5z m161 -36 c13 -8 -2 -66 -15 -61 -7 2 -15 -4
-18 -15 -4 -15 -12 -19 -34 -16 -24 3 -28 8 -31 41 -5 58 1 65 49 60 24 -3 46
-7 49 -9z"/>
<path d="M2331 4751 c-7 -5 -10 -14 -7 -20 5 -7 -1 -11 -14 -11 -15 0 -20 -5
-17 -14 4 -9 -2 -17 -14 -21 -18 -6 -20 -13 -16 -53 3 -26 6 -48 6 -49 1 -2 8
-3 16 -3 8 0 15 -7 15 -15 0 -8 9 -15 20 -15 11 0 19 -6 18 -12 -2 -9 16 -13
65 -14 60 -2 67 0 67 17 0 12 7 19 19 19 14 0 18 5 14 19 -3 12 -12 17 -28 15
-32 -3 -45 -12 -39 -27 3 -8 -8 -12 -31 -12 -27 -1 -35 3 -35 17 0 11 -7 18
-20 18 -17 0 -20 7 -20 50 0 38 4 50 15 50 8 0 15 8 15 18 0 24 63 24 68 0 3
-15 14 -17 65 -9 17 2 5 31 -13 31 -11 0 -20 7 -20 15 0 12 -13 15 -57 15 -32
0 -64 -4 -72 -9z"/>
<path d="M2199 4746 c-5 -5 -182 -38 -206 -39 -16 0 -16 5 2 -97 21 -118 24
-132 29 -137 2 -3 28 0 58 6 29 6 64 12 78 15 91 15 98 18 93 36 -4 15 -10 16
-36 10 -18 -5 -49 -11 -71 -15 -21 -3 -42 -8 -47 -11 -5 -3 -14 7 -19 22 -11
28 -7 56 7 52 4 -1 32 2 61 6 41 6 52 12 52 26 0 14 -6 18 -22 14 -13 -3 -44
-7 -70 -11 -47 -6 -48 -5 -48 21 0 36 2 40 25 43 52 8 129 23 133 27 2 3 0 12
-5 21 -5 8 -11 13 -14 11z"/>
<path d="M2815 4727 c-9 -42 -35 -176 -35 -182 0 -3 7 -5 15 -5 8 0 15 -8 15
-18 0 -15 13 -21 65 -30 35 -7 71 -15 79 -18 8 -3 17 2 20 14 4 11 14 19 23
18 12 -1 19 15 30 64 27 132 28 127 -7 135 -38 8 -38 8 -46 -41 -11 -72 -30
-145 -37 -145 -4 -1 -26 2 -48 6 l-40 7 5 41 c3 23 10 57 15 75 5 17 8 32 6
32 -3 0 0 11 5 25 5 14 8 25 7 25 -1 0 -17 4 -35 9 -28 9 -32 7 -37 -12z"/>
<path d="M1840 4662 c-43 -14 -56 -23 -58 -40 -2 -12 -9 -22 -17 -22 -8 0 -11
-7 -8 -20 4 -14 0 -20 -11 -20 -9 0 -16 -1 -16 -2 0 -2 6 -23 14 -48 9 -32 19
-45 31 -45 10 0 20 -6 23 -13 2 -6 12 -12 22 -12 10 0 20 -6 22 -14 2 -11 14
-11 66 5 48 16 62 24 62 39 0 11 7 20 15 20 16 0 19 9 7 26 -4 7 -18 8 -39 2
-24 -6 -30 -12 -26 -27 6 -24 -46 -40 -62 -18 -5 7 -15 12 -22 10 -14 -5 -28
19 -38 65 -5 25 -3 32 8 32 10 0 13 7 11 18 -4 12 4 21 26 29 27 10 32 9 38
-7 6 -17 10 -17 39 -5 36 15 37 47 2 38 -13 -4 -19 0 -19 11 0 19 -1 19 -70
-2z"/>
<path d="M3126 4672 c-15 -14 -3 -31 25 -37 17 -4 29 -12 26 -18 -2 -7 -14
-42 -26 -79 -24 -72 -26 -73 -64 -59 -20 8 -26 6 -30 -8 -3 -15 11 -23 82 -46
47 -15 92 -30 99 -32 7 -3 12 3 12 15 0 14 -9 22 -29 27 l-29 6 25 77 c14 42
27 79 29 81 2 2 16 -1 33 -7 24 -9 31 -8 35 5 4 9 5 17 4 18 -12 9 -188 62
-192 57z"/>
<path d="M3386 4573 c-4 -9 -13 -12 -25 -8 -14 4 -21 -2 -31 -26 -12 -28 -11
-32 4 -41 12 -7 14 -13 7 -22 -8 -9 4 -20 49 -41 63 -30 68 -38 45 -69 -14
-19 -16 -19 -55 -1 -30 14 -40 23 -38 38 2 15 -6 24 -29 34 -31 12 -33 12 -33
-7 0 -11 5 -20 11 -20 6 0 9 -9 6 -20 -4 -17 7 -26 66 -54 52 -26 75 -32 84
-24 7 5 19 8 26 5 9 -3 20 7 30 28 14 30 14 34 0 39 -8 4 -13 13 -9 21 4 11
-12 24 -54 45 l-60 30 15 30 15 30 44 -22 c33 -16 42 -25 39 -39 -6 -23 44
-47 61 -29 8 8 6 14 -6 21 -9 5 -14 17 -12 27 7 24 -141 98 -150 75z"/>
<path d="M1557 4553 c-29 -12 -37 -20 -34 -34 3 -10 -2 -20 -10 -23 -9 -4 -12
-13 -8 -26 4 -11 2 -20 -4 -20 -6 0 -11 -6 -11 -14 0 -15 58 -146 65 -146 2 0
16 5 30 12 20 9 25 17 20 32 -12 41 -9 47 33 66 l43 20 11 -31 c8 -24 14 -28
32 -23 45 14 46 22 11 97 -24 50 -39 71 -50 69 -8 -2 -18 4 -21 11 -3 9 -13
13 -25 10 -10 -3 -19 0 -19 6 0 15 -17 13 -63 -6z m65 -48 c16 7 44 -43 31
-56 -4 -4 -24 -15 -44 -23 l-37 -15 -13 30 c-10 25 -10 32 1 39 7 4 10 15 7
23 -8 21 15 29 29 11 6 -8 18 -12 26 -9z"/>
<path d="M3551 4379 c-35 -55 -62 -101 -60 -103 25 -22 195 -123 201 -120 19
12 3 32 -57 69 -68 42 -73 49 -51 78 17 22 17 23 80 -18 46 -29 55 -32 60 -18
4 9 3 19 -2 22 -5 3 -30 20 -55 36 -26 17 -47 32 -47 35 0 3 9 16 18 28 l19
24 69 -45 c38 -25 72 -43 77 -40 19 12 1 32 -71 77 -42 27 -86 55 -97 62 -19
12 -25 7 -84 -87z"/>
<path d="M1300 4413 c-41 -26 -77 -48 -80 -50 -10 -9 110 -203 125 -203 6 1
19 7 30 16 19 14 19 16 3 44 l-17 30 55 32 c40 24 54 38 50 51 -2 9 2 20 9 25
21 11 -32 94 -55 87 -10 -3 -21 -1 -25 5 -9 15 -14 13 -95 -37z m121 -84 c-3
-3 -23 -16 -43 -28 l-36 -22 -26 43 -25 42 42 27 42 26 26 -41 c15 -22 24 -44
20 -47z"/>
<path d="M2349 4446 c-2 -2 -38 -7 -78 -10 -41 -4 -78 -9 -81 -11 -3 -2 -24
-6 -47 -10 -123 -18 -317 -82 -471 -155 -400 -191 -717 -504 -915 -905 -70
-142 -143 -360 -162 -485 -4 -25 -9 -54 -11 -65 -20 -95 -26 -446 -10 -555 36
-245 128 -528 223 -682 13 -21 23 -40 23 -43 0 -3 25 -43 55 -88 300 -450 736
-745 1258 -851 121 -25 189 -31 377 -31 230 0 345 15 544 72 80 23 110 33 181
62 450 184 800 506 1020 939 75 147 149 368 171 506 3 21 8 48 10 60 27 133
27 539 0 617 -3 8 -7 30 -10 49 -15 93 -24 131 -67 262 -30 94 -164 380 -180
386 -5 2 -9 8 -9 13 0 17 -136 204 -194 268 -206 223 -413 375 -661 488 -258
116 -506 169 -801 171 -89 1 -163 0 -165 -2z m421 -35 c280 -42 552 -142 775
-285 496 -319 813 -831 882 -1425 14 -117 7 -390 -12 -496 -53 -293 -144 -533
-286 -751 -313 -481 -818 -796 -1399 -870 -30 -4 -116 -8 -190 -9 -942 -15
-1749 645 -1925 1575 -36 189 -40 475 -10 645 76 425 245 760 530 1050 174
177 320 283 530 386 201 97 438 166 635 185 41 3 76 8 78 9 8 7 327 -5 392
-14z"/>
<path d="M1540 3643 l0 -193 -193 0 -193 0 1 -382 c1 -211 3 -385 4 -388 0 -3
85 -5 188 -5 l188 0 3 -192 2 -193 770 0 c677 0 770 -2 771 -15 0 -8 1 -180 1
-382 l1 -368 -576 -3 c-458 -2 -577 0 -578 10 -1 7 -2 94 -3 193 l-1 180 -382
0 c-211 1 -384 -2 -384 -5 -1 -3 -3 -89 -4 -192 l-2 -188 194 0 193 0 0 -193
0 -194 965 0 965 0 0 193 0 194 193 2 192 3 0 380 0 380 -192 3 -193 2 0 194
0 193 -752 1 c-414 0 -762 1 -773 1 -20 1 -20 8 -20 378 0 241 4 380 10 384 6
4 265 7 578 7 414 0 567 -3 568 -12 0 -6 1 -92 2 -191 l2 -180 385 0 385 0 1
180 c0 99 -2 186 -4 193 -3 9 -51 12 -193 12 l-189 0 -2 192 -3 193 -962 0
-963 0 0 -192z"/>
<path d="M3776 4237 l-76 -92 27 -24 27 -23 19 26 c15 21 22 24 33 15 10 -8
11 -15 4 -24 -8 -9 -8 -15 0 -20 6 -4 8 -15 5 -25 -4 -13 5 -27 32 -49 32 -27
38 -29 46 -15 6 11 5 19 -4 24 -10 7 -10 12 -1 22 9 11 9 17 0 26 -9 9 -9 15
-1 23 8 8 17 6 34 -10 25 -23 35 -19 71 32 17 23 18 31 8 37 -11 7 -11 12 -2
23 10 11 -1 24 -55 68 -36 29 -72 59 -79 66 -10 10 -27 -5 -88 -80z m126 5 c2
-4 15 -17 30 -29 l28 -21 -21 -26 c-17 -22 -24 -25 -36 -15 -11 10 -16 10 -23
0 -6 -10 -13 -10 -34 4 -14 10 -26 19 -26 22 0 2 12 20 28 39 26 33 47 43 54
26z"/>
<path d="M1087 4259 c-55 -44 -64 -55 -54 -68 9 -11 9 -15 0 -18 -7 -3 -13
-10 -13 -17 0 -19 37 -49 50 -41 6 4 17 1 25 -5 11 -9 24 -3 64 30 l51 43 19
-24 c11 -13 20 -26 20 -29 0 -3 -16 -17 -36 -32 -27 -21 -39 -25 -49 -17 -10
8 -20 6 -38 -8 -27 -22 -20 -51 10 -39 10 4 21 1 25 -5 5 -9 28 4 73 41 42 34
63 57 57 63 -6 6 -5 16 2 28 9 14 7 22 -8 39 -10 11 -25 18 -33 15 -8 -3 -20
-1 -26 4 -8 7 -28 -3 -64 -31 l-52 -41 -20 24 -20 24 36 33 c28 27 38 31 50
22 11 -10 19 -9 40 4 30 20 26 42 -6 38 -13 -1 -27 2 -30 8 -4 7 -33 -9 -73
-41z"/>
<path d="M4016 4101 c-9 -10 -14 -25 -10 -35 3 -9 1 -23 -5 -30 -7 -8 -8 -16
-4 -18 4 -2 26 -22 47 -45 39 -42 39 -43 21 -63 -24 -27 -33 -25 -65 12 -21
23 -26 37 -20 49 7 12 3 22 -14 38 -20 19 -25 20 -35 7 -8 -10 -9 -16 -1 -21
6 -4 7 -12 1 -24 -8 -14 1 -28 42 -72 47 -49 57 -55 91 -54 42 2 73 29 56 50
-6 7 -5 16 2 23 9 9 1 23 -35 60 l-47 48 25 24 26 24 34 -39 c19 -22 30 -41
25 -43 -16 -6 -11 -28 9 -46 26 -24 38 -14 37 27 -2 47 -97 157 -120 138 -10
-8 -16 -9 -21 -1 -9 15 -20 12 -39 -9z"/>
<path d="M770 3889 c0 -7 -9 -9 -22 -6 -19 5 -31 -5 -72 -59 -28 -37 -45 -68
-40 -73 39 -34 173 -131 180 -130 17 1 104 128 93 135 -6 3 -9 15 -6 25 3 10
1 22 -4 25 -6 3 -7 14 -4 24 4 13 -4 26 -28 44 -36 27 -57 33 -57 16 0 -7 -6
-7 -20 0 -15 8 -20 8 -20 -1z m68 -78 c14 -12 20 -25 16 -36 -4 -9 -2 -20 5
-24 8 -5 6 -15 -9 -34 l-21 -26 -62 46 c-34 26 -64 48 -66 50 -2 1 4 14 13 28
12 18 23 24 36 20 10 -3 21 -1 25 5 7 11 25 3 63 -29z"/>
<path d="M590 3698 c-5 -13 -31 -59 -58 -103 l-48 -80 99 -57 c54 -32 102 -58
105 -58 4 0 32 45 64 100 45 80 54 101 43 110 -11 9 -22 -4 -55 -59 -23 -39
-47 -71 -54 -71 -6 0 -19 7 -30 15 -18 13 -17 16 13 65 35 56 37 66 17 73 -9
4 -23 -12 -40 -43 -15 -27 -31 -52 -36 -55 -8 -5 -42 7 -58 20 -1 1 16 34 38
73 38 66 44 92 19 92 -5 0 -14 -10 -19 -22z"/>
<path d="M4375 3686 c-22 -12 -65 -36 -95 -53 -30 -17 -55 -34 -57 -39 -1 -5
6 -20 15 -32 l18 -24 35 21 c19 12 39 21 44 21 6 0 23 -25 38 -55 15 -30 31
-55 36 -55 22 0 20 22 -6 72 -15 29 -29 56 -31 59 -4 9 48 30 59 23 5 -3 23
-32 39 -64 31 -62 46 -78 60 -64 9 9 -96 214 -108 214 -4 -1 -25 -11 -47 -24z"/>
<path d="M426 3379 c-29 -72 -35 -94 -24 -100 9 -6 17 1 27 19 7 15 15 29 17
31 2 2 44 -13 94 -34 50 -20 92 -36 94 -34 1 2 7 16 14 31 13 30 10 32 -121
84 -49 19 -50 21 -36 73 2 8 -3 16 -12 18 -11 3 -25 -21 -53 -88z"/>
<path d="M4445 3420 c-42 -17 -69 -34 -67 -41 2 -7 -3 -18 -11 -24 -13 -9 -10
-22 17 -88 22 -54 35 -76 45 -72 7 3 19 -1 25 -9 17 -22 150 33 154 63 2 11 8
21 13 21 15 0 11 19 -18 92 -21 52 -32 68 -45 64 -9 -2 -19 2 -22 10 -7 18 -9
18 -91 -16z m142 -125 c-9 -6 -139 -55 -146 -55 -10 0 -44 80 -37 87 2 2 37
17 77 33 l74 28 17 -46 c10 -25 16 -46 15 -47z"/>
<path d="M352 3178 c-29 -94 -42 -150 -37 -158 11 -18 23 -11 34 20 5 17 14
30 19 30 10 0 145 -40 149 -44 2 -1 -1 -16 -6 -34 -8 -25 -6 -31 7 -34 14 -3
23 16 44 91 21 70 25 97 16 102 -17 11 -26 3 -33 -30 l-6 -28 -77 22 -77 23 3
36 c4 47 -22 50 -36 4z"/>
<path d="M4538 3173 c-101 -26 -109 -33 -92 -77 5 -13 14 -15 40 -10 27 5 34
3 34 -10 0 -9 -6 -16 -14 -16 -9 0 -12 -7 -9 -20 4 -14 0 -20 -12 -20 -14 0
-16 -6 -11 -26 4 -15 9 -39 12 -54 5 -21 10 -26 25 -23 14 4 18 11 14 24 -5
14 -1 19 10 19 12 0 16 6 12 20 -4 15 0 20 13 20 12 0 21 -10 25 -31 5 -20 12
-29 20 -25 8 3 30 8 50 12 29 5 36 10 32 25 -3 12 0 19 9 19 19 0 18 18 -8
116 -16 61 -26 84 -38 83 -8 0 -59 -12 -112 -26z m121 -90 c10 -37 9 -48 -1
-54 -20 -13 -48 -10 -54 5 -3 8 -12 12 -20 9 -16 -6 -40 45 -27 58 7 6 63 25
84 28 4 1 12 -20 18 -46z"/>
<path d="M285 2910 c-4 -17 -5 -33 -3 -35 3 -3 70 -14 91 -15 17 -1 5 -30 -13
-30 -11 0 -20 -7 -20 -15 0 -8 -9 -15 -20 -15 -11 0 -20 -7 -20 -15 0 -8 -8
-15 -19 -15 -13 0 -20 -9 -23 -30 -5 -35 0 -38 142 -55 19 -3 47 -7 63 -11 19
-4 27 -2 27 8 0 7 3 23 6 35 5 19 1 22 -43 28 -26 4 -56 9 -65 12 -25 6 -23
33 2 33 11 0 20 7 20 15 0 8 7 15 15 15 7 0 18 6 22 13 4 8 21 13 37 13 26 -1
31 4 36 31 7 31 7 31 -44 38 -28 4 -60 9 -71 11 -11 2 -41 6 -67 9 -45 6 -46
6 -53 -25z"/>
<path d="M4583 2913 c-7 -3 -13 -11 -13 -18 0 -8 -6 -18 -13 -22 -8 -4 -17
-16 -20 -26 -4 -11 -12 -15 -18 -11 -9 5 -10 -10 -5 -57 8 -72 11 -79 32 -79
8 0 14 -7 14 -15 0 -9 9 -15 21 -15 15 0 19 4 15 16 -3 9 -6 24 -6 35 0 12 -7
19 -20 19 -16 0 -20 7 -20 35 0 23 5 35 14 35 7 0 16 8 18 18 7 26 98 31 98 6
0 -10 6 -14 14 -11 15 6 26 -12 26 -44 0 -10 -6 -19 -14 -19 -11 0 -14 -10
-13 -35 2 -26 7 -35 20 -35 9 0 17 7 17 15 0 7 6 18 14 22 11 6 13 22 9 71 -5
52 -9 62 -24 62 -11 0 -19 7 -19 15 0 8 -9 15 -20 15 -11 0 -20 7 -20 15 0 11
-10 14 -37 13 -21 -1 -44 -3 -50 -5z"/>
<path d="M272 2662 c-19 -3 -23 -9 -20 -35 l3 -32 95 -3 c52 -2 97 -7 100 -12
3 -5 4 -28 2 -50 l-4 -41 -95 2 c-101 3 -114 -3 -106 -44 4 -21 10 -22 104
-24 78 -2 99 0 99 11 0 8 8 16 18 18 24 7 32 168 7 168 -8 0 -15 9 -15 19 0
17 -9 20 -82 23 -46 2 -93 2 -106 0z"/>
<path d="M4643 2652 l-112 -3 3 -112 c5 -137 3 -127 21 -127 11 0 15 19 17 87
3 86 3 86 30 87 33 2 35 -3 34 -76 -1 -49 1 -58 16 -58 15 0 18 9 18 64 0 67
6 76 46 68 19 -3 22 -10 22 -55 0 -101 1 -114 17 -114 12 0 15 20 15 118 0 65
-3 119 -7 121 -5 2 -58 2 -120 0z"/>
<path d="M320 2336 c0 -14 4 -27 9 -30 18 -11 41 6 41 30 0 19 -5 24 -25 24
-20 0 -25 -5 -25 -24z"/>
<path d="M4648 2325 c-5 -22 -2 -25 23 -25 24 0 29 4 29 25 0 20 -5 25 -24 25
-17 0 -25 -7 -28 -25z"/>
<path d="M4577 2220 c-17 -17 -37 -76 -36 -110 0 -23 24 -50 48 -55 11 -2 21
0 21 4 0 5 8 11 18 13 16 5 21 24 25 86 0 7 13 12 30 12 22 0 28 -4 23 -16 -3
-9 -6 -27 -6 -40 0 -14 -6 -24 -14 -24 -19 0 -29 -31 -15 -44 8 -8 13 -8 16 2
3 6 10 12 17 12 8 0 17 24 23 63 10 59 9 63 -14 85 -24 22 -25 22 -54 5 -18
-11 -29 -25 -29 -40 0 -51 -13 -73 -40 -66 -16 4 -19 12 -16 32 2 14 5 32 5
39 1 6 7 11 14 10 7 -2 13 9 15 25 4 31 -5 34 -31 7z"/>
<path d="M370 2210 l-85 -15 3 -30 c5 -68 13 -95 27 -95 8 0 15 -4 15 -10 0
-5 6 -10 14 -10 8 0 16 -6 19 -13 8 -21 68 -9 74 14 3 11 9 19 14 19 5 0 9 7
9 16 0 8 5 12 11 8 8 -5 9 9 4 47 -13 91 -7 88 -105 69z m78 -65 c1 -14 -3
-25 -8 -25 -6 0 -10 -7 -10 -15 0 -18 -72 -34 -78 -16 -2 6 -10 11 -18 11 -8
0 -14 10 -14 23 0 19 7 25 43 33 76 17 83 16 85 -11z"/>
<path d="M4554 2035 c-3 -8 -11 -12 -18 -9 -8 3 -19 -24 -33 -78 -26 -99 -78
-239 -122 -325 -35 -70 -37 -83 -16 -83 8 0 15 6 15 14 0 27 16 25 84 -6 56
-27 69 -29 77 -17 17 27 9 36 -55 65 -61 27 -64 30 -63 61 1 18 4 33 6 33 2 0
35 -11 73 -25 38 -14 75 -25 81 -25 7 0 23 33 36 73 13 39 26 78 29 85 2 6 -2
12 -10 12 -8 0 -22 -24 -33 -56 -22 -64 -26 -68 -50 -50 -18 13 -17 21 10 89
5 11 2 17 -7 17 -8 0 -23 -20 -34 -44 -17 -39 -22 -43 -41 -36 l-22 9 20 52
c11 28 18 58 15 65 -7 18 5 17 91 -5 62 -16 73 -17 77 -4 11 28 6 43 -14 43
-11 0 -20 7 -20 16 0 8 5 12 10 9 6 -3 13 0 16 9 3 8 11 13 18 10 9 -3 17 9
23 35 8 32 8 41 -3 45 -8 3 -14 0 -14 -7 0 -13 -46 -38 -54 -29 -3 3 -3 15 0
27 4 18 -1 23 -31 32 -29 9 -37 9 -41 -2z m40 -69 c10 -16 13 -32 8 -44 -6
-17 -11 -18 -43 -8 -34 11 -35 12 -27 44 10 39 39 43 62 8z"/>
<path d="M430 2020 c-14 -5 -44 -14 -68 -20 -47 -12 -47 -9 -15 -115 24 -82
23 -79 34 -68 7 7 6 27 -5 64 -20 67 -20 66 8 71 22 5 26 0 37 -43 8 -30 18
-49 27 -49 10 0 12 7 8 23 -19 66 -19 84 4 90 23 6 23 5 40 -60 10 -40 25 -61
36 -50 3 3 -5 41 -17 86 -24 87 -29 91 -89 71z"/>
<path d="M460 1819 c-41 -17 -77 -32 -78 -34 -2 -2 -1 -13 3 -25 5 -17 12 -20
35 -15 27 6 30 4 40 -35 6 -22 19 -44 28 -47 9 -4 19 -10 22 -14 8 -11 81 22
74 33 -4 6 -1 13 5 17 8 6 4 28 -16 79 -15 40 -30 72 -33 71 -3 0 -39 -14 -80
-30z m92 -63 l16 -33 -34 -17 -35 -16 -15 36 c-8 20 -14 37 -12 38 8 5 54 25
59 25 3 1 12 -14 21 -33z"/>
<path d="M508 1619 c-55 -28 -57 -30 -46 -54 9 -19 14 -22 29 -15 10 6 22 10
27 10 13 0 38 -63 26 -67 -30 -11 -36 -21 -25 -42 7 -11 15 -21 19 -21 18 1
107 56 108 68 1 6 3 15 4 20 1 4 2 11 1 16 -1 5 3 12 9 16 22 14 -16 68 -52
75 -18 4 -35 11 -38 15 -3 4 -31 -5 -62 -21z m112 -34 c12 8 13 -6 1 -38 -15
-39 -38 -41 -57 -5 -15 30 -15 32 2 45 12 9 21 10 30 2 7 -6 18 -8 24 -4z"/>
<path d="M4312 1486 c-9 -21 -7 -25 24 -40 32 -15 40 -44 8 -32 -7 3 -16 1
-19 -4 -3 -5 -12 -7 -20 -3 -8 3 -15 0 -15 -6 0 -6 -6 -8 -14 -5 -12 5 -36
-22 -36 -39 0 -6 138 -87 149 -87 6 0 15 9 21 20 9 16 4 23 -35 45 -25 15 -42
31 -39 37 3 5 12 7 20 4 8 -3 14 -1 14 5 0 6 7 9 15 6 8 -4 17 -2 20 3 3 5 16
4 31 -2 20 -10 27 -9 35 3 5 8 9 19 9 24 0 9 -138 95 -152 95 -3 0 -10 -11
-16 -24z"/>
<path d="M623 1452 c-75 -48 -84 -61 -58 -82 12 -10 18 -10 30 0 19 16 40 3
25 -15 -7 -8 -9 -18 -6 -24 3 -5 2 -11 -4 -13 -12 -4 26 -68 41 -68 6 0 8 8 4
20 -4 12 -2 20 5 20 7 0 10 7 7 15 -10 24 10 27 26 4 15 -21 16 -21 46 -3 17
10 29 24 27 30 -2 6 0 16 5 21 7 7 -4 33 -32 77 -22 36 -42 66 -43 65 0 0 -34
-22 -73 -47z m104 -90 c-13 -12 -20 -13 -28 -5 -6 6 -17 9 -24 6 -8 -2 -18 4
-24 15 -9 17 -6 23 22 40 l32 19 19 -29 c17 -27 18 -31 3 -46z"/>
<path d="M4185 1289 c-44 -60 -53 -101 -12 -61 l20 21 46 -37 c25 -20 48 -38
50 -39 3 -2 -1 -9 -7 -15 -14 -14 -16 -38 -3 -38 16 0 92 112 87 127 -5 12
-10 10 -25 -8 l-18 -23 -51 38 c-50 36 -51 38 -36 61 10 15 11 25 5 29 -6 4
-31 -21 -56 -55z"/>
<path d="M805 1300 c-3 -5 0 -19 7 -31 10 -16 10 -23 1 -26 -24 -9 -103 -76
-103 -88 0 -7 6 -18 13 -24 11 -8 27 0 72 34 58 46 75 53 75 35 0 -6 10 -14
21 -18 19 -8 16 -13 -40 -62 -64 -56 -71 -69 -46 -90 11 -10 20 -6 47 19 32
30 58 40 58 22 0 -5 -10 -15 -22 -24 -21 -14 -22 -16 -5 -22 12 -5 22 -2 31
10 10 14 15 15 21 5 5 -9 -4 -24 -27 -45 -28 -24 -34 -35 -26 -48 14 -26 25
-21 94 39 35 31 64 53 64 49 0 -4 -25 -34 -55 -67 -30 -32 -55 -62 -55 -66 0
-4 29 -33 64 -65 44 -38 67 -53 72 -45 5 7 -11 28 -39 54 -45 40 -46 42 -27
59 18 16 20 16 52 -14 35 -33 43 -36 52 -22 3 5 -10 22 -30 39 -32 27 -34 32
-22 51 7 12 15 21 18 21 3 0 24 -18 45 -40 36 -37 65 -51 65 -32 0 5 -40 45
-88 89 -76 70 -93 81 -121 79 -31 -2 -50 8 -33 18 20 12 0 59 -57 134 -34 45
-64 82 -66 82 -2 0 -6 -4 -10 -10z"/>
<path d="M4093 1170 c-9 -13 -9 -21 -2 -25 7 -5 6 -11 -1 -20 -8 -9 -8 -15 0
-20 6 -3 8 -11 4 -16 -4 -6 -11 -6 -19 1 -9 7 -15 8 -19 1 -4 -6 -13 -8 -20
-5 -7 3 -19 -3 -27 -12 -12 -15 -7 -23 51 -75 35 -33 67 -59 71 -59 4 0 12 7
19 15 11 13 7 22 -24 54 -36 36 -40 67 -5 35 28 -25 45 -6 19 21 -33 35 -7 39
35 5 44 -35 51 -36 64 -12 9 16 0 28 -55 75 -36 32 -69 57 -72 57 -4 0 -13 -9
-19 -20z"/>
<path d="M3915 982 c-19 -17 -23 -27 -15 -32 7 -4 8 -10 3 -13 -5 -3 -8 -17
-8 -31 2 -28 67 -106 89 -106 21 0 29 32 11 49 -13 14 -12 18 12 43 l27 28 21
-20 c21 -20 22 -20 39 -2 16 18 14 21 -24 63 -35 38 -45 44 -84 45 -34 1 -50
-4 -71 -24z m88 -31 c17 -14 15 -18 -25 -49 -22 -18 -42 0 -44 39 -2 23 2 26
26 25 15 -1 34 -7 43 -15z"/>
<path d="M3822 902 l-20 -16 25 -32 c14 -19 20 -35 14 -38 -5 -4 -12 -2 -15 2
-3 5 -20 8 -38 7 -18 -1 -36 2 -39 7 -3 5 -15 1 -27 -9 l-21 -18 50 -65 c53
-70 69 -80 88 -56 11 13 8 22 -18 53 -22 27 -28 40 -20 48 8 7 13 6 16 -3 4
-10 8 -10 19 -1 11 9 14 9 14 0 0 -8 8 -10 20 -6 13 4 23 0 31 -13 10 -16 16
-18 31 -9 10 7 18 16 18 22 0 5 -24 40 -54 77 -51 65 -54 66 -74 50z"/>
<path d="M1132 833 c-47 -63 -49 -69 -35 -85 22 -24 24 -23 56 22 16 22 33 38
38 34 5 -3 7 -10 4 -15 -4 -5 -3 -15 1 -21 12 -19 13 -52 2 -65 -12 -14 6 -43
26 -43 11 1 106 124 106 138 0 4 -9 13 -20 20 -17 10 -22 8 -41 -18 -22 -29
-46 -32 -35 -4 3 8 2 14 -2 14 -4 0 -7 15 -6 33 0 35 -11 57 -31 57 -7 0 -36
-30 -63 -67z"/>
<path d="M1355 761 c-3 -5 4 -12 15 -16 27 -9 26 -14 -17 -86 -36 -60 -36 -62
-17 -76 22 -16 29 -10 77 72 23 39 30 45 42 35 8 -7 23 -9 32 -6 14 6 5 16
-44 47 -65 41 -78 45 -88 30z"/>
<path d="M3609 750 c-19 -14 -25 -27 -24 -50 1 -16 -2 -30 -7 -30 -15 0 -8
-21 24 -68 17 -26 33 -49 35 -51 1 -2 12 4 23 14 14 13 17 22 10 29 -18 18
-11 35 19 51 28 14 31 14 44 -5 12 -18 15 -18 35 -4 l22 15 -33 49 c-19 30
-40 50 -52 51 -11 1 -25 3 -32 3 -6 1 -15 5 -19 9 -11 10 -16 9 -45 -13z m78
-40 c18 -22 16 -28 -19 -46 -30 -15 -32 -15 -45 2 -9 12 -9 20 -3 24 6 4 8 14
4 24 -5 14 -2 17 22 14 16 -2 34 -10 41 -18z"/>
<path d="M3408 637 c-15 -12 -13 -19 19 -82 19 -39 38 -74 43 -78 4 -5 36 6
71 23 76 38 73 36 64 49 -4 7 -19 4 -45 -9 -22 -11 -43 -20 -48 -20 -6 0 -24
29 -42 65 -18 36 -35 65 -39 65 -3 0 -13 -6 -23 -13z"/>
<path d="M3261 574 c-30 -13 -51 -27 -48 -31 4 -3 2 -12 -3 -18 -15 -18 28
-128 47 -121 7 3 13 1 13 -4 0 -15 20 -12 77 12 29 12 49 26 46 31 -3 5 0 13
7 17 19 12 -26 131 -46 123 -8 -3 -14 0 -14 6 0 16 -19 13 -79 -15z m95 -109
c4 -16 0 -24 -13 -28 -10 -2 -25 -8 -34 -11 -12 -5 -21 6 -37 49 -12 31 -22
59 -22 61 0 2 15 10 33 18 l32 13 18 -40 c9 -22 20 -50 23 -62z"/>
<path d="M1696 583 c-4 -4 -12 -8 -18 -8 -17 0 -56 -117 -41 -122 7 -2 10 -10
7 -17 -7 -18 105 -59 123 -45 6 6 16 8 21 5 5 -3 18 23 29 57 12 34 17 64 12
65 -5 2 -9 10 -9 18 0 23 -107 63 -124 47z m92 -48 c1 -1 -8 -29 -20 -62 l-23
-61 -37 15 -36 14 18 42 c9 23 20 50 23 59 5 15 11 16 39 6 18 -6 34 -12 36
-13z"/>
<path d="M1855 518 c-2 -7 -13 -45 -24 -85 -17 -62 -17 -72 -4 -77 30 -12 41
-5 47 29 6 32 9 35 34 29 15 -4 37 -11 49 -15 14 -5 25 -4 29 3 9 14 -12 26
-59 33 -33 6 -37 10 -31 28 9 31 10 31 56 18 24 -7 51 -15 61 -17 11 -4 17 0
17 10 0 10 -16 19 -42 26 -24 6 -56 15 -72 20 -39 13 -56 12 -61 -2z"/>
<path d="M3078 513 c-27 -8 -48 -20 -48 -28 0 -7 -4 -15 -10 -17 -14 -4 0 -48
15 -48 7 0 15 -6 18 -12 3 -10 15 -9 51 4 47 16 48 16 56 -5 4 -12 6 -25 4
-28 -7 -12 -68 -19 -74 -9 -7 11 -50 2 -50 -12 0 -5 9 -12 20 -15 11 -3 20 -9
20 -13 0 -14 112 24 118 39 3 9 9 18 13 21 13 9 -2 52 -16 46 -8 -3 -16 2 -19
9 -4 12 -12 12 -53 0 -26 -8 -48 -13 -49 -12 -1 1 -4 12 -8 23 -5 18 -1 24 25
33 23 8 36 8 45 0 13 -11 54 -4 54 9 0 7 -50 33 -59 31 -4 -1 -27 -8 -53 -16z"/>
<path d="M2260 435 c0 -8 10 -15 23 -17 21 -3 22 -7 19 -80 -3 -78 -3 -78 22
-78 16 0 26 6 27 15 1 8 3 24 4 35 1 11 3 38 4 60 1 38 3 40 31 40 17 0 30 5
30 10 0 6 -3 10 -7 11 -5 0 -17 2 -28 4 -77 13 -125 13 -125 0z"/>
<path d="M2729 446 c-2 -3 -28 -6 -57 -7 l-53 -3 6 -55 c14 -130 14 -129 43
-126 15 2 54 6 86 9 64 6 71 9 62 24 -5 8 -62 7 -108 -2 -17 -4 -28 19 -21 42
3 7 22 12 48 12 30 0 45 5 49 16 5 14 -1 16 -48 11 -51 -5 -54 -4 -59 19 -2
13 -1 25 2 25 3 1 22 3 41 5 71 8 81 10 83 20 2 9 -65 19 -74 10z"/>
<path d="M2448 433 c-16 -4 -18 -17 -18 -94 0 -88 0 -89 25 -89 25 0 29 9 25
58 -1 19 3 22 40 22 33 0 41 -3 39 -17 -5 -50 1 -63 26 -63 25 0 25 1 25 89 0
65 -4 90 -13 94 -23 9 -39 -8 -40 -44 -2 -31 -4 -33 -39 -34 -37 -1 -38 -1
-38 36 0 41 -5 48 -32 42z"/>
</g>
</svg>
