<?xml version="1.0" encoding="utf-8"?>
<!-- Generator: Adobe Illustrator 26.0.3, SVG Export Plug-In . SVG Version: 6.00 Build 0)  -->
<svg version="1.1" id="Layer_1" xmlns="http://www.w3.org/2000/svg" xmlns:xlink="http://www.w3.org/1999/xlink" x="0px" y="0px"
	 viewBox="0 0 169 240.9" style="enable-background:new 0 0 169 240.9;" xml:space="preserve">
<style type="text/css">
	.st0{fill-rule:evenodd;clip-rule:evenodd;fill:#1F4E75;}
	.st1{opacity:0.5;fill-rule:evenodd;clip-rule:evenodd;fill:url(#SVGID_1_);enable-background:new    ;}
	
		.st2{opacity:0.7;fill-rule:evenodd;clip-rule:evenodd;fill:url(#SVGID_00000124160258637922448280000000275156212036196791_);enable-background:new    ;}
	
		.st3{opacity:0.5;fill-rule:evenodd;clip-rule:evenodd;fill:url(#SVGID_00000013909344041892826030000008607521145059645332_);enable-background:new    ;}
	
		.st4{opacity:0.5;fill-rule:evenodd;clip-rule:evenodd;fill:url(#SVGID_00000150783904245202668550000013507999000638570384_);enable-background:new    ;}
	
		.st5{opacity:0.5;fill-rule:evenodd;clip-rule:evenodd;fill:url(#SVGID_00000165236669631523769450000010012655644301961402_);enable-background:new    ;}
	
		.st6{opacity:0.5;fill-rule:evenodd;clip-rule:evenodd;fill:url(#SVGID_00000034804623188586972540000001624446723109276605_);enable-background:new    ;}
	
		.st7{opacity:0.5;fill-rule:evenodd;clip-rule:evenodd;fill:url(#SVGID_00000068638526173650301880000014346881723710060460_);enable-background:new    ;}
	
		.st8{opacity:0.5;fill-rule:evenodd;clip-rule:evenodd;fill:url(#SVGID_00000125584527009269924580000014149281193182297731_);enable-background:new    ;}
	
		.st9{opacity:0.5;fill-rule:evenodd;clip-rule:evenodd;fill:url(#SVGID_00000146487980974229650300000013662530315402765747_);enable-background:new    ;}
	
		.st10{opacity:0.5;fill-rule:evenodd;clip-rule:evenodd;fill:url(#SVGID_00000183950586872144159810000011648574058084367030_);enable-background:new    ;}
	.st11{opacity:0.2;fill-rule:evenodd;clip-rule:evenodd;fill:#95552F;enable-background:new    ;}
	
		.st12{opacity:0.5;fill-rule:evenodd;clip-rule:evenodd;fill:url(#SVGID_00000071544300833964739350000008581166632831947964_);enable-background:new    ;}
	.st13{fill-rule:evenodd;clip-rule:evenodd;fill:#290E18;}
	.st14{opacity:0.2;fill-rule:evenodd;clip-rule:evenodd;fill:#D9772F;enable-background:new    ;}
	
		.st15{opacity:0.5;fill-rule:evenodd;clip-rule:evenodd;fill:url(#SVGID_00000021837413015619262300000011182996755627370891_);enable-background:new    ;}
	
		.st16{opacity:0.3;fill-rule:evenodd;clip-rule:evenodd;fill:url(#SVGID_00000013892977178389291670000009917529817811774129_);enable-background:new    ;}
	
		.st17{opacity:0.3;fill-rule:evenodd;clip-rule:evenodd;fill:url(#SVGID_00000064324085526863207140000012210955986453935525_);enable-background:new    ;}
	.st18{opacity:0.5;fill-rule:evenodd;clip-rule:evenodd;fill:#190024;enable-background:new    ;}
	
		.st19{opacity:0.6;fill-rule:evenodd;clip-rule:evenodd;fill:url(#SVGID_00000073716727058385473140000002958049947219933875_);enable-background:new    ;}
	
		.st20{opacity:0.8;fill-rule:evenodd;clip-rule:evenodd;fill:url(#SVGID_00000059288215928966731090000015798472052008339082_);enable-background:new    ;}
	
		.st21{opacity:0.8;fill-rule:evenodd;clip-rule:evenodd;fill:url(#SVGID_00000003094780433506789420000018101737582988476060_);enable-background:new    ;}
	.st22{opacity:0.8;enable-background:new    ;}
	
		.st23{opacity:0.8;fill-rule:evenodd;clip-rule:evenodd;fill:url(#SVGID_00000014628983100826596800000012502026833841491133_);enable-background:new    ;}
	
		.st24{opacity:0.8;fill-rule:evenodd;clip-rule:evenodd;fill:url(#SVGID_00000168078255109110800430000005390220663664656557_);enable-background:new    ;}
	
		.st25{opacity:0.8;fill-rule:evenodd;clip-rule:evenodd;fill:url(#SVGID_00000147938007820973708210000010134754197900238774_);enable-background:new    ;}
	
		.st26{opacity:0.8;fill-rule:evenodd;clip-rule:evenodd;fill:url(#SVGID_00000179631629273300984220000006297478122456454808_);enable-background:new    ;}
	
		.st27{opacity:0.8;fill-rule:evenodd;clip-rule:evenodd;fill:url(#SVGID_00000049186127889641342730000002465501384913963140_);enable-background:new    ;}
	
		.st28{opacity:0.8;fill-rule:evenodd;clip-rule:evenodd;fill:url(#SVGID_00000080165135417172619000000015976834258880097201_);enable-background:new    ;}
	
		.st29{opacity:0.6;fill-rule:evenodd;clip-rule:evenodd;fill:url(#SVGID_00000029748912515315516970000007624774787370997672_);enable-background:new    ;}
	
		.st30{opacity:0.6;fill-rule:evenodd;clip-rule:evenodd;fill:url(#SVGID_00000167366458762526507470000011109281560853997703_);enable-background:new    ;}
	.st31{fill-rule:evenodd;clip-rule:evenodd;fill:#ABA7B5;}
	
		.st32{opacity:0.2;fill-rule:evenodd;clip-rule:evenodd;fill:url(#SVGID_00000009564320813569058980000002180702623709541764_);enable-background:new    ;}
	
		.st33{opacity:0.2;fill-rule:evenodd;clip-rule:evenodd;fill:url(#SVGID_00000115488056557852294740000008981610273823124369_);enable-background:new    ;}
	.st34{fill:#9A9D9D;}
	.st35{fill:#676A6C;}
	.st36{fill:#666A6B;}
	.st37{fill:#676A6B;}
	.st38{fill:#55595A;}
	.st39{fill:#676869;}
	.st40{fill:#686769;}
	.st41{fill:#535657;}
	.st42{fill:#495555;}
	.st43{fill:#4F5355;}
	.st44{fill:#636A6B;}
	.st45{fill:#231F20;}
	.st46{fill:#26282B;}
	.st47{fill:#0F1C1F;}
	.st48{fill:#121518;}
	.st49{fill:#13171B;}
	.st50{fill:#000209;}
	.st51{fill:#000107;}
	.st52{fill:#FFFFFF;}
	.st53{opacity:0.25;fill:#231F20;enable-background:new    ;}
	.st54{fill:#14181B;}
	.st55{fill:#14181C;}
	.st56{fill:#00040A;}
	.st57{fill:#000108;}
	.st58{fill:#14171B;}
	.st59{fill:#3D3F41;}
	.st60{fill:#3C3F41;}
	.st61{fill:#000007;}
	.st62{fill:#000006;}
	.st63{fill:#000005;}
	.st64{fill:#3B3E40;}
	.st65{fill:#3C3F40;}
	.st66{fill:#3A3D3F;}
	.st67{fill:#2C2F32;}
	.st68{fill:#303138;}
	.st69{fill:#303139;}
	.st70{fill:#414148;}
	.st71{fill:#47474E;}
	.st72{fill:#2C2D35;}
	.st73{opacity:0.25;fill:#FFFFFF;enable-background:new    ;}
	.st74{fill:#14110E;}
	.st75{fill:#332D2E;}
	.st76{fill:#383A3C;}
	.st77{fill:#FCFDFF;}
	.st78{fill:#FAFAF9;}
	.st79{fill:#FCFCFB;}
	.st80{fill:#FAFBFB;}
	.st81{fill:#C7C9C8;}
	.st82{fill:#F2F2F1;}
	.st83{fill:#EED599;}
	.st84{fill:#BFC0C0;}
	.st85{fill:#564518;}
	.st86{fill:#D7D8D8;}
	.st87{fill:#C1C3C3;}
	.st88{fill:#323536;}
	.st89{fill:#131312;}
	.st90{fill:#262319;}
	.st91{fill:#36393B;}
	.st92{fill:#545658;}
	.st93{fill:#5B4D2B;}
	.st94{fill:#57595A;}
	.st95{fill:#4E5152;}
	.st96{fill:#B7B9BA;}
	.st97{fill:#45484A;}
	.st98{fill:#9E7B27;}
	.st99{fill:#494C4D;}
	.st100{fill:#B18629;}
	.st101{fill:#927124;}
	.st102{fill:#36393A;}
	.st103{fill:#1C190D;}
	.st104{fill:#2A2413;}
	.st105{fill:#40371E;}
	.st106{fill:#EAEAE8;}
	.st107{fill:#826F3F;}
	.st108{fill:#574A29;}
	.st109{fill:#3C3B3C;}
	.st110{fill:#5C4F2C;}
	.st111{fill:#4F5153;}
	.st112{fill:#16130A;}
	.st113{fill:#282312;}
	.st114{fill:#E7E6E5;}
	.st115{fill:#362F19;}
	.st116{fill:#756338;}
	.st117{fill:#312A16;}
	.st118{fill:#584C2A;}
	.st119{fill:#19160B;}
	.st120{fill:#FBBB34;}
	.st121{fill:#6E5A25;}
	.st122{fill:#A5812D;}
	.st123{fill:#392F12;}
	.st124{fill:#614D1B;}
	.st125{fill:#917125;}
	.st126{fill:#A28030;}
	.st127{fill:#E9AE30;}
	.st128{fill:#8F7945;}
	.st129{fill:#806D3F;}
	.st130{fill:#988049;}
	.st131{fill:#927C46;}
	.st132{fill:#2E2714;}
	.st133{fill:#534727;}
	.st134{fill:#917B45;}
	.st135{fill:#736238;}
	.st136{fill:#736237;}
	.st137{fill:#887442;}
	.st138{fill:#4D4324;}
	.st139{fill:#D6BC7E;}
	.st140{fill:#EFD698;}
	.st141{fill:#4C4224;}
	.st142{fill:#39321A;}
</style>
<g>
	<g>
		<path class="st0" d="M153.4,191.8l1-6.6l5.4-4.5l4.4-14.3H2l10,13.3l13.8,2.5l5.6,6l3.5,1.3l3.1,3.3l5.2,2.9l2.1,8.2
			c-2.4-11,3.5-15.7,3.5-15.7s1.6,4.4,1,8c-0.7,3.6-4,9.7-4,9.7l0,0l2.4,9.4l6.5,3.3l2.1,0.8l0,0l0,0L86.7,230l31.9,1.5l6.5-1.7
			l13.3-12.5l9,4.4l10.2-1.9h6l2.5-7.9l0.6-8.1L153.4,191.8z M119.9,228c0,0,0.4-6.2,1.5-7.7c1-1.5,3.8-2,3.8-2
			S124.1,225.6,119.9,228z"/>
		
			<linearGradient id="SVGID_1_" gradientUnits="userSpaceOnUse" x1="86.7" y1="27.7" x2="163.6" y2="27.7" gradientTransform="matrix(1 0 0 -1 0 242)">
			<stop  offset="0" style="stop-color:#C77CBD"/>
			<stop  offset="1" style="stop-color:#974577"/>
		</linearGradient>
		<path class="st1" d="M155.1,215.9l-17.7-4l-32.9-14.8l17.3,12.8l-8.6,7.4L86.7,230l31.9,1.5l6.5-1.7l13.3-12.5l9,4.4l10.2-1.9h6
			L155.1,215.9z M119.9,228c0,0,0.4-6.2,1.5-7.7c1-1.5,3.8-2,3.8-2S124.1,225.6,119.9,228z"/>
		
			<linearGradient id="SVGID_00000082351357793349069230000010023523947118716067_" gradientUnits="userSpaceOnUse" x1="12" y1="49" x2="100" y2="49" gradientTransform="matrix(1 0 0 -1 0 242)">
			<stop  offset="0" style="stop-color:#C77CBD"/>
			<stop  offset="1" style="stop-color:#974577"/>
		</linearGradient>
		
			<path style="opacity:0.7;fill-rule:evenodd;clip-rule:evenodd;fill:url(#SVGID_00000082351357793349069230000010023523947118716067_);enable-background:new    ;" d="
			M94.1,190.8l-3.8-4.9l-7.6-19.4H59L48.1,180l-8.6,2.2L12,179.9l13.8,2.5l5.6,6l3.5,1.3L38,193l5.2,2.9l2.1,8.2
			c-2.4-11,3.5-15.7,3.5-15.7s1.6,4.4,1,8c-0.7,3.6-4,9.7-4,9.7l0,0l2.4,9.4l8.7,4l0,0h3.4l6.9-15.8l6.7-27.8l14.6,10.9l4.4,5.1
			l7.1,3.7L94.1,190.8z"/>
		
			<linearGradient id="SVGID_00000106124373336006295950000013707120651441313685_" gradientUnits="userSpaceOnUse" x1="-1217.4851" y1="25.2" x2="-1191.3491" y2="25.2" gradientTransform="matrix(-1 0 0 -1 -1053.8851 242)">
			<stop  offset="0" style="stop-color:#C77CBD"/>
			<stop  offset="1" style="stop-color:#974577"/>
		</linearGradient>
		
			<polygon style="opacity:0.5;fill-rule:evenodd;clip-rule:evenodd;fill:url(#SVGID_00000106124373336006295950000013707120651441313685_);enable-background:new    ;" points="
			163.6,219.7 155.1,215.9 137.4,211.9 138.4,217.3 147.4,221.7 157.6,219.7 		"/>
		
			<linearGradient id="SVGID_00000087391445007187555740000011596707443590366085_" gradientUnits="userSpaceOnUse" x1="86.7064" y1="17.7" x2="125.1064" y2="17.7" gradientTransform="matrix(1 0 0 -1 0 242)">
			<stop  offset="0" style="stop-color:#C77CBD"/>
			<stop  offset="1" style="stop-color:#974577"/>
		</linearGradient>
		
			<path style="opacity:0.5;fill-rule:evenodd;clip-rule:evenodd;fill:url(#SVGID_00000087391445007187555740000011596707443590366085_);enable-background:new    ;" d="
			M119.9,228c0,0,0.1-1.6,0.4-3.4l-7-7.4l-26.5,12.7l31.9,1.5l6.5-1.7l-3.3-3.4C121.3,227,120.6,227.6,119.9,228z"/>
		
			<linearGradient id="SVGID_00000022532319892197186830000010635108573510586276_" gradientUnits="userSpaceOnUse" x1="-1144.1851" y1="65.45" x2="-1112.8851" y2="65.45" gradientTransform="matrix(-1 0 0 -1 -1053.8851 242)">
			<stop  offset="0" style="stop-color:#C77CBD"/>
			<stop  offset="1" style="stop-color:#974577"/>
		</linearGradient>
		
			<polygon style="opacity:0.5;fill-rule:evenodd;clip-rule:evenodd;fill:url(#SVGID_00000022532319892197186830000010635108573510586276_);enable-background:new    ;" points="
			82.7,166.4 59,166.4 69.7,172.3 73.8,175.8 88.4,186.7 90.3,185.9 		"/>
		<g>
			
				<linearGradient id="SVGID_00000139979394538787341090000007042054103441980845_" gradientUnits="userSpaceOnUse" x1="37.9" y1="48.25" x2="46.0434" y2="48.25" gradientTransform="matrix(1 0 0 -1 0 242)">
				<stop  offset="0" style="stop-color:#C77CBD"/>
				<stop  offset="1" style="stop-color:#974577"/>
			</linearGradient>
			
				<path style="opacity:0.5;fill-rule:evenodd;clip-rule:evenodd;fill:url(#SVGID_00000139979394538787341090000007042054103441980845_);enable-background:new    ;" d="
				M46,191.9l-8.1,0.8l5.2,2.9l1.8-0.1C45.2,194.1,45.6,192.9,46,191.9z"/>
			
				<linearGradient id="SVGID_00000111157248041839377440000010114308227804633273_" gradientUnits="userSpaceOnUse" x1="49.5609" y1="52.25" x2="71.7609" y2="52.25" gradientTransform="matrix(1 0 0 -1 0 242)">
				<stop  offset="0" style="stop-color:#C77CBD"/>
				<stop  offset="1" style="stop-color:#974577"/>
			</linearGradient>
			
				<path style="opacity:0.5;fill-rule:evenodd;clip-rule:evenodd;fill:url(#SVGID_00000111157248041839377440000010114308227804633273_);enable-background:new    ;" d="
				M53.5,191.2l-3.9,0.4c0.2,1.1,0.3,2.4,0.2,3.6l10.8-0.8l11.2-10.1L53.5,191.2z"/>
		</g>
		
			<linearGradient id="SVGID_00000182527739753582568170000008843988652379601565_" gradientUnits="userSpaceOnUse" x1="-1097.9851" y1="53.15" x2="-1085.2374" y2="53.15" gradientTransform="matrix(-1 0 0 -1 -1053.8851 242)">
			<stop  offset="0" style="stop-color:#C77CBD"/>
			<stop  offset="1" style="stop-color:#974577"/>
		</linearGradient>
		
			<polygon style="opacity:0.5;fill-rule:evenodd;clip-rule:evenodd;fill:url(#SVGID_00000182527739753582568170000008843988652379601565_);enable-background:new    ;" points="
			34.8,189.5 44.1,188.5 31.4,188.2 		"/>
		
			<linearGradient id="SVGID_00000119082974878850378780000009236684366976857533_" gradientUnits="userSpaceOnUse" x1="-1093.3851" y1="59.9" x2="-1065.8424" y2="59.9" gradientTransform="matrix(-1 0 0 -1 -1053.8851 242)">
			<stop  offset="0" style="stop-color:#C77CBD"/>
			<stop  offset="1" style="stop-color:#974577"/>
		</linearGradient>
		
			<polygon style="opacity:0.5;fill-rule:evenodd;clip-rule:evenodd;fill:url(#SVGID_00000119082974878850378780000009236684366976857533_);enable-background:new    ;" points="
			25.8,182.3 34.1,184.4 39.5,182.1 11.9,179.8 		"/>
		
			<linearGradient id="SVGID_00000004546687998042934750000014035239236805771961_" gradientUnits="userSpaceOnUse" x1="-1191.3259" y1="37.5" x2="-1158.4639" y2="37.5" gradientTransform="matrix(-1 0 0 -1 -1053.8851 242)">
			<stop  offset="0" style="stop-color:#C77CBD"/>
			<stop  offset="1" style="stop-color:#974577"/>
		</linearGradient>
		
			<polygon style="opacity:0.5;fill-rule:evenodd;clip-rule:evenodd;fill:url(#SVGID_00000004546687998042934750000014035239236805771961_);enable-background:new    ;" points="
			137.4,211.9 121.9,209.8 104.6,197.1 		"/>
		<polygon class="st11" points="163.6,219.7 166.1,211.9 166.7,203.8 153.4,191.8 155.1,166.4 134.9,166.4 134.9,166.4 150.4,190 
			153.6,203.2 155.1,215.9 		"/>
		
			<linearGradient id="SVGID_00000183240414514861523660000001698863768417867936_" gradientUnits="userSpaceOnUse" x1="-1209.0062" y1="50.85" x2="-1188.8278" y2="50.85" gradientTransform="matrix(-1 0 0 -1 -1053.8851 242)">
			<stop  offset="0" style="stop-color:#C77CBD"/>
			<stop  offset="1" style="stop-color:#974577"/>
		</linearGradient>
		
			<polygon style="opacity:0.5;fill-rule:evenodd;clip-rule:evenodd;fill:url(#SVGID_00000183240414514861523660000001698863768417867936_);enable-background:new    ;" points="
			134.9,166.4 137.4,198.9 137.4,211.9 155.1,215.9 152.4,193.1 		"/>
		<polygon class="st13" points="136.2,219.4 134.9,211.9 130.8,211 121.9,209.8 134.9,210.7 137.4,208.1 137.4,197.9 138.7,211.9 
			139.7,212.4 138.4,217.3 		"/>
		<polygon class="st13" points="62.3,166.4 69.3,170.7 77,177.3 85.3,184.4 68.2,171.4 57.9,167.8 47.3,166.4 		"/>
		<polyline class="st14" points="153.4,188.4 148.7,187.6 136.6,189.5 88.6,181.9 84.1,183.4 85.2,184.4 88.9,182.7 136.7,191.2 
			149.1,188.2 153.7,189.5 		"/>
		
			<linearGradient id="SVGID_00000022558436801647212470000017763828663433318818_" gradientUnits="userSpaceOnUse" x1="-1130.1851" y1="27.05" x2="-1114.0612" y2="27.05" gradientTransform="matrix(-1 0 0 -1 -1053.8851 242)">
			<stop  offset="0" style="stop-color:#C77CBD"/>
			<stop  offset="1" style="stop-color:#974577"/>
		</linearGradient>
		
			<polygon style="opacity:0.5;fill-rule:evenodd;clip-rule:evenodd;fill:url(#SVGID_00000022558436801647212470000017763828663433318818_);enable-background:new    ;" points="
			67.1,203.6 76.3,226.3 60.2,219.4 		"/>
		<g>
			
				<linearGradient id="SVGID_00000090293266109210651500000014607563971720702625_" gradientUnits="userSpaceOnUse" x1="44.1074" y1="40.25" x2="45.1752" y2="40.25" gradientTransform="matrix(1 0 0 -1 0 242)">
				<stop  offset="0" style="stop-color:#C77CBD"/>
				<stop  offset="1" style="stop-color:#974577"/>
			</linearGradient>
			
				<path style="opacity:0.3;fill-rule:evenodd;clip-rule:evenodd;fill:url(#SVGID_00000090293266109210651500000014607563971720702625_);enable-background:new    ;" d="
				M44.6,199.6l-0.5,0.1l1.1,4.2C44.8,202.3,44.7,200.9,44.6,199.6z"/>
			
				<linearGradient id="SVGID_00000020385007791480091760000010529795093089127344_" gradientUnits="userSpaceOnUse" x1="46.5" y1="41.4" x2="166.6" y2="41.4" gradientTransform="matrix(1 0 0 -1 0 242)">
				<stop  offset="0" style="stop-color:#C77CBD"/>
				<stop  offset="1" style="stop-color:#974577"/>
			</linearGradient>
			
				<path style="opacity:0.3;fill-rule:evenodd;clip-rule:evenodd;fill:url(#SVGID_00000020385007791480091760000010529795093089127344_);enable-background:new    ;" d="
				M153.6,203.2l-16.2,1.3l-31.5-6.8l-36.3-4.6L49,198.4c-0.7,2-1.7,4.3-2.5,5.8l21.4-4.1l44.9,3l3.3-1l22,4.2l15.4-1.4l12.8,3.2
				l0.3-4.2L153.6,203.2z"/>
		</g>
		<polygon class="st14" points="52.3,217.3 63,213 71.7,214.9 108.9,219.4 121,230.8 118.6,231.5 107,220.4 72.1,215.9 62.4,214.3 
			54.6,218.6 		"/>
		<path class="st18" d="M164.1,166.4H2c0,0,48.9,3.5,112.9,4.6C163.6,171.8,164.1,166.4,164.1,166.4z"/>
		
			<linearGradient id="SVGID_00000037679939497145577710000001507500823516432265_" gradientUnits="userSpaceOnUse" x1="84.35" y1="10.5" x2="84.35" y2="75.6" gradientTransform="matrix(1 0 0 -1 0 242)">
			<stop  offset="0" style="stop-color:#3D56FF"/>
			<stop  offset="1" style="stop-color:#000000"/>
		</linearGradient>
		
			<path style="opacity:0.6;fill-rule:evenodd;clip-rule:evenodd;fill:url(#SVGID_00000037679939497145577710000001507500823516432265_);enable-background:new    ;" d="
			M153.4,191.8l1-6.6l5.4-4.5l4.4-14.3H2l10,13.3l13.8,2.5l5.6,6l3.5,1.3l3.1,3.3l5.2,2.9l2.1,8.2c-2.4-11,3.5-15.7,3.5-15.7
			s1.6,4.4,1,8c-0.7,3.6-4,9.7-4,9.7l0,0l2.4,9.4l6.5,3.3l2.1,0.8l0,0l0,0L86.7,230l31.9,1.5l6.5-1.7l13.3-12.5l9,4.4l10.2-1.9h6
			l2.5-7.9l0.6-8.1L153.4,191.8z M119.9,228c0,0,0.4-6.2,1.5-7.7c1-1.5,3.8-2,3.8-2S124.1,225.6,119.9,228z"/>
	</g>
	<g>
		<path class="st0" d="M59,187.5c-3.2-3.3-15.2-10.2-15.2-10.2l-3.2,34.6l11.8,1.1c0,0,7.4-11.2,7.9-14
			C60.7,196.2,59,187.5,59,187.5z M49.7,196.2c-0.7,3.6-4,9.7-4,9.7c-3.7-12.5,3-17.7,3-17.7S50.3,192.6,49.7,196.2z"/>
		<path class="st0" d="M43.5,177.3c0,0-11.5,2.2-13.2,7.5c-1.1,3.4,0.5,20.9,3.5,24.9c0.5,0.7,7.2,2.1,7.2,2.1"/>
		<path class="st0" d="M59.7,191.8c0,0,4,12.7,2.7,22.5c-0.2,1.4-2.2,5.1-2.2,5.1l-2.3,0.4l-9.8-4.4l-0.7-2.8l-6.8-0.6
			c0,0,8.2-1.9,11.8-12.9h7.9L59.7,191.8z"/>
		<path class="st18" d="M50.4,184.4c-1.1-3.3-5.2-7.1-6.9-7.1c-1.2,0-12.6,2.7-13.4,7.9c-0.7,5.4,1,22.6,3.9,24.9
			c1.7,1.4,9.8,2.1,10.9,1.8c1.1-0.3,7-8.5,7.4-12.9S51.5,187.6,50.4,184.4z M49.7,196.2c-0.7,3.6-4,9.7-4,9.7
			c-3.7-12.5,3-17.7,3-17.7S50.3,192.6,49.7,196.2z"/>
		<g>
			
				<linearGradient id="SVGID_00000074405025628759519160000013771211946957883565_" gradientUnits="userSpaceOnUse" x1="40.6" y1="32.7614" x2="40.6" y2="62.3421" gradientTransform="matrix(1 0 0 -1 0 242)">
				<stop  offset="0" style="stop-color:#101431;stop-opacity:0.8"/>
				<stop  offset="0.6027" style="stop-color:#10132E;stop-opacity:0.8"/>
			</linearGradient>
			
				<path style="opacity:0.8;fill-rule:evenodd;clip-rule:evenodd;fill:url(#SVGID_00000074405025628759519160000013771211946957883565_);enable-background:new    ;" d="
				M48.7,188.2c-1-3.8-2.7-7.4-5.3-8.5c-1.8-0.7-8,1.9-10,4.6c-0.7,0.9-0.9,3.1-0.9,5.6c0,5.1,1.1,12,1.9,14.4
				c1.3,3.7,6.6,5.7,8.9,4.4c0.7-0.4,1.5-1.5,2.4-2.9C42.1,193.5,48.6,188.3,48.7,188.2z"/>
		</g>
		
			<linearGradient id="SVGID_00000183241894607714116190000013403058713584800653_" gradientUnits="userSpaceOnUse" x1="32.4511" y1="55.8577" x2="48.7026" y2="55.8577" gradientTransform="matrix(1 0 0 -1 0 242)">
			<stop  offset="0" style="stop-color:#101431;stop-opacity:0.8"/>
			<stop  offset="0.6027" style="stop-color:#10132E;stop-opacity:0.8"/>
		</linearGradient>
		
			<path style="opacity:0.8;fill-rule:evenodd;clip-rule:evenodd;fill:url(#SVGID_00000183241894607714116190000013403058713584800653_);enable-background:new    ;" d="
			M48.7,188.2c-1-3.8-2.7-7.4-5.3-8.5c-1.8-0.7-8,1.9-10,4.6c-0.7,0.9-0.9,3.1-0.9,5.6c0,0,8.2-1.5,13.2,2.8
			C46.9,189.7,48.7,188.3,48.7,188.2z"/>
	</g>
	<g>
		<path class="st0" d="M138.9,223.1c-0.8-3.8-3.4-8.2-3.4-8.2l-14.9-6.1c0,0-8.8,0-12,4.1c-1.7,2.1-3.9,11.4-3.9,11.4
			s10.5,11,12.3,12.5c1.8,1.4,10.1,3,12.8,1.2C132.5,236.4,139.7,226.9,138.9,223.1z M119.9,228c0,0,0.4-6.2,1.5-7.7
			c1-1.5,3.8-2,3.8-2S124.1,225.6,119.9,228z"/>
		<path class="st18" d="M135.4,214.9c-1.3-1.5-14.1,1.7-16.4,3.6c-2.3,1.9-2.5,18.7-1.8,18.9s7.5,2.6,11.4,1.3
			c3.9-1.3,10.2-11.2,10.2-14.4C138.9,220.8,136.6,216.3,135.4,214.9z M119.9,228c0,0,0.4-6.2,1.5-7.7c1-1.5,3.8-2,3.8-2
			S124.1,225.6,119.9,228z"/>
		<g class="st22">
			
				<linearGradient id="SVGID_00000069388529095389189010000008866094320339637909_" gradientUnits="userSpaceOnUse" x1="128.4398" y1="4.5703" x2="128.4398" y2="25.0056" gradientTransform="matrix(1 0 0 -1 0 242)">
				<stop  offset="0" style="stop-color:#101431;stop-opacity:0.8"/>
				<stop  offset="0.6027" style="stop-color:#10132E;stop-opacity:0.8"/>
			</linearGradient>
			
				<path style="opacity:0.8;fill-rule:evenodd;clip-rule:evenodd;fill:url(#SVGID_00000069388529095389189010000008866094320339637909_);enable-background:new    ;" d="
				M134.6,217.3c-1.6-0.7-6.1,0-9.5,1c0,0-1.1,7.3-5.2,9.7c-0.1,3,0.1,5.8,0.5,6.8c0.9,2.2,5.5,3.2,7.5,2.3c1.5-0.7,5.9-6.4,8-9.9
				c0.6-1.1,1.1-2,1.1-2.4C137.1,223,135.7,217.7,134.6,217.3z"/>
			
				<linearGradient id="SVGID_00000115510939909697437810000003708438315005370024_" gradientUnits="userSpaceOnUse" x1="121.65" y1="21.7312" x2="121.65" y2="22.364" gradientTransform="matrix(1 0 0 -1 0 242)">
				<stop  offset="0" style="stop-color:#101431;stop-opacity:0.8"/>
				<stop  offset="0.6027" style="stop-color:#10132E;stop-opacity:0.8"/>
			</linearGradient>
			
				<path style="opacity:0.8;fill-rule:evenodd;clip-rule:evenodd;fill:url(#SVGID_00000115510939909697437810000003708438315005370024_);enable-background:new    ;" d="
				M122,219.6c-0.1,0-0.1,0.1-0.2,0.1c-0.2,0.1-0.3,0.3-0.5,0.5C121.6,220,121.8,219.8,122,219.6z"/>
			
				<linearGradient id="SVGID_00000150104023168664598500000009623958163646749100_" gradientUnits="userSpaceOnUse" x1="120.6" y1="14.0181" x2="120.6" y2="21.5387" gradientTransform="matrix(1 0 0 -1 0 242)">
				<stop  offset="0" style="stop-color:#101431;stop-opacity:0.8"/>
				<stop  offset="0.6027" style="stop-color:#10132E;stop-opacity:0.8"/>
			</linearGradient>
			
				<path style="opacity:0.8;fill-rule:evenodd;clip-rule:evenodd;fill:url(#SVGID_00000150104023168664598500000009623958163646749100_);enable-background:new    ;" d="
				M121.3,220.5c-0.2,0.4-0.4,0.9-0.6,1.5c-0.5,1.6-0.7,3.9-0.8,6C119.9,227.8,120.3,222.1,121.3,220.5z"/>
		</g>
		<g class="st22">
			
				<linearGradient id="SVGID_00000096038520037666131020000015864092348538774411_" gradientUnits="userSpaceOnUse" x1="120.6985" y1="20.7" x2="121.2985" y2="20.7" gradientTransform="matrix(1 0 0 -1 0 242)">
				<stop  offset="0" style="stop-color:#101431;stop-opacity:0.8"/>
				<stop  offset="0.6027" style="stop-color:#10132E;stop-opacity:0.8"/>
			</linearGradient>
			
				<path style="opacity:0.8;fill-rule:evenodd;clip-rule:evenodd;fill:url(#SVGID_00000096038520037666131020000015864092348538774411_);enable-background:new    ;" d="
				M121.3,220.5c-0.2,0.4-0.4,0.9-0.6,1.5v0.1C120.9,221.4,121.1,220.8,121.3,220.5z"/>
			
				<linearGradient id="SVGID_00000029025625270707170090000010223855074235393197_" gradientUnits="userSpaceOnUse" x1="121.4189" y1="22.1" x2="122.0416" y2="22.1" gradientTransform="matrix(1 0 0 -1 0 242)">
				<stop  offset="0" style="stop-color:#101431;stop-opacity:0.8"/>
				<stop  offset="0.6027" style="stop-color:#10132E;stop-opacity:0.8"/>
			</linearGradient>
			
				<path style="opacity:0.8;fill-rule:evenodd;clip-rule:evenodd;fill:url(#SVGID_00000029025625270707170090000010223855074235393197_);enable-background:new    ;" d="
				M122,219.6c-0.1,0-0.1,0.1-0.2,0.1c-0.2,0.1-0.3,0.3-0.5,0.5C121.6,220,121.8,219.8,122,219.6z"/>
			
				<linearGradient id="SVGID_00000077283811637694856790000012104575461251904140_" gradientUnits="userSpaceOnUse" x1="123.4485" y1="19.8914" x2="136.9677" y2="19.8914" gradientTransform="matrix(1 0 0 -1 0 242)">
				<stop  offset="0" style="stop-color:#101431;stop-opacity:0.8"/>
				<stop  offset="0.6027" style="stop-color:#10132E;stop-opacity:0.8"/>
			</linearGradient>
			
				<path style="opacity:0.8;fill-rule:evenodd;clip-rule:evenodd;fill:url(#SVGID_00000077283811637694856790000012104575461251904140_);enable-background:new    ;" d="
				M134.6,217.3c-1.6-0.7-6.1,0-9.5,1c0,0-0.4,2.8-1.7,5.4c4.9-1,12.4,3.5,12.4,3.5c0.6-1.1,1.1-2,1.1-2.4
				C137.1,223,135.7,217.7,134.6,217.3z"/>
		</g>
		<path class="st0" d="M119.1,218.5l-11.3-4.2c0,0,1.2-3.6,7.6-4.8c0,0-5.9,0.2-10.8,4.5s-13.3,16.2-13.3,16.2l19.8,1l5.8,5.7
			C116.9,236.8,116,226.4,119.1,218.5z"/>
	</g>
	<g>
		<path class="st0" d="M88.6,166.4c0,0-7.7-5.2-10.7-6.7S62.6,159,62.6,159s-17.8-23.3-21.8-25.7s-20.5-2.2-21.8-1.6
			c-1.3,0.5,0,34.7,0,34.7H88.6z"/>
		
			<linearGradient id="SVGID_00000117643005102530874360000014088586504393759388_" gradientUnits="userSpaceOnUse" x1="-1079.7906" y1="75.5857" x2="-1079.7906" y2="110.2277" gradientTransform="matrix(-1 0 0 -1 -1053.8851 242)">
			<stop  offset="0" style="stop-color:#3D56FF"/>
			<stop  offset="1" style="stop-color:#000000"/>
		</linearGradient>
		
			<path style="opacity:0.6;fill-rule:evenodd;clip-rule:evenodd;fill:url(#SVGID_00000117643005102530874360000014088586504393759388_);enable-background:new    ;" d="
			M19.1,131.8c0,0,9.7,12.8,10.2,13.9c0.5,1.1,4,20.8,4,20.8H20.2C20.2,166.4,17.3,144.6,19.1,131.8z"/>
		<path class="st0" d="M5.9,166.4c0,0,4.5-11.9,5.6-12.8s9.3-1,11.1,0c1.9,1,11.9,12.8,11.9,12.8H5.9z"/>
		
			<linearGradient id="SVGID_00000071555230141784641990000000023276163493443773_" gradientUnits="userSpaceOnUse" x1="-1064.5851" y1="75.5725" x2="-1064.5851" y2="88.3725" gradientTransform="matrix(-1 0 0 -1 -1053.8851 242)">
			<stop  offset="0" style="stop-color:#3D56FF"/>
			<stop  offset="1" style="stop-color:#000000"/>
		</linearGradient>
		
			<path style="opacity:0.6;fill-rule:evenodd;clip-rule:evenodd;fill:url(#SVGID_00000071555230141784641990000000023276163493443773_);enable-background:new    ;" d="
			M11.5,153.6c0,0-0.8,1.9-0.7,2.7c0.1,0.9,4.7,5.8,4.7,5.8v4.3H5.9C5.9,166.4,10.3,155.3,11.5,153.6z"/>
		<path class="st31" d="M29.2,145.7c2.6,2.1,6.7,4.2,10.2,4.6c3.6,0.4,12.5-0.9,12.9-2.3c0.4-1.4-8.7-12.7-11.5-14.6
			c-2.8-1.9-16.7-2.5-21.8-1.6L29.2,145.7z"/>
		<path class="st31" d="M29.9,161.1c0,0-10.6,2.7-13.4,0.9s-5.7-5.2-5.7-6.2c0.1-1,0.4-1.7,1.1-2.1c0.7-0.4,7.7-0.9,10.3,0
			S29.9,161.1,29.9,161.1z"/>
		
			<linearGradient id="SVGID_00000137108555221225563270000000261177313660115647_" gradientUnits="userSpaceOnUse" x1="-1093.2136" y1="94.4548" x2="-1093.2136" y2="107.7942" gradientTransform="matrix(-1 0 0 -1 -1053.8851 242)">
			<stop  offset="0" style="stop-color:#C77CBD"/>
			<stop  offset="1" style="stop-color:#974577"/>
		</linearGradient>
		
			<path style="opacity:0.2;fill-rule:evenodd;clip-rule:evenodd;fill:url(#SVGID_00000137108555221225563270000000261177313660115647_);enable-background:new    ;" d="
			M52.4,146.5c0,0-4.6-7.9-11.8-9.9s-13.5-2.6-14.2-2.2s1.2,9.2,5.1,11c3.9,1.9,13.1,1.9,14.2,0.1c1.1-1.8-3-6-5.3-7.2
			s-7.9-0.9-8.6-0.2c-0.7,0.7,0.4,4.2,1.5,4.7c1.2,0.5,6.8,0.4,6.9-0.8c0.1-1.2-0.9-2.3-0.9-2.3l-2-0.1c0,0,1.2,0.7,1.3,1.7
			s-3.8,1.6-5.1,1s-1.5-3.6-0.4-3.9c1.1-0.4,5.1-0.4,7.2,0.5c2.1,0.9,4.5,5.5,4.1,6.3s-9.4,1.7-13.1-1c-3.8-2.7-3.2-8.4-2.3-8.7
			c0.8-0.4,9.1-0.1,14.5,2.9s8.8,9.1,8.8,9.1L52.4,146.5z"/>
		<path class="st18" d="M37.2,149.8l-6.9,0.6l-2.9-7.5C27.4,142.9,33.3,148,37.2,149.8z"/>
		<path class="st18" d="M20.4,162.6l-4.9,1.5l-2.2-4.4C13.3,159.7,15.7,161.8,20.4,162.6z"/>
		
			<linearGradient id="SVGID_00000170981837984180994920000005662909240724034995_" gradientUnits="userSpaceOnUse" x1="-1092.6851" y1="75.5725" x2="-1092.6851" y2="92.1725" gradientTransform="matrix(-1 0 0 -1 -1053.8851 242)">
			<stop  offset="0" style="stop-color:#C77CBD"/>
			<stop  offset="1" style="stop-color:#974577"/>
		</linearGradient>
		
			<polygon style="opacity:0.2;fill-rule:evenodd;clip-rule:evenodd;fill:url(#SVGID_00000170981837984180994920000005662909240724034995_);enable-background:new    ;" points="
			37.2,149.8 47.3,166.4 33.3,166.4 32.3,164.1 30.3,150.4 		"/>
	</g>
</g>
<g>
	<g>
		<path d="M60.5,144.4c1.1,0,1.5,0.5,1.4,1.6c0,0.3-0.2,0.5-0.3,0.8c-0.5,0.7-0.6,1.6-0.1,2.3c0.5,0.8,1.3,0.6,2.3,0.4
			c0.9,4.7,4,7.8,7.8,10.5c-0.5,0-0.8,0-1.2,0c-4.1,0.1-8.1,0.1-12.1,0.5c-2.2,0.2-4.3,0.6-6.4,1.3c-1.3,0.4-2.5,1-3.5,2
			c-0.8,0.9-1.3,1.9-0.9,3c0.4,1.2,1.4,1.8,2.7,1.9c0.7,0,1,0.1,1.2,0.9c0.2,0.7,0.8,0.9,1.4,1.1c0.9,0.3,1.8,0.3,2.7,0.3
			c1,0,1.9-0.1,2.8-0.3c1.1-0.2,2-0.3,2.9,0.6c0.6,0.6,1.6,0.6,2.5,0.6c2.7,0,5.4-0.4,8.1-1c1.9-0.5,3.8-0.7,5.9-0.7
			c0,0.6-0.2,1.3,0.3,1.8c0.5,0.6,1.2,0.9,1.9,1c1.6,0.3,3.2,0.4,4.8,0.3c0.5,0,0.8,0,1.1,0.5c0.3,0.6,1,0.8,1.6,0.9
			c0.6,0.2,1.3,0.3,2,0.3c1.2,0,2.3,0.3,3.4,0.8c1.5,0.7,3,0.7,4.6,0.7c4.1-0.2,7.9-1.3,11.6-2.8c3.5-1.4,7.1-2.5,10.8-3.2
			c1.7-0.3,3.4-0.5,5.1-0.4c3.7,0,7.4-0.1,11-0.3c1.3-0.1,2.6-0.2,3.9-0.4c1.2-0.2,2.3-0.8,3.2-1.6c1-0.9,1.1-1.7,0.4-2.8
			c-0.8-1.1-1.8-2-3-2.5c-1-0.4-2-0.8-3.3-1.3c0.6-0.2,1-0.3,1.4-0.5c2.5-0.9,4.3-2.6,5.2-5.1c0.1-0.2,0.2-0.5,0.2-0.7
			c0.2-0.6,0.9-2,1.3-2.4c0.5-0.5,0.6-1.1,0.5-1.8c-0.2-1.1-0.7-2-1.3-2.9s-0.5-0.9,0.4-1.3c0.4-0.2,0.8-0.3,1.1-0.5
			c0.7-0.4,0.8-0.3,1.3,0.3c0.3,0.5,0.4,1.1,0.5,1.7c0.1,0.6,0.2,1.1,0.4,1.7c0.4,1.2,1.2,1.6,2.5,1.3c1.1-0.2,1.9-1.2,1.8-2.3
			c-0.2-1.4-0.9-2.5-2-3.4c-0.7-0.6-1.5-1.1-2.2-1.6c0.3-0.8,0.6-1.6,0.7-2.5c0.5-3,0.2-6-0.5-9c-0.8-3.5-1.9-7-2.5-10.6
			c-0.6-3.8-1.7-7.6-3-11.2c-1.4-3.6-2.8-7.1-4.4-10.6c-1.8-4-3.3-8-4.4-12.2c-1-3.8-0.7-7.5,0.2-11.2c0.8-3.1,2.2-6,3.4-8.9
			c1.5-3.6,3.3-7,4.5-10.7c1-3.1,2-6.3,2.4-9.6c0.4-3.6,0.1-7.1-0.3-10.6c-0.4-2.9-0.9-5.7-1.8-8.5c-0.9-2.8-2.2-5.3-3.9-7.7
			c-2.3-3.3-5.2-6-8.5-8.3c-3.2-2.3-6.9-3.7-10.7-4.8c-5.7-1.6-11.5-1.7-17.3-0.9c-3.7,0.5-7.4,1.5-11,2.5c-1.4,0.4-2.6,0.9-3.9,1.5
			c-4.9,2.1-9.5,4.9-13.8,8c-3.6,2.5-6,6-7.4,10.1c-1.7,4.7-2.1,9.4-1.3,14.3c0.6,4,1.8,7.8,3.4,11.5c1.2,2.6,2.4,5.3,3.5,7.9
			c2.5,5.8,4,11.8,5,18c0.5,2.7,0.6,5.5,0.5,8.3c-0.1,2.7-0.7,5.2-1.4,7.8c-1.4,5.7-3.2,11.3-5.2,16.8c-1.6,4.5-3.4,9.1-5.7,13.3
			c-0.8,1.5-1.8,2.9-2.8,4.4c-1.2,1.7-2.3,3.3-3.5,5c-0.5,0.8-1.1,1.6-1.2,2.6c-0.1,0.6-0.4,0.7-0.9,0.6c-0.3,0-0.7-0.1-1-0.1
			c-0.6-0.1-1.2,0-1.8,0.1c-0.8,0.2-1.4,1-1.4,1.9c-0.1,0.8,0.6,1.8,1.3,2.1c0.4,0.2,0.8,0.1,1.2-0.1c0.5-0.2,0.9-0.6,1.3-0.9
			c0.6-0.6,1.2-0.4,1.7,0.3c0.1,0.2,0.3,0.4,0.4,0.6c0.6,0.8,0.4,1.5-0.4,2c-0.4,0.3-0.8,0.5-1.2,0.9c-0.7,0.9-0.4,2.3,0.7,2.5
			c1.6,0.3,2.8,0.1,3.1-1.8C60.3,145.5,60.4,144.9,60.5,144.4z"/>
		<path class="st34" d="M96.2,163.8c-0.8-0.2-1.6-0.4-2.4-0.6c-1.2-0.3-2.2-1-2.9-2c-0.4-0.6-1-0.9-1.6-1c-2.3-0.6-4.5-1.3-6.7-2.3
			c-2-0.9-3.9-2.1-5.5-3.7c-0.2-0.2-0.7-0.5-0.4-0.9c0.3-0.4,0.7,0,0.9,0.2c3.3,3,7.5,4.5,11.7,5.8c0.1,0,0.2,0,0.4,0
			c0.3-0.3,0.1-0.6,0.1-0.8c-0.2-1.8,0.4-3.4,1.4-4.8c0.9-1.3,2.1-2.4,3.5-3.3c0.2-0.1,0.6-0.5,0.8,0c0.2,0.3-0.2,0.5-0.4,0.7
			c-0.8,0.5-1.5,1.2-2.2,1.8c-1,0.9-1.7,2-2.1,3.3c-0.8,2.5,0.4,5,2.8,6c1.5,0.6,3.1,0.8,4.7,0.9c2.8,0,5.5,0.1,8.3,0.1
			c1,0,2.1,0.1,3.1,0.2c0.3,0,0.6,0.1,0.9,0.1s0.5,0.1,0.5,0.4c0,0.4-0.4,0.4-0.7,0.4c-0.2,0-0.4,0-0.6-0.1
			c-3.2-0.4-6.4-0.2-9.7-0.3c-0.4,0-0.8,0.2-1.2,0.3c-3.2,1.4-6.7,1.9-10.1,2.2c-2.8,0.2-5.5,0.8-8,1.9c-0.9,0.4-1.7,0.9-2.2,1.7
			s-0.4,1.2,0.4,1.6c0.3,0.2,0.6,0.3,0.9,0.4c1.6,0.3,3.2,0.5,4.8,0.2c1-0.9,1.7-2.1,2.8-3c2-1.5,4.2-2.4,6.7-2.5c2,0,4-0.3,6.1-0.1
			c0.5,0,1.2-0.1,1.2,0.5c0,0.8-0.8,0.4-1.2,0.4c-2.6,0-5.1,0-7.7,0.6c-2.2,0.5-4.1,1.6-5.6,3.2c-1.2,1.4-1,2.1,0.8,2.5
			c0.9,0.2,1.9,0.4,2.8,0c2.3-4.2,6.4-5.2,10.7-5.6c0.6-0.1,1.3-0.1,2,0.1c1.3,0,2.6,0.1,3.8,0.3c0.2,0,0.4,0,0.6,0.1
			c0.3,0.1,0.6,0.2,0.5,0.6c-0.1,0.4-0.4,0.4-0.7,0.3c-1-0.3-2.1-0.2-3.1-0.3c-3.9-0.3-7.5,0.6-10.8,2.8c-0.4,0.3-0.9,0.6-1.2,1
			c-0.6,0.7-0.5,1.3,0.3,1.7c0.7,0.4,1.6,0.5,2.4,0.6c2.7,0.1,5.3-0.2,7.8-0.9c2.1-0.6,4.2-1.3,6.2-2.1c3.1-1.2,6.3-2.2,9.6-2.8
			c2.6-0.5,5.2-0.6,7.8-0.6c3.5,0,6.9,0,10.4-0.3c1-0.1,2-0.2,2.9-0.5c0.9-0.2,1.7-0.7,2.3-1.3c0.6-0.5,0.6-0.9,0.2-1.5
			c-0.6-1-1.5-1.7-2.6-2.2c-1.9-0.9-4-1.5-6.1-2.1c-0.8-0.2-1.6-0.5-2.4-0.7c-0.4-0.1-0.7-0.2-0.6-0.8c0.7-0.4,1.4,0,2.1,0
			c3.7,0.4,7.4-2.1,8.6-4.5c0.4-0.8,0.7-1.6,0.1-2.4c-0.8-0.6-1.1-1.4-1-2.4c0-0.7,0.3-1.4,0.1-2.1c-0.2-0.8-0.2-0.9-0.9-0.7
			c-0.9,0.2-1.8,0.3-2.7,0.5c-0.2,0.4,0.1,0.8,0.2,1.2c0.2,0.8,0.4,1.5,0.4,2.3c0,1.9-1.4,2.9-3.1,2.3c-1-0.3-1.7-1.1-2-2
			c-0.3-0.6-0.1-1.2,0.3-1.7c0.4-0.5,0.7-1.1,0.6-1.8c-1.1-0.9-2.4-1.6-3.4-2.7c-0.2-0.2-0.5-0.3-0.8-0.1c-0.3,0.5-0.4,1-0.5,1.5
			c0,0.7-0.1,1.3-0.9,1.6c-0.9,0.3-1.8,0.4-2.6-0.2c-1-0.7-1.3-1.9-0.8-3.1c0.5-1.2,1.4-2,2.3-2.8c0.2-0.1,0.3-0.3,0.5-0.4
			c0.4-0.6,0.1-1.2,0-1.8c-1.4-4.9-1.6-9.9-1.8-15c-0.3-5.1-0.6-10.1-0.8-15.2c0-0.6-0.3-1.1-0.2-1.7c0.1-0.3,0.1-0.8,0.4-0.1
			c0.3,0.6,0.3,1.3,0.4,2c0,0.4,0,0.8,0.4,1.1c0-0.4,0-0.8,0-1.2c0,0.5,0,1.1,0.1,1.6c0,0.4,0.1,0.7,0.1,1c0.2,2.2,0.4,4.4,0.5,6.5
			c0.1,1.9,0.1,3.7,0.2,5.6c0.2,3.6,0.6,7.2,1.4,10.7c0.3,1.3,0.4,2.7,0.6,4c0.5,3.9,3.9,7.1,7.8,7.2c1.3,0,2.6,0,3.9-0.5
			c4.9-2.7,6.4-5.3,5.7-11c-0.9-6.5-2.2-13-3.9-19.4c-0.8-3-2.2-5.8-3.2-8.7c-1.8-4.8-3.2-9.8-4.5-14.8c-0.4-1.8-1.1-3.5-1.5-5.2
			c-1-4-0.7-8,0.4-12c0.6-2.3,1.5-4.5,2.5-6.6c0.3-0.7,0.6-1.5,0.9-2.2c2.1-6.5,3.4-13.3,4.2-20.1c1-9.4-0.8-18.3-5.6-26.6
			c-0.9-1.6-1.7-3.3-2.8-4.8c-1.1-1.3-2.6-2.4-4-3.2c-3.7-2.2-7.6-3.8-11.9-4.6c-4.5-0.9-9.1-1.1-13.7-0.4C98.4,7.3,94,8.3,89.8,9.8
			c-3.9,1.4-7.6,3.1-11,5.4c-1.2,0.8-2.4,1.6-3.6,2.4c-4.9,2.9-7.8,7.3-9.3,12.7C64.4,35.5,64.6,40.7,66,46c0.9,3.5,2.2,6.8,3.8,10
			c3.4,7,5.8,14.3,7.2,22c0.6,3.3,0.9,6.7,0.9,10.1c0,1.4-0.3,2.7-0.6,4c-1.3,6.6-3.4,13-5.6,19.4c-1.6,4.5-3.4,9-5.4,13.3
			c-1,2.2-2.3,4.1-3.7,6c-1.1,1.5-2.2,3.1-3.3,4.7c-0.2,0.2-0.6,0.9-1,1.8c-0.2,0.5-0.3,1-0.4,1.3c0.1,0.1,0.3,0.2,0.5,0.5
			c0.1,0.1,0.4,0.7,0.1,1.3c-0.1,0.1-0.2,0.3-0.5,0.5c0.2,0.2,0.3,0.4,0.5,0.7c0.2,0.2,0.4,0.5,0.5,0.7c0.1-0.1,0.2-0.2,0.5-0.3
			c0.2,0,0.3,0,0.4,0c0.4,0.1,0.6,0.6,0.6,0.7c0.1,0.4,0.1,0.7,0.1,0.9c0.2,0,0.4,0,0.6,0c0.3,0.1,0.6,0.2,0.7,0.3
			c0-0.1-0.1-0.4,0.1-0.8c0.2-0.3,0.6-0.5,1-0.4c0-0.5,0.1-1.3,0.2-2.2c0.6-4.9,2.5-8.2,3.8-10.3c4-6.7,7-13.9,9.2-21.4
			c0,0,0.1,0,0.1-0.1c0.2-0.2,0.4-0.4,0.6-0.2c0.3,0.2,0.2,0.4,0.1,0.7c-1.7,6.5-4,12.8-7.4,18.6c-1.6,2.8-3.1,5.5-4.3,8.5
			c-2.1,5.5-2,11.1,0.4,16.5c0.4,0.9,0.9,1.7,1.6,2.4c1.4,1.5,2.8,2.9,4.6,4c1.2,0.7,2.4,1.1,3.7,1.4c2.4,0.6,4.9,0.5,7.4,0.5
			c0.4,0,1.1-0.3,1.2,0.3s-0.7,0.6-1.1,0.6c-1.1,0.1-2.2,0-3.5,0c0.5,0.7,1.2,0.7,1.8,1c0.4,0.2,0.9,0.2,1.2,0.5
			c0.1,0.1,0.2,0.2,0.1,0.3c0,0.2-0.2,0.3-0.4,0.3c-0.2,0-0.3-0.1-0.5-0.1c-1.5-0.4-3-1-4.3-1.9c-0.2-0.1-0.4-0.3-0.6-0.4
			c-1.8-0.3-3.5-1-5.3-1c-3.3,0.1-6.7,0.1-10,0.3c-2.9,0.1-5.8,0.5-8.6,1.2c-0.7,0.2-1.4,0.5-2.1,0.7c-0.8,0.3-1.5,0.8-2.1,1.5
			c-0.9,1-0.9,2-0.2,2.7c0.9,0.9,2.5,0.9,3.1,0.2c2.5-2.7,5.9-3.7,9.5-4.1c1.7-0.2,3.5-0.3,5.2-0.2c0.3,0,0.6,0,0.9,0.1
			c0.2,0,0.3,0.1,0.3,0.3c0,0.3-0.2,0.4-0.4,0.4c-0.7,0-1.4,0-2.1,0c-2.5,0.1-5,0.3-7.5,1c-1.6,0.5-3,1.2-4.3,2.2
			c-0.3,0.2-0.6,0.5-0.8,0.8c-0.9,1-0.7,1.6,0.6,2c0.6,0.2,1.1,0.2,1.7,0.3c1.4,0.1,2.8-0.2,4.2-0.3c0.4,0,0.8-0.1,1-0.6
			c0.9-2.1,2.7-3.1,4.9-3.6c1.1-0.2,2.2-0.4,3.3-0.3c1.4,0,2.8,0.2,4.2,0.3c0.4,0,0.9,0,0.8,0.5c0,0.4-0.5,0.3-0.8,0.3
			c-0.9,0-1.8-0.1-2.7-0.2c-1.4-0.1-2.8,0-4.2,0.2c-1.5,0.2-2.8,0.9-3.9,2c-0.4,0.4-0.8,0.9-0.6,1.5s0.8,0.8,1.4,0.9
			c1.5,0.3,3,0.1,4.4-0.1c2-0.3,3.9-0.6,5.9-1.1c1.5-0.4,3.1-0.4,4.7-0.4c0.5,0,0.9-0.1,1.3-0.5c0.6-0.7,1.4-1,2.2-1.4
			c1.6-0.7,3.3-1.1,5-1.5c2.4-0.6,4.8-0.6,7.2-1c0.9-0.1,1.7-0.3,2.5-0.6C95.8,164.3,96.2,164.3,96.2,163.8z"/>
		<path class="st35" d="M132.5,15c0,0.7,0.4,1.2,0.8,1.8c1.4,2.4,2.7,4.8,3.9,7.3c1.4,2.9,2.2,6,2.8,9.2c0.5,2.6,0.7,5.3,0.9,8
			c0.2,1.8-0.1,3.6-0.3,5.3c-0.5,3.6-1.2,7.1-1.9,10.7c-0.6,2.8-1.2,5.6-1.9,8.4c-0.1,0.2-0.1,0.5-0.1,0.7c0.7-1.2,1.1-2.6,1.7-3.8
			c2.4-5.1,4.1-10.3,5.1-15.9c0.1-0.3,0.1-0.7,0.1-1c0.2-5.5-0.4-10.9-1.7-16.2c-1.1-4.6-3.4-8.5-6.6-11.9
			C134.4,16.7,133.6,15.7,132.5,15z"/>
		<path class="st35" d="M134.5,92.5c0.1,1.8,0.7,3.5,1.1,5.2c1.1,4.4,2.7,8.8,4.4,13c1.8,4.3,3,8.8,3.7,13.4
			c0.3,2.2,0.9,4.3,1.3,6.4c0.5,2.7,1,5.3,0.9,8.1c-0.1,2.2-0.9,3.9-2.6,5.4c-1,0.8-2,1.6-2.9,2.5c1.8,0,3.5-0.7,5-1.6
			c1.2-0.7,1.8-1.8,2.1-3.1c0.6-2,0.7-4.2,0.4-6.3c-0.2-2.1-0.7-4.2-1.3-6.3c-0.9-3.2-1.5-6.5-2.1-9.8c-0.8-4.3-2.4-8.3-4-12.3
			c-1.3-3.3-2.6-6.6-4.1-9.8C135.6,95.7,135.1,94.1,134.5,92.5z"/>
		<path class="st36" d="M124.3,107.9c0.2,1.6,0.2,3.2,0.4,4.8c0.1,1.1,0.3,2.1,0.3,3.2c0,2.8,0.3,5.5,0.3,8.3c0,2,0.2,3.9,0.5,5.9
			c0,0.2,0,0.3,0,0.5c0,3.7,0.7,7.3,1.7,10.8c0.1,0.2,0.1,0.4,0.1,0.6c0.5-0.1,0.7-0.4,0.6-1c-0.6-3.7-1.3-7.4-1.8-11.1
			c-0.3-2.6-0.6-5.2-0.6-7.9c0.1-3.1-0.6-6.2-0.6-9.2c0-0.2,0-0.4,0-0.6c-0.3-1.1,0.3-2.2-0.1-3.2
			C124.9,108.5,124.9,107.9,124.3,107.9z"/>
		<path class="st37" d="M76.1,108.7c-0.5,0.3-0.6,0.9-0.7,1.4c-0.9,3.1-2.1,6-3.4,8.9c-0.8,2-1.6,4.1-2.7,6
			c-1.2,2.2-2.5,4.5-3.8,6.7c-0.6,1.1-1.2,2.2-1.6,3.4c-0.4,1-0.8,2-1,3.4c-0.2,1-0.3,2.4-0.1,4.2c0.1-0.3,0.3-0.7,0.3-1.2
			c0.1-0.6,0-1.1,0.1-1.2c0.4-2.3,1.2-4.5,2.2-6.6c1.1-2.2,2.3-4.4,3.5-6.6c2.7-5,5-10.1,6.5-15.7C75.6,110.5,76.1,109.6,76.1,108.7
			z"/>
		<path class="st37" d="M141.9,152.7c0.3,2.3-1.1,3.7-2.7,4.8c-1.6,1.2-3.5,2-5.6,1.8c-0.6-0.1-1.2,0-1.9,0c-0.3,0-0.6,0-0.7,0.3
			c0.7-0.2,1.4,0.2,2,0.4c4.1,1.2,8.5-1.1,9.8-5.2C143.4,153.3,143.3,153.3,141.9,152.7z"/>
		<path class="st38" d="M137.2,151c-0.1-0.8-0.4-1.9-0.8-2.9c-0.2-0.5-0.8-0.7-1.5-0.6c-0.6,0.1-0.4,0.5-0.4,0.9
			c0,0.7-0.1,1.3-0.6,1.8c-0.5,0.6-0.4,1.1,0,1.7c0.2,0.4,0.5,0.6,0.9,0.8C136.2,153.5,137.2,152.8,137.2,151z"/>
		<path class="st38" d="M127.1,147.9c0.8,0,1.1-0.2,1.1-0.8c0.1-1,0.4-1.9,1-2.8c0.3-0.4-0.2-1.6-0.6-1.8c-0.1,0-0.3,0-0.3,0
			c-1.2,0.8-2.3,1.7-2.8,3C125,146.8,125.9,147.9,127.1,147.9z"/>
		<path class="st38" d="M149.8,149.9c1.2,0,1.8-0.9,1.5-2c-0.2-0.8-0.7-1.5-1.3-2.1c-0.6-0.5-1.3-1-2-1.4c-0.2-0.1-0.4-0.3-0.7,0
			c-0.2,0.2-0.2,0.4,0,0.6c0.7,0.8,1,1.8,1,2.8c0,0.5,0.2,1,0.4,1.4C148.9,149.7,149.3,149.9,149.8,149.9z"/>
		<path class="st38" d="M143.3,152.2c1.1,0,1.6-0.7,1.4-1.8c-0.2-1.2-0.9-2.1-1.5-3.1c-0.4-0.5-0.8-0.3-1.2-0.2
			c-0.5,0.2-0.2,0.5-0.2,0.8c0.1,0.6,0.1,1.1,0,1.7c-0.1,0.5-0.2,1,0,1.5C141.9,151.8,142.6,152.2,143.3,152.2z"/>
		<path class="st39" d="M103.4,168.5c-1.2-0.4-2.5-0.3-3.8-0.2c-2.5,0.2-4.9,1.1-6.9,2.7c-1,0.8-1.8,1.6-2,3c0.3,0,0.6-0.1,0.7-0.4
			c0.3-0.9,1-1.4,1.7-1.9c2.9-2,6-3.2,9.6-3.1C102.9,168.5,103.2,168.5,103.4,168.5z"/>
		<path class="st38" d="M52.9,140.5c0,1,0.8,1.5,1.6,0.9c0.9-0.7,1.7-1.3,2.9-1.2c0.2,0,0.3-0.1,0.3-0.3c0-0.1-0.1-0.3-0.1-0.3
			c-0.2-0.1-0.4-0.3-0.7-0.3c-0.9,0-1.8-0.1-2.7-0.1C53.3,139.2,52.9,139.7,52.9,140.5z"/>
		<path class="st40" d="M94.2,167c-2.9-0.3-5.3,0.9-7.4,2.8c-0.8,0.8-1.7,1.5-2.1,2.7c0.5,0.1,0.8-0.1,1-0.5c1.8-2.7,4.4-4,7.5-4.7
			C93.6,167.2,93.9,167.3,94.2,167z"/>
		<path class="st41" d="M59.3,143c-0.3,1-0.7,1.9-1.7,2.4c-0.4,0.2-0.8,0.5-0.7,1c0.1,0.4,0.4,0.6,0.8,0.7c0.5,0,1.1,0,1.5-0.5
			c0.1-0.1,0.2-0.3,0.2-0.4c0.1-1,0.2-2.1,0.3-3.1C59.5,143,59.4,143,59.3,143z"/>
		<path class="st42" d="M96.2,163.8c-0.4,0.6-1.1,0.6-1.6,0.7c-1.2,0.3-2.4,0.4-3.6,0.6c-1.7,0.2-3.5,0.1-5.2,0.9
			c2-0.2,3.9-0.4,5.9-0.6c1.5-0.2,3-0.5,4.5-0.9c0.5-0.1,1-0.2,1.4-0.6C97,163.7,96.6,163.7,96.2,163.8z"/>
		<path class="st43" d="M62.5,143.6c-0.2,0.5-0.1,1,0,1.5c0.2,0.8,0.1,1.5-0.3,2.1c-0.3,0.4-0.4,0.7-0.3,1.2
			c0.1,0.4,0.4,0.5,0.7,0.5c0.4,0,0.7-0.2,0.7-0.6c-0.3-1.5-0.1-3.1-0.6-4.6C62.7,143.6,62.7,143.6,62.5,143.6z"/>
		<path class="st44" d="M129.5,145.4c0.6,0,0.9,0.5,1.2,0.9c0.8,0.8,1.8,1.5,2.9,1.9c0.1-0.6-0.2-1-0.7-1.3c-0.9-0.4-1.6-1-2.3-1.7
			C130,144.6,130,144.6,129.5,145.4z"/>
		<path class="st45" d="M124.3,107.9c0.1,0.2,0.3,0.5,0.4,0.9c0.2,0.6,0.3,1.1,0.3,1.9c0.1,0.7,0.2,1.5,0.2,2.3
			c0.2-0.5,0.4-1.1,0.6-1.6c0-1.3-0.2-2.5-0.6-3.6c-0.1-0.2-0.3-0.5-0.5-0.4C124.3,107.3,124.2,107.6,124.3,107.9z"/>
		<path class="st46" d="M84,115.3c0.3,0,0.5-0.1,0.5-0.4s-0.2-0.5-0.5-0.5s-0.5,0.1-0.5,0.4C83.5,115.1,83.7,115.2,84,115.3z"/>
		<path class="st47" d="M83.4,142c0.1,0.3,0.4,0.4,0.7,0.3c0.2-0.1,0.3-0.3,0.2-0.5c-0.1-0.3-0.4-0.4-0.7-0.2
			C83.4,141.7,83.3,141.8,83.4,142z"/>
		<path class="st48" d="M113.8,115.4c0.3-0.1,0.5-0.2,0.5-0.6c0-0.2-0.2-0.3-0.5-0.3c-0.3,0.1-0.4,0.3-0.4,0.5
			C113.4,115.3,113.5,115.4,113.8,115.4z"/>
	</g>
	<g>
		<path d="M127.9,139c-0.4-2.3-0.8-4.5-1.1-6.7c-0.2-1.7-0.3-3.5-0.4-5.3c-0.1-0.8,0.1-1.6-0.1-2.4c-0.1-0.5,0-0.9,0.5-1.3
			c2.7-2,5.5-3.8,8.3-5.5c1.4-0.8,2.8-1.6,4.2-2.6c1.1-0.8,2.4-1.4,3.7-1.8c2.6-0.8,2.7-1.1,1.8-3.5c-1.5-4.1-3.6-8-5.4-11.9
			c-1.9-4.1-3.6-8.3-4.7-12.7c-0.1-0.6-0.2-1.2-0.3-1.7c-0.1-0.7-0.7-1.2-1.3-1.3c-0.3-0.1-0.4,0.2-0.6,0.4
			c-5.5,5.2-12,8.5-19.3,10.5c-7.2,2-14.5,2.4-21.8,1c-4.7-0.9-9.1-2.7-12.8-5.8c-0.6-0.5-1.1-1.1-1.9-1.5c-0.9-0.4-1.1-0.4-1.4,0.6
			c-0.4,1.4-0.7,2.9-0.9,4.3c-0.4,3.6-1.5,7.1-2.8,10.4c-1.4,3.4-2.5,6.8-3.7,10.3c-0.3,1-0.7,2-1.2,3c-0.4,0.8-0.3,0.9,0.5,1.4
			c1.8,1.1,3.3,2.4,5.3,3c0.2,0.4-0.1,0.7-0.2,1c-1,2.2-2.2,4.3-3.5,6.4c-0.8,1.3-1.4,2.7-2.1,4c-0.4,0.7,0,1.4,0.8,1.3
			c1.2-0.2,2.4,0.1,3.6,0.2c2.8,0.2,5.5,0.4,8.3,0.7c3.9,0.3,7.7,1,11.5,1.7c5.4,0.9,10.7,2,16.2,2.6c6.3,0.6,12.7,1.4,19.1,1.4
			C126.4,139.1,127.1,139.1,127.9,139z"/>
		<path class="st49" d="M75.7,110.8c0.6,0.1,0.5,0.6,0.5,1c-0.4,2.2-1,4.4-1.9,6.5c-1.3,2.9-2.6,5.9-4.3,8.7
			c-0.8,1.3-1.5,2.5-2.1,3.8c-0.1,0.2-0.2,0.4-0.3,0.7c1.7,0.2,3.3,0.5,5,0.6c1.9,0.1,3.7,0.3,5.6,0.4c1.6,0.2,3.2,0.3,4.8,0.6
			c1.9,0.3,3.8,0.6,5.7,0.9c2.7,0.4,5.4,0.9,8.1,1.4c2.5,0.4,4.9,0.9,7.4,1.2c1.9,0.3,3.8,0.4,5.7,0.6c1.4,0.1,2.7,0.1,4.1,0.4
			c1,0.2,2,0.2,3,0.3c2,0.2,3.9,0.5,5.9,0.3c0.6,0.2,1.2,0.1,1.9,0.1c1.4,0,1.6-0.2,1.5-1.6c-0.2-2.3-0.6-4.6-0.8-6.9
			c-0.1-2.5-0.5-5-0.5-7.5c0.1-3.8-0.4-7.5-1-11.3c-0.1-0.4-0.2-0.7,0.1-1.1c0.4-0.3,0.8-0.3,1,0.3c0.3,1.5,0.6,3,0.8,4.5
			c0.3,2.4,0.2,4.8,0.3,7.2c0,0.1,0.1,0.2,0.1,0.5c1.6-0.9,3-2,4.4-3c1.9-1.6,3.4-3.6,5.4-5.1c1.1-0.9,2.3-1.7,3.5-2.5
			c1.7-1.3,2.3-2.8,1.9-5c-0.4-2-1.1-4-1.9-5.8c-0.2-1-0.9-1.8-1.3-2.8c-2.3-4.1-4-8.5-4.9-13.1c-0.1-0.5,0-1-0.6-1.3
			c-1.6,1.1-3,2.5-4.7,3.6c-1,0.6-2,1.4-3.1,1.9c-2.7,1.4-5.4,2.8-8.2,3.7c-2.7,0.9-5.5,1.6-8.3,2.1c-3.7,0.7-7.4,1-11.1,0.7
			c-5.7-0.3-11.2-1.6-16.2-4.5c-1.3-0.8-2.6-1.6-3.7-2.8C77,88.3,76.6,88,76,87.8c-0.5,0.9-0.7,2-0.8,3c-0.2,2.7-0.8,5.4-1.6,8
			c-0.5,1.6-1.1,3.1-1.7,4.6c-1.4,3.3-2.4,6.7-3.5,10.1c-0.2,0.7-0.5,1.4-0.8,2.1c-0.2,0.3-0.2,0.6,0.1,0.8c1.3,0.8,2.5,1.9,4,2.4
			c0.8,0.3,0.9-0.4,1.1-0.8c0.8-1.9,1.6-3.8,2.2-5.7C75.1,111.6,75.2,111.1,75.7,110.8z"/>
		<path class="st50" d="M139.5,101c0.1,1.3,0.8,2.5,1.1,3.8c0.2,0.9,0.5,1.8,0.6,2.7c0.2,1.2-0.1,2.2-0.9,3.1
			c-0.6,0.7-1.3,1.2-2,1.6c-1.3,0.7-2.4,1.8-3.6,2.7c-1.6,1.2-2.9,2.8-4,4.4c0.2,0,0.3-0.1,0.5-0.1c2.5-1.7,5.3-3,7.8-4.8
			c1.3-0.9,2.9-1.5,4.4-2c1-0.3,1.1-0.4,0.7-1.4C142.8,107.6,141.4,104.2,139.5,101z"/>
		<path class="st50" d="M124.1,109.8c-0.5,0.2-0.5,0.6-0.5,1c0.3,2,0.4,4.1,0.7,6.1c0.4,2.3,0.2,4.6,0.2,6.9c0,0.9,0.2,1.8,0.3,2.7
			c0.3,2.4,0.3,4.7,0.6,7.1c0.2,1.1,0.4,2.3,0.3,3.5c0,0.9,0,1-1,1c-0.7,0-1.3,0-2,0c1.2,0.5,2.5,0.2,3.7,0.2c0.4,0,0.4-0.4,0.4-0.7
			c-0.2-1.3-0.4-2.6-0.6-3.9c-0.3-1.9-0.7-3.9-0.6-5.8c0-2.7-0.3-5.4-0.3-8.1c-0.1-2.2-0.1-4.3-0.5-6.5
			C124.7,112,124.4,110.9,124.1,109.8z"/>
		<path class="st50" d="M132.7,83.9c0.3,1.4,0.6,2.7,1,4.1c0.9,3.5,2.2,6.8,4.1,9.9c0.1,0.2,0.3,0.3,0.5,0.4
			c-0.9-2.4-1.9-4.7-2.8-7.1c-0.7-2-1.6-4-1.8-6.1c0-0.4-0.1-0.8-0.3-1.1C133.2,83.5,132.9,83.6,132.7,83.9z"/>
		<path class="st51" d="M75.7,110.8c-0.4,0-0.6,0.3-0.8,0.7c-0.7,1.9-1.5,3.9-2.3,5.8c-0.2,0.5-0.3,1.2-1,1.3
			c1.1,0.5,1.1,0.5,1.6-0.5c0.9-1.8,1.3-3.8,1.8-5.8C75.3,111.8,75.4,111.3,75.7,110.8z"/>
	</g>
	<path class="st52" d="M72.1,63.4"/>
	<path class="st52" d="M55.5,87.6"/>
	<path class="st52" d="M72.1,63.5"/>
	<path class="st52" d="M55.5,87.7"/>
	<g>
		<path d="M130.9,61c2.5-3.1,4.7-6.4,6.1-10.2c0.7-2.1,1.3-4.2,1.2-6.4c-0.1-2.3-0.8-4.3-2.8-5.6c-1.5-1-3.3-1.1-5-0.8
			c-3.4,0.5-6.3,2.2-8.9,4.3c-5.4,4.3-9.3,9.7-11.5,16.3c0,0.1,0,0.2-0.1,0.3c-0.4,1.5-0.7,2.9-0.7,4.5c0.1,1.7,0.5,3.2,1.5,4.5
			c1,1.3,2.4,2,4.1,2.2c2.8,0.3,5.3-0.6,7.7-1.9c2.9-1.6,5.5-3.7,7.7-6.2C130.4,61.6,130.6,61.2,130.9,61z"/>
		<path d="M87.9,60.2c-0.5-2.6-1.3-5.2-2.5-7.6c-2.1-4.5-4.9-8.6-8.6-12c-1.5-1.4-3.2-2.6-5.1-3.3c-1-0.3-2-0.6-3-0.3
			c-1.8,0.4-2.9,1.7-3.3,3.8c-0.4,2.5,0,4.9,0.7,7.2c1,3.4,2.5,6.5,4.4,9.5c0.3,0.4,0.5,0.8,0.7,1.2c2.2,3.4,4.9,6.3,8.4,8.4
			c0.9,0.5,1.9,0.9,2.9,1.2c1.3,0.3,2.6,0.2,3.7-0.6c0.9-0.7,1.3-1.6,1.6-2.6c0.4-1.4,0.2-2.8,0.1-4.1C88,60.7,88,60.4,87.9,60.2z"
			/>
		<path class="st53" d="M130.9,61c-0.4,0.2-0.5,0.6-0.8,0.8c-3,3.1-6.2,5.8-10.3,7.3c-1.8,0.7-3.6,1-5.4,0.7
			c-2.6-0.4-4.1-2.1-4.7-4.6c-0.5-2-0.3-3.9,0.2-5.9c0-0.2,0-0.3,0.1-0.5c-0.8,2.1-1.1,4.2-0.8,6.4c0.2,2,2.5,4.8,5.6,5.3
			c1.8,0.3,3.4,0.2,5.1-0.4c3.1-1.2,5.6-3.2,8-5.5C129,63.5,130.1,62.3,130.9,61z"/>
		<path class="st53" d="M87.9,60.2c0.1,1,0.1,2,0.1,3c0,1.1-0.2,2.2-0.8,3.2c-0.7,1.2-1.7,1.8-3.1,1.9c-2.3,0.1-4.1-1-5.9-2.2
			c-2.6-1.9-4.7-4.3-6.6-6.9c-0.1-0.2-0.2-0.3-0.4-0.4c0.8,1.8,1.9,3.4,3.2,4.9c1.9,2.2,3.9,4.2,6.6,5.2c1.9,0.7,3.8,0.9,5.5-0.5
			c0.6-0.5,1.1-1.2,1.3-2C88.5,64.3,88.4,62.2,87.9,60.2z"/>
		<path d="M140.8,40.2c-0.2-0.6-0.5-1.2-0.9-1.7c-0.7-1-1.3-1.9-2-2.9c-0.4-0.5-0.9-0.8-1.5-0.9c-0.6-0.1-1.1,0.1-1.3,0.7
			c-0.2,0.7,0.2,1.3,0.7,1.7c1.5,1.2,2.7,2.6,3.9,4.1c0.3,0.3,0.6,0.4,0.9,0.2c0.3-0.2,0.4-0.5,0.2-0.9
			C140.8,40.5,140.9,40.3,140.8,40.2z"/>
		<path d="M69,33.7c-0.5-0.6-1-0.7-1.6-0.2c-1.2,0.9-2.3,1.9-3.1,3.2c-0.3,0.5-0.2,1.1-0.1,1.6c0.2,0.5,0.5,0.3,0.8,0.1
			c0.1-0.1,0.3-0.2,0.4-0.3c0.6-1.2,1.7-1.7,2.8-2.3c0.8-0.4,1.1-1,1-1.7C69.2,33.9,69.1,33.8,69,33.7z"/>
		<path class="st53" d="M140.8,40.2c0,0.2,0,0.4,0.1,0.6c0.1,0.3-0.1,0.5-0.3,0.6c-0.3,0.1-0.5,0.1-0.7-0.2
			c-0.5-0.9-1.3-1.5-1.9-2.4c-0.4-0.6-1.1-1-1.7-1.5c-0.6-0.5-1.1-1.1-1.2-1.9c-0.4,0.8-0.1,1.4,0.3,2.1c0.3,0.5,0.7,0.9,1.2,1.3
			c0.7,0.7,1.4,1.4,2,2.2c0.2,0.3,0.5,0.6,0.9,0.9c0.3,0.3,0.7,0.4,1.1,0.2c0.4-0.2,0.6-0.6,0.6-1C141,40.8,141,40.5,140.8,40.2z"/>
		<path class="st53" d="M69,33.7c0.2,1-0.4,1.6-1.3,2c-1.2,0.5-2.2,1.3-2.8,2.6c0.4,0.1,0.7-0.2,0.9-0.5c0.4-0.6,1-1,1.7-1.2
			c0.7-0.3,1.3-0.7,1.8-1.3C69.8,34.6,69.7,34,69,33.7z"/>
		<path class="st52" d="M110.3,62.8c0,0.9,0.1,1.9,0.4,2.8c0.9,2.8,3.5,3.7,5.9,3.4c3.4-0.4,6.3-2.1,8.9-4.1
			c4.9-3.9,8.6-8.7,10.8-14.6c0.9-2.6,1.4-5.2,0.7-8c-0.5-1.9-2.1-3.4-4.1-3.6c-2.6-0.3-4.9,0.5-7.1,1.7c-4.3,2.3-7.6,5.6-10.4,9.5
			c-2.2,3-3.9,6.3-4.7,10C110.4,60.9,110.2,61.8,110.3,62.8z"/>
		<path class="st52" d="M87.2,62.2c-0.1-3.3-1.2-6.3-2.5-9.3c-2.3-4.9-5.3-9.2-9.5-12.6c-1.1-0.9-2.4-1.7-3.8-2.2
			c-2.9-1-4.9,0.3-5.2,3.3c-0.2,2,0.1,3.9,0.7,5.8c2,6.8,5.6,12.6,11,17.2c1.1,1,2.4,1.8,3.7,2.3c0.9,0.4,1.9,0.6,2.9,0.5
			c1.1-0.2,1.8-0.8,2.2-1.8C87.1,64.5,87.2,63.4,87.2,62.2z"/>
		<path d="M124.8,62.5c0.3,0,0.5-0.1,0.6-0.3c0.4-0.6,0.9-1.3,1.3-1.9c0.2-0.4,0.1-0.6-0.2-0.8c-3.2-1.7-6.5-3.3-9.7-5
			c-0.4-0.2-0.7-0.2-0.9,0.2c-0.3,0.6-0.6,1.1-0.9,1.7c-0.2,0.5,0,0.9,0.5,1.2c2.1,1.1,4.2,2.2,6.2,3.4c0.8,0.4,1.6,0.9,2.5,1.3
			C124.4,62.4,124.6,62.5,124.8,62.5z"/>
		<path d="M74.9,59.5c0.1,0.1,0.1,0.2,0.2,0.3c0.3,0.5,0.7,1,1,1.4c0.2,0.4,0.5,0.4,0.9,0.2c2.4-1.3,4.7-2.6,7.1-3.8
			c0.5-0.3,0.6-0.6,0.3-1.1c-1.1-2-0.6-1.8-2.5-0.8c-2.2,1.1-4.4,2.2-6.6,3.3C75.1,59.1,74.9,59.2,74.9,59.5z"/>
	</g>
	<g>
		<path d="M144,33.9c0.7,0.1,1.1-0.5,1.2-1c0.1-0.4,0.1-0.8,0-1.2c-0.3-1.1-0.5-2.2-0.5-3.4c-0.1-1.7-0.9-3-2.1-4.2
			c-0.4-0.4-0.6-0.8-0.5-1.3c0.1-2.4-0.4-4.8-1-7.1c-0.7-2.6-2.4-4.6-4.6-6.3c-3.7-2.8-7.9-4.3-12.3-5.4c-2.2-0.5-4.4-1.2-6.7-1.5
			c-1.6-0.2-3.2-0.3-4.8-0.3c-5.2-0.3-10.3,0.3-15.4,1c-3.9,0.6-7.6,1.6-11.4,2.7c-1.8,0.5-3.5,1-5.1,1.8c-2.1,1.1-3.9,2.6-5.5,4.2
			c-1.5,1.4-2.9,2.8-4,4.5c-0.6,0.8-1.3,1.5-2.5,1.6c-0.9,0.1-1.5,0.7-1.9,1.6c-0.6,1.5-1,3-1.4,4.5c-0.2,0.8-0.2,1.5,0,2.3
			c0.1,0.4,0.3,0.7,0.8,0.5c2-1.7,4.5-2.2,6.9-2.6c3.7-0.6,7.4-0.8,11.1-0.8c1.8,0,3.5,0,5.3,0c3,0.1,5.9,0.2,8.8,0.3
			c1.3,0.1,2.5,0.1,3.8,0.1c2.2,0.1,4.5,0.2,6.7,0.3c6.8,0.3,13.5,1.1,20.1,3.1c2.1,0.6,4.2,1.5,6.2,2.4c2.2,1,4.3,2.1,6.5,3
			c0.5,0.2,0.9,0.4,1.3,0.7S143.7,33.9,144,33.9z"/>
		<path class="st53" d="M144,33.9c-4.8-2.3-9.5-4.7-14.5-6.4c-3.6-1.2-7.2-1.8-11-2.4c-3.7-0.5-7.4-0.8-11.2-0.9
			c-2.9-0.1-5.9-0.3-8.8-0.4c-3.8-0.1-7.7-0.4-11.5-0.4c-2.3,0-4.5-0.1-6.8,0.1c-3.7,0.2-7.3,0.5-10.9,1.6c-0.9,0.3-1.8,0.9-2.7,1.2
			c-0.3,0.1-0.2,0.5-0.4,0.7c0.2,0,0.5,0,0.7-0.1c1.8-1.2,3.9-1.6,6-2c3.5-0.6,7.1-0.6,10.6-0.6c2.1,0,4.2,0,6.4,0
			c3.1,0.1,6.2,0.1,9.2,0.3c3.6,0.2,7.2,0.5,10.8,0.6c3.3,0.1,6.7,0.4,10,0.8c4.6,0.6,9,1.9,13.3,3.7c3.4,1.4,6.7,3,10.1,4.5
			C143.7,34.3,144,34.3,144,33.9z"/>
		<path class="st54" d="M141.3,22c0-1.3-0.5-2.6-0.6-3.9c-0.7-2.2-2.1-3.8-3.8-5.3c-2.6-2.3-5.6-4.2-8.7-5.8
			c-1.7-0.9-3.6-1.7-5.5-2.1c-2.8-0.7-5.6-1.2-8.4-1.6c-0.3,0-0.5,0.1-0.8-0.1c-1.2,0-2.4-0.1-3.6-0.1c-2.3,0-4.7,0.3-7,0.5
			c-1.6,0.1-3.2,0.3-4.9,0.5c-0.2,0-0.4,0.1-0.7,0.1c-3.2,1.1-6.5,2.2-9.7,3.2C85.7,8,83.8,8.6,82,9.5c-2.9,1.4-5.7,3-8.1,5.2
			c-0.1,0.1-0.1,0.1-0.2,0.1c-0.4,0.5-0.8,1-1.2,1.5c0.2,0.4,0.5,0.2,0.7,0.2c2-0.4,4.1-0.9,6.1-1.3c3.7-0.7,7.5-1.4,11.3-2
			c1.4-0.2,2.7-0.3,4.1-0.3c2.9,0,5.8-0.2,8.7-0.1c6.2,0.2,12.4,0.8,18.5,2.3c4.8,1.2,9.6,2.7,14.1,4.7c1.5,0.7,3.1,1.3,4.6,2
			C140.7,21.9,141,22.1,141.3,22z"/>
		<path class="st50" d="M141.3,22c-1.5-0.6-2.9-1.2-4.4-1.9c-2.3-1.1-4.7-2-7.2-2.9c-4.2-1.5-8.5-2.5-12.8-3.3
			c-1.9-0.4-3.8-0.6-5.7-0.8c-2.2-0.2-4.5-0.3-6.7-0.4c-1.4-0.1-2.7-0.2-4-0.1c-2,0.1-4,0-6,0.1c-2.7,0.1-5.3,0.4-7.9,1
			c-2.8,0.6-5.5,1-8.3,1.5c-1.8,0.3-3.6,0.8-5.4,1.2c-0.2,0-0.3,0.1-0.4,0c-0.3,0.3-0.5,0.7-0.8,1.1c0.7,0,1.3-0.2,1.9-0.4
			c2.8-0.8,5.7-1.4,8.6-1.8c1.6-0.2,3.2-0.6,4.9-0.9c1.5-0.3,3-0.5,4.5-0.6c3.5-0.3,7.1-0.2,10.6-0.2c1.8,0,3.7,0.2,5.5,0.5
			c2,0.3,4.1,0.5,6.1,0.8c3.4,0.5,6.9,1.1,10.2,2c3.2,0.9,6.4,1.8,9.5,2.8c2.4,0.8,4.8,1.8,7.1,3C141.3,23.1,141.3,23.1,141.3,22z"
			/>
		<path class="st49" d="M105.4,23.2c2.5,0.1,5,0.3,7.5,0.4c0.5,0.1,0.4-0.3,0.4-0.5c0-0.9,0-1.7,0-2.6c0.1-1.4,0.2-2.7,0.8-4
			c0,0,0.1-0.1,0.1-0.2c0.1-0.2,0.2-0.4,0.1-0.6h-0.1c-0.2,0.1-0.4,0.2-0.6,0.1c-1-0.2-1.9-0.3-2.9-0.6c-0.3-0.2-0.6-0.1-0.9-0.1
			c-0.4,0.3-0.4,0.8-0.5,1.2c-0.4,1.7-0.5,3.4-0.5,5.1c0,0.1-0.1,0,0,0c0,0,0,0,0-0.1c0-2.1,0.2-4.1,0.8-6.1c0-0.1,0-0.2,0-0.2
			c-0.9-0.2-1.7-0.3-2.6-0.4c-0.5-0.2-0.7,0.1-0.8,0.5c-0.3,0.9-0.5,1.8-0.6,2.7c-0.2,1.5-0.2,3-0.3,4.5
			C105.2,22.7,105.2,23,105.4,23.2z"/>
		<path class="st49" d="M87.9,22.6c0.6,0,1.2,0,1.7,0c0.3-0.5,0.2-1.2,0.3-1.8c0.2-1.9,0.6-3.7,1.1-5.5c0.1-0.2,0.2-0.5,0-0.7
			c-1.4,0.1-2.8,0.3-4.1,0.6c-0.3,0.1-0.5,0.3-0.6,0.6c-0.5,1.5-0.8,3-0.9,4.5c0,0.5-0.2,1.1-0.1,1.6c0,0.4,0.2,0.5,0.6,0.5
			C86.5,22.5,87.2,22.4,87.9,22.6z"/>
		<path class="st49" d="M98.9,14.3c-1.1,0-2.2,0-3.4,0c-0.2,0.1-0.3,0.3-0.4,0.6c-0.8,1.8-1.1,3.7-1.4,5.6c-0.1,0.7-0.2,1.4-0.1,2.2
			c1.2,0.2,2.4,0.1,3.6,0.1c0.8,0.1,0.8,0.1,0.8-0.6c0-0.9,0.1-1.7-0.1-2.6c-0.1-0.3-0.1-0.5,0.2-0.8l0,0c0.1-0.2,0-0.3,0-0.5
			c-0.1-0.2,0-0.4,0.1-0.6l0,0c-0.1-1,0.2-1.9,0.6-2.8C99,14.7,99.1,14.5,98.9,14.3z"/>
		<path class="st49" d="M89.9,22.6c1.2,0.2,2.4,0.1,3.6,0.1c0.3-0.6,0.1-1.2,0.2-1.8c0.3-2,0.6-4,1.4-5.9c0.2-0.5,0.1-0.6-0.4-0.6
			c-0.6,0-1.3-0.1-1.9,0.1c-0.5,0-1-0.1-1.5,0.1c-0.5,1-0.7,2.1-0.9,3.1c-0.3,1.4-0.5,2.8-0.6,4.2C89.8,22.2,89.7,22.4,89.9,22.6z"
			/>
		<path class="st49" d="M102.3,23.1c1,0,2,0.1,3,0.1c0.1-0.8,0.1-1.6,0.1-2.4c0-1.9,0.2-3.8,0.8-5.7c0.1-0.2,0.1-0.4,0-0.5
			c-1.2-0.1-2.4-0.3-3.6-0.3c-0.6,0.8-0.5,1.7-0.6,2.5c-0.2,1.6-0.2,3.3-0.1,4.9C101.7,22.3,101.8,22.8,102.3,23.1z"/>
		<path class="st50" d="M113.5,3.1c1,0.3,2.1,0.4,3.1,0.6c2.4,0.5,4.9,0.9,7.3,1.7c2,0.7,3.8,1.5,5.6,2.5c1.9,1.1,3.7,2.2,5.4,3.6
			c1.4,1.1,2.7,2.3,4,3.7c0.4,0.4,0.6,0.9,0.8,1.4c0.3,0.5,0.5,1.1,0.9,1.6c-0.1-1.8-0.8-3.5-1.8-5c-2-2.9-4.8-4.5-7.9-5.9
			c-3.8-1.8-7.9-2.6-12-3.5C117.2,3.2,115.4,3.1,113.5,3.1z"/>
		<path class="st49" d="M102.3,14.3c-0.7,0-1.5,0-2.2,0c-0.4,0-0.6,0.1-0.8,0.5c-0.5,1.2-0.7,2.4-0.9,3.7c-0.2,1.3-0.1,2.6-0.1,3.9
			c0,0.5,0.2,0.7,0.6,0.6c0.4,0,0.8,0,1.2,0c0.5,0.1,1,0,1.5,0.1c0.3,0,0.4-0.2,0.3-0.4c-0.3-1.6-0.2-3.2-0.1-4.8
			c0.1-1.1,0.2-2.1,0.5-3.1C102.4,14.5,102.3,14.4,102.3,14.3z"/>
		<path class="st55" d="M118,16.3c-0.1,0-0.2-0.1-0.3-0.1c-0.2,0.3-0.2,0.6-0.3,0.9c0,0.1,0,0.1,0,0.2c-0.7,1.9-0.8,3.9-0.7,5.9
			c0,0.3,0,0.5,0.2,0.8c0.6,0.3,1.3,0,1.9,0.3c0.5,0,1,0.2,1.5,0.2c0.4,0,0.5-0.2,0.5-0.5c-0.3-2,0.1-3.9,0.5-5.8
			c-0.1-0.3-0.4-0.4-0.6-0.5c-0.6-0.2-1.2-0.3-1.8-0.4C118.3,17.1,118,16.9,118,16.3z"/>
		<path class="st55" d="M114,23.7c0.9,0.1,1.8,0.2,2.7,0.2c0-1.6-0.1-3.3,0.2-4.9c0.2-0.7,0.4-1.3,0.5-2l0,0c0,0,0,0,0-0.1
			c-0.4-0.3-2.8-0.9-3.3-0.8l0,0c-0.5,0.8-0.6,1.8-0.7,2.7c-0.2,1.3-0.2,2.5-0.2,3.8C113.2,23.6,113.2,23.6,114,23.7z"/>
		<path class="st49" d="M86.1,15.3c-0.9,0.1-1.8,0.2-2.6,0.5c-0.4,0.2-0.8,0.1-1.1,0.4c-0.4,0.9-0.5,1.9-0.6,2.8s-0.3,1.8-0.4,2.8
			c-0.1,0.6-0.1,0.7,0.5,0.7c1,0,2,0,2.9,0c0.4,0,0.5-0.1,0.5-0.5c0-1.8,0.2-3.6,0.7-5.3c0.1-0.4,0.3-0.7,0.4-1.1
			C86.5,15.4,86.5,15.2,86.1,15.3z"/>
		<path class="st56" d="M73.7,14.8c0.8-0.4,1.5-1.1,2.3-1.6c2.9-2.1,6-3.8,9.4-4.9c2.9-0.9,5.7-1.9,8.5-2.9c0.9-0.3,1.8-0.6,2.8-0.9
			c0.3-0.1,0.6-0.2,0.8-0.4c-1,0.1-2,0.4-3,0.6c-3.6,0.7-7.2,1.7-10.8,2.8c-1.8,0.6-3.5,1.5-5,2.7C77,11.5,75.5,13,74,14.5
			C73.8,14.6,73.7,14.7,73.7,14.8z"/>
		<path class="st57" d="M121.1,17.9c-0.4,1.7-0.7,3.4-0.6,5.1c0,0.2,0,0.4,0,0.6c0.1,0.7,0,0.8-0.6,0.7c-0.4-0.1-0.8-0.1-1.2-0.1
			c0.9,0.3,1.8,0.3,2.7,0.5c2.4,0.4,4.8,0.9,7.1,1.6c2.4,0.7,4.7,1.6,7,2.6c2.6,1.2,5.2,2.4,7.8,3.7c0.2,0.1,0.3,0.2,0.5,0.3
			c0.1,0.1,0.2,0.3,0.4,0.2s0.2-0.3,0.2-0.6c0.1-0.7-0.2-1.3-0.4-2c-0.2,0-0.3,0.2-0.4,0.3c-0.4,0.3-0.6,0.3-0.7-0.2
			c-0.2-1.1-0.5-2.1-0.8-3.2c-0.1-0.4-0.2-0.8-0.4-1.2c-0.1-0.1-0.1-0.2-0.3-0.2c-0.3,0.2-0.1,0.5-0.1,0.8c0.3,1.2,0.7,2.4,0.9,3.6
			c0,0.2,0.2,0.4,0,0.6c-0.2,0.1-0.4,0-0.6-0.1c-1.9-0.7-1.9-0.7-2.2-2.6c-0.2-1.2-0.4-2.5-0.5-3.7c0-0.2,0-0.4-0.1-0.5
			c-0.5-0.3-0.4,0.2-0.4,0.4c0,0.5,0.1,1,0.2,1.5c0.1,1,0.3,2.1,0.5,3.1c0.1,0.6,0,0.7-0.6,0.5c-0.7-0.3-1.3-0.6-2-0.9
			c-0.4-0.2-0.6-0.5-0.6-0.9c0-1.8-0.1-3.5-0.3-5.3c0-0.1,0-0.1-0.1-0.2s-0.2-0.1-0.3-0.1s-0.1,0.1-0.1,0.2c0,1,0,2,0.1,2.9
			c0.1,0.8,0,1.5,0.1,2.3c0,0.4-0.2,0.5-0.5,0.4s-0.7-0.3-1.1-0.4c-0.8-0.3-0.9-0.4-0.9-1.3c0-1.4,0-2.7,0-4.1c0-0.3,0-0.5-0.1-0.8
			c0-0.1-0.1-0.1-0.1-0.2c-0.1,0-0.1,0-0.2,0c-0.1,0-0.1,0.1-0.1,0.2c-0.2,0.8-0.1,1.7-0.1,2.5c0,0.9,0,1.7,0,2.6
			c0,0.6,0,0.6-0.6,0.4c-0.4-0.1-0.9-0.3-1.3-0.4c-0.5-0.1-0.7-0.4-0.7-0.9c0.1-1.6-0.1-3.2,0.1-4.7c0-0.1,0-0.2,0-0.2
			c0-0.1,0-0.1-0.1-0.2s-0.2-0.1-0.3-0.2c-0.1,0-0.1,0.1-0.1,0.1c-0.2,0.6-0.2,1.2-0.2,1.8c0,1.1,0,2.2,0,3.3c0,0.5-0.2,0.6-0.6,0.5
			c-1-0.3-2-0.5-3-0.7c-0.5-0.1-0.7-0.3-0.6-0.8c0.1-1.4,0.3-2.8,0.7-4.2c0.1-0.2,0.2-0.5,0.2-0.7c0-0.1,0-0.1-0.1-0.2
			c-0.1,0-0.1,0-0.2,0s-0.1,0.1-0.2,0.1c-0.6,1.2-0.7,2.5-0.9,3.8c-0.1,0.4-0.1,0.9-0.1,1.3s-0.2,0.5-0.6,0.4
			c-0.6-0.2-1.2-0.2-1.8-0.3c-0.5-0.1-0.6-0.3-0.6-0.7c0-1.7,0.1-3.3,0.5-5c0-0.2,0.1-0.3,0.1-0.5c0-0.1,0-0.1-0.1-0.2
			C121.4,17.9,121.3,17.9,121.1,17.9C121.2,17.9,121.2,17.9,121.1,17.9z"/>
		<path class="st55" d="M135.4,22.2c0,2,0.3,3.9,0.2,5.9c0,0.3,0.1,0.3,0.4,0.4c0.9,0.4,1.8,0.8,2.7,1.1c0.5,0.2,0.7,0.1,0.6-0.4
			c-0.1-0.8-0.3-1.7-0.4-2.5c-0.1-0.8-0.2-1.6-0.3-2.4c0-0.1-0.2-0.5,0.2-0.4l0.1-0.1c0.1-0.4,0.2-0.8-0.1-1.2
			c-0.1,0-0.2-0.1-0.3-0.1c-0.1,0.1-0.2,0.2-0.2,0.3c0.1,0.6-0.2,0.5-0.6,0.3c-0.6-0.3-1.2-0.7-1.8-0.9
			C135.8,22.2,135.6,22,135.4,22.2z"/>
		<path class="st55" d="M74.7,17.6c-0.1,0-0.3,0-0.4,0.1c-0.1,0.2-0.2,0.4-0.2,0.7c-0.3,1.1-0.7,2.2-0.7,3.4c0,0.8,0.1,1,1,1
			c0.8,0,1.6-0.2,2.4-0.1c0.3,0,0.5-0.1,0.5-0.4c0.2-1.6,0.6-3.1,0.8-4.6c-0.2-0.3-0.5-0.2-0.8-0.2c-0.7,0.1-1.4,0.3-2.2,0.5
			C74.9,17.9,74.7,17.9,74.7,17.6z"/>
		<path class="st55" d="M138.8,24c0.1,1.7,0.5,3.4,0.7,5.1c0.1,0.9,0.5,1.3,1.3,1.5c0.5,0.2,1,0.4,1.5,0.6c0.4,0.1,0.4,0.1,0.4-0.3
			c-0.2-1.5-0.8-2.9-1.1-4.4c0-0.2-0.1-0.3,0-0.4c0.3-0.4-0.1-0.8-0.1-1.2c0-0.2-0.1-0.4-0.2-0.7c-0.1-0.1-0.3-0.2-0.4-0.2
			c-0.3,0.5,0.1,1,0.1,1.5c-0.5-0.5-1-0.8-1.6-1.2C139.2,24.1,139.1,23.9,138.8,24L138.8,24z"/>
		<path class="st50" d="M78,17.4c-0.3,1.5-0.7,3.1-0.9,4.6c0,0.2-0.1,0.4-0.4,0.4c-0.9-0.1-1.8,0.2-2.7,0.1c-0.4,0-0.5-0.1-0.5-0.5
			c0-1.1,0.2-2.1,0.6-3.2c0.1-0.2,0.3-0.4,0.1-0.7c-0.1,0-0.2,0.1-0.2,0.2c-0.5,1.1-0.7,2.3-0.8,3.5c0,0.5-0.2,0.7-0.7,0.7
			c-0.3,0-0.6,0.1-0.9,0.1c-0.4,0.1-0.5,0-0.5-0.4c0.1-0.8,0.3-1.6,0.4-2.4c0-0.3,0.1-0.5-0.2-0.7C71,19.3,71,19.7,70.9,20
			c-0.2,0.8-0.3,1.6-0.4,2.5c0,0.5-0.3,0.8-0.7,0.9c-0.4,0.1-0.8,0.6-1.2,0.3c-0.3-0.2,0-0.8,0.1-1.2c0.1-0.6,0.3-1.2,0.4-1.7
			c0.1-0.2,0.3-0.6-0.2-0.6c-0.1,0-0.2,0.1-0.3,0.3c-0.3,1-0.5,2-0.7,3c0,0.2,0,0.5-0.2,0.6c-0.4,0.5-0.9,0.4-1.3-0.1
			c0,0.1-0.1,0.1-0.1,0.2c0,0.4-0.4,0.9,0,1.2c0.4,0.3,0.8-0.2,1.1-0.4c1.3-0.8,2.7-1.1,4.2-1.3c2.1-0.4,4.1-0.6,6.2-0.8
			c3.3-0.3,6.7-0.2,10-0.2c-0.6-0.3-1.2-0.1-1.8-0.1c-0.5,0-0.7-0.1-0.7-0.7c0.2-2.1,0.3-4.1,1.1-6.1c0.1-0.2,0.3-0.4,0.4-0.5
			c-0.3,0-0.5-0.1-0.8,0.1c0.3,0,0.2,0.2,0.1,0.3c-0.8,2-1.1,4-1,6.1c0,0.5-0.1,0.7-0.6,0.6c-0.9,0-1.9,0-2.8,0
			c-0.2,0-0.5,0-0.4-0.3c0.4-1.9,0.5-3.8,1-5.6c0-0.1,0.1-0.2,0.1-0.3c0,0-0.1,0-0.1-0.1c-0.1,0-0.2,0-0.3,0.1
			c-0.1,0.1-0.1,0.2-0.2,0.3c-0.5,1.6-0.6,3.3-0.8,5c-0.1,0.8-0.2,0.8-0.9,0.8c-0.7,0-1.5,0-2.2,0c-0.5,0-0.6-0.2-0.5-0.6
			c0.3-1.4,0.6-2.7,0.8-4.1c0-0.1,0-0.1,0-0.2s-0.1-0.1-0.2-0.1C78.1,17.3,78,17.3,78,17.4z"/>
		<path class="st58" d="M71.3,19.2c0.3,0.4,0,0.9-0.1,1.3c0,0.7-0.2,1.3-0.3,2c-0.1,0.4,0,0.8,0.5,0.5c0.1,0,0.2-0.1,0.3-0.1
			c1.1,0.1,1.7-0.4,1.6-1.6c0-1,0.4-2,0.7-2.9c-0.3-0.2-0.6,0-0.8,0c-0.3,0.1-0.6,0.2-0.9,0.3c-0.4,0.1-0.6,0.1-0.6-0.3
			c-0.1,0-0.3,0-0.4,0.1C71.2,18.7,71.1,18.9,71.3,19.2C71.2,19.2,71.3,19.2,71.3,19.2z"/>
		<path class="st55" d="M68.9,20.2c0.4,0.1,0.2,0.3,0.1,0.4c-0.3,1-0.5,2-0.7,3c0,0.1-0.1,0.2,0,0.3c0.1,0.1,0.3,0,0.4,0
			c0.5-0.2,1-0.4,1.4-0.6c0.7-0.3,0.5-1,0.6-1.5c0.2-0.9,0.2-1.8,0.5-2.7l0,0c-0.5-0.2-0.8,0.2-1.2,0.3c-0.3,0.1-0.6,0.2-0.8,0.4
			c-0.1,0,0-0.1,0,0c0,0,0,0,0.1,0c0.3-0.4,0.5-0.7,0.5-1.2c-0.2,0-0.4-0.1-0.5,0.1C69.2,19.3,68.8,19.7,68.9,20.2z"/>
		<path class="st59" d="M141.3,24.1c-0.2,0.4,0,0.7,0.1,1.1c0,0.3,0.1,0.5,0.1,0.8c0,0.1,0.1,0.2,0.1,0.2c0.8,1.2,1.3,2.5,2.2,3.8
			c0.2-0.3,0.2-0.5,0.1-0.8C143.9,27,142.9,25.4,141.3,24.1z"/>
		<path class="st55" d="M143.9,29.2c0,0.1,0,0.3,0,0.4c0,0,0,0-0.1,0.1c-0.4-0.8-0.9-1.6-1.3-2.4c-0.2-0.5-0.5-0.9-0.9-1.2
			c0.4,1.6,0.9,3.1,1.1,4.7c0.1,0.4,0.4,0.4,0.8,0.2c0.2-0.2,0.3-0.4,0.5-0.6C144,30,144.1,29.6,143.9,29.2z"/>
		<path class="st55" d="M66.5,24c0,0.3-0.1,0.7,0.4,0.7c0.6,0,1.2-0.4,1.2-1c0-0.9,0.3-1.8,0.5-2.7c0-0.2,0.1-0.4,0.1-0.6
			c-0.5,0-0.7,0.5-1,0.8c-0.4,0.5-0.7,1.2-1,1.8C66.6,23.3,66.7,23.7,66.5,24z"/>
		<path class="st59" d="M125.5,18.1c-1.3-0.3-2.6-0.7-3.9-1c-0.3,0.2-0.5,0.5-0.3,0.9l0,0c0.1,0.1,0.2,0.2,0.3,0.3
			c1,0.3,2.1,0.6,3.1,0.9c0.1,0,0.2,0,0.3,0l0,0C125.5,18.8,125.7,18.5,125.5,18.1z"/>
		<path class="st59" d="M129.3,19.2c-1.2-0.3-2.3-0.8-3.5-1c-0.3,0.2-0.4,0.5-0.4,0.9l0,0c0.1,0.2,0.3,0.3,0.5,0.4
			c0.9,0.2,1.8,0.5,2.7,0.7c0.2,0,0.4,0.1,0.5-0.1l0,0C129.3,19.8,129.5,19.5,129.3,19.2z"/>
		<path class="st59" d="M138.8,24c0.9,0.5,1.6,1.1,2.5,1.8c-0.1-0.7-0.3-1.3-0.4-1.9c-0.7-0.4-1.4-0.8-2.1-1.1
			C138.8,23.1,138.8,23.5,138.8,24z"/>
		<path class="st59" d="M66.8,23.1c0.4-0.3,0.5-0.7,0.7-1.1c0.3-0.6,0.7-1.2,1.3-1.6c0-0.1,0.1-0.2,0.1-0.2c0.1-0.5,0.5-0.8,0.4-1.4
			c-0.8,0.1-1.3,0.4-1.5,1.2C67.4,21,67,22,66.8,23.1z"/>
		<path class="st59" d="M135.4,22.2c0.9,0.3,1.8,0.8,2.6,1.3c0.1,0.1,0.3,0.3,0.4,0.2c0.1-0.1,0.1-0.3,0.1-0.5s-0.1-0.4,0-0.5
			c-1-0.4-2-0.9-3-1.3C135.1,21.6,135.2,21.9,135.4,22.2C135.4,22.1,135.4,22.2,135.4,22.2z"/>
		<path class="st59" d="M118,16.3c-0.3,0.7-0.3,0.7,0.4,0.9c0.9,0.2,1.8,0.3,2.7,0.7l0,0c0.1-0.3,0.5-0.6,0.1-1
			c-0.9-0.2-1.8-0.4-2.8-0.6C118.3,16.4,118.2,16.4,118,16.3z"/>
		<path class="st59" d="M132.4,20.2c-0.9-0.3-1.8-0.6-2.7-0.9c-0.5,0.2-0.4,0.5-0.2,0.9l0,0c0.3,0.3,0.7,0.4,1.1,0.5
			c0.6,0.1,1.1,0.5,1.8,0.4l0,0C132.6,20.8,132.6,20.5,132.4,20.2z"/>
		<path class="st60" d="M114.2,16.2c1.1,0.3,2.2,0.6,3.4,0.9c0.2-0.3,0.3-0.5,0.2-0.9c-1.2-0.1-2.3-0.4-3.5-0.5
			C114.2,15.9,114.2,16,114.2,16.2z"/>
		<path class="st61" d="M102.3,14.3c-0.5,2.2-0.7,4.5-0.6,6.7c0,0.5,0,1,0.2,1.5c0.1,0.3,0,0.4-0.3,0.4c-0.5,0-0.9,0-1.4,0
			c0.7,0.3,1.4,0.1,2.1,0.1c-0.5-0.7-0.5-1.5-0.4-2.3c0.1-1.1,0-2.3,0.1-3.4c0.1-1,0.3-2,0.5-3C102.4,14.3,102.4,14.3,102.3,14.3z"
			/>
		<path class="st62" d="M92.8,14.5c0.6,0,1.3,0,1.9,0c0.3,0,0.5,0.1,0.3,0.4c-0.7,1.8-1.1,3.6-1.3,5.5c-0.1,0.8-0.2,1.5-0.2,2.3h0.1
			c0.2-0.7,0.1-1.4,0.2-2.1c0.3-2.2,0.7-4.3,1.6-6.3c-0.7,0-1.4,0-2.2,0C93.2,14.3,92.9,14.3,92.8,14.5z"/>
		<path class="st60" d="M135.2,21.2c-0.8-0.3-1.6-0.6-2.4-0.9c-0.4,0.2-0.3,0.5-0.2,0.8l0,0c0.1,0.1,0.1,0.2,0.3,0.3
			c0.8,0.2,1.5,0.7,2.4,0.7l0,0C135.3,21.8,135.3,21.5,135.2,21.2z"/>
		<path class="st60" d="M78,17.4l0.1-0.1c0.2-0.2,0.2-0.4,0.1-0.6c-1.2,0.3-2.4,0.5-3.6,0.9c-0.1,0.2-0.2,0.3-0.3,0.6
			C75.7,18,76.8,17.5,78,17.4z"/>
		<path class="st63" d="M106.1,14.6c-0.2,1-0.5,1.9-0.6,2.9c-0.3,1.8-0.2,3.6-0.2,5.4c0,0.1,0,0.2,0,0.3h0.1
			c0.1-2.6,0.1-5.2,0.8-7.7c0.1-0.4,0.1-0.9,0.7-0.8C106.7,14.5,106.4,14.6,106.1,14.6z"/>
		<path class="st62" d="M89.9,22.6c0-2.7,0.6-5.4,1.4-8c-0.1,0-0.2,0-0.3,0c-0.4,1.5-0.8,2.9-1,4.4c-0.2,1.2-0.4,2.4-0.3,3.6
			C89.7,22.6,89.8,22.6,89.9,22.6z"/>
		<path class="st60" d="M69.8,18.7c-0.2,0.4-0.4,0.8-0.6,1.4c0.7-0.3,1.3-0.7,2-0.9c-0.1-0.3,0.3-0.5,0-0.8
			C70.8,18.5,70.3,18.6,69.8,18.7z"/>
		<path class="st64" d="M82.2,16.3l0.1-0.1c0-0.2-0.1-0.2-0.3-0.1c-1.2,0.2-2.4,0.3-3.6,0.6c-0.1,0.2-0.2,0.4-0.1,0.6l0,0
			c0.1,0.1,0.2,0.1,0.3,0.1C79.8,17.1,81,16.9,82.2,16.3z"/>
		<path class="st62" d="M114,23.7c-0.8-0.1-0.8-0.7-0.8-1.3c0.1-1.8,0.1-3.6,0.6-5.3c0.1-0.3,0.2-0.6,0.3-0.9
			c-0.3,0-0.3,0.3-0.4,0.5c-0.3,1.2-0.6,2.5-0.6,3.7c0,0.9,0,1.7,0,2.6c0,0.2,0.1,0.5-0.2,0.5C113.2,23.8,113.6,23.7,114,23.7z"/>
		<path class="st57" d="M109.5,15.1c-0.4,1.2-0.7,2.5-0.7,3.8c0,0.8-0.2,1.7-0.1,2.5c0,0.2,0,0.4,0.2,0.7c0.1-2.5,0.1-4.9,0.9-7.1
			C109.7,15.1,109.6,15.1,109.5,15.1z"/>
		<path class="st57" d="M117.5,17.1c-0.9,2.1-1,4.3-0.9,6.5c0,0.1,0.1,0.2,0.1,0.4h0.1c0-1.6-0.2-3.3,0.3-4.9c0.1-0.5,0.3-1,0.4-1.5
			C117.6,17.4,117.7,17.2,117.5,17.1z"/>
		<path class="st65" d="M71.7,18.3c0,0.2-0.1,0.4-0.1,0.7c0.9-0.2,1.7-0.5,2.5-0.7l0.1-0.1c0-0.2,0.3-0.3,0.1-0.5
			C73.4,17.9,72.6,18.2,71.7,18.3z"/>
		<path class="st66" d="M110.6,15.2c0.5,0.4,1.2,0.4,1.8,0.6c0.3,0.1,0.7,0.1,1,0.2c0.3,0.1,0.5,0,0.6-0.3
			C113,15.4,111.8,15.4,110.6,15.2z"/>
		<path class="st49" d="M98.9,14.3c-0.1,0.7-0.6,1.3-0.7,2c-0.1,0.5-0.2,0.9,0.1,1.3c0.3-1,0.4-2.1,0.9-3.1
			C99.3,14.3,99.1,14.3,98.9,14.3z"/>
		<path class="st49" d="M98.1,18.8c-0.6,0.2-0.4,0.6-0.3,0.9c0.4,0.9,0.1,1.9,0.1,2.8c0,0.4-0.5,0.2-0.7,0.2
			c0.8,0.3,0.9,0.2,0.9-0.6C98.1,21.1,98.1,20,98.1,18.8z"/>
		<path class="st49" d="M98.3,17.7c-0.4,0.1-0.5,0.3-0.3,0.6c0.1,0.2,0.2,0.3,0.2,0.5C98.4,18.5,98.2,18.1,98.3,17.7z"/>
		<path class="st54" d="M129.4,20.2c0-0.3-0.1-0.7,0.2-0.9c-0.1-0.1-0.2-0.1-0.4-0.1c0,0.3-0.1,0.6-0.1,0.9
			C129.2,20.1,129.3,20.2,129.4,20.2z"/>
		<path class="st55" d="M135.2,21.2c0,0.3,0,0.6,0,0.9c0.1,0,0.2,0,0.2,0c0.1-0.3-0.1-0.5,0.1-0.8C135.4,21.2,135.3,21.2,135.2,21.2
			z"/>
		<path class="st55" d="M125.4,19.1c0.1-0.3,0.3-0.6,0.4-0.9c-0.1,0-0.2-0.1-0.3-0.1c-0.1,0.4-0.2,0.7-0.4,1
			C125.2,19.1,125.3,19.1,125.4,19.1z"/>
		<path class="st55" d="M121.3,17c0.2,0.4-0.1,0.7-0.1,1c0.1,0,0.2,0,0.3,0c0-0.3,0.1-0.6,0.3-0.9C121.5,17,121.4,17,121.3,17z"/>
		<path class="st55" d="M132.5,21.1c0-0.3,0.1-0.5,0.2-0.8c-0.1-0.1-0.2-0.1-0.4-0.1c0,0.3,0,0.6-0.1,0.9
			C132.4,21.1,132.4,21.1,132.5,21.1z"/>
		<path class="st67" d="M82.5,16.2c0.3-0.2,0.7-0.1,1-0.4c-0.3-0.1-0.7,0.1-1,0.1C82.5,16,82.5,16.1,82.5,16.2L82.5,16.2z"/>
		<path class="st55" d="M78.3,17.3c0.1-0.2,0.1-0.4,0.1-0.6c-0.1,0-0.1,0-0.2,0c-0.1,0.2-0.1,0.4-0.1,0.6
			C78.2,17.3,78.2,17.3,78.3,17.3z"/>
		<path class="st49" d="M82.5,16.2c0-0.1,0-0.2,0-0.2c-0.2,0-0.4-0.1-0.5,0.1c0.1,0,0.2,0,0.3,0.1C82.4,16.2,82.4,16.2,82.5,16.2z"
			/>
		<path class="st54" d="M129.1,20.1c-1.3-0.3-2.5-0.6-3.8-1c-0.6,1.8-1,3.5-1,5.4c0,0.4,0.1,0.6,0.5,0.6c1.2,0.2,2.4,0.6,3.6,0.9
			c0.4,0.1,0.5,0,0.5-0.4c0-0.7,0-1.5,0-2.2C129,22.3,129,21.2,129.1,20.1z"/>
		<path class="st54" d="M125.1,19.1c-1.2-0.4-2.5-0.7-3.7-1.1c-0.5,2-0.7,4-0.6,6c0,0.3,0,0.5,0.4,0.5c0.8,0.1,1.7,0.2,2.5,0.4
			c0.3,0.1,0.5,0.1,0.5-0.3C124.2,22.7,124.6,20.9,125.1,19.1z"/>
		<path class="st54" d="M132.3,21.1c-1-0.3-1.9-0.6-2.9-0.9c-0.2,1.8-0.1,3.7-0.1,5.5c0,0.3,0,0.6,0.4,0.7c0.9,0.2,1.7,0.5,2.6,0.8
			C132.3,25.1,132.3,23.1,132.3,21.1z"/>
		<path class="st55" d="M135.1,22.1c-0.8-0.4-1.8-0.6-2.6-1c0,1.7,0,3.5,0,5.2c0,0.9,0,1,0.9,1.3c0.5,0.2,1,0.4,1.5,0.5
			c0.3,0.1,0.4,0,0.4-0.3c0-1.7-0.1-3.3-0.2-5C135.1,22.6,135.1,22.3,135.1,22.1z"/>
		<path class="st55" d="M82.2,16.3c-1.1,0.1-2,0.6-3.1,0.8c-0.3,0-0.5,0.1-0.8,0.2c-0.3,1.5-0.6,3.1-0.9,4.6c-0.1,0.4,0,0.5,0.4,0.5
			c1,0,2,0,3.1,0c0.3,0,0.5-0.1,0.5-0.4c0.1-0.7,0.2-1.5,0.3-2.2C81.8,18.7,82,17.5,82.2,16.3z"/>
	</g>
	<g>
		<path d="M96.5,69.1c-0.4-0.2-0.8-0.3-1.1,0.1c-0.3,0.3-0.3,0.7,0,1.1c0.4,0.4,0.8,0.5,1.2,0.1C97,70,97,69.5,96.5,69.1z"/>
		<path d="M104.7,69.3c-0.3-0.3-0.7-0.4-1.1-0.1c-0.4,0.2-0.4,0.6-0.3,1c0.3,0.5,0.8,0.7,1.2,0.4C105,70.3,105,69.9,104.7,69.3z"/>
		<path class="st53" d="M104.7,69.3c0.1,0.5,0.2,0.9-0.3,1.2c-0.4,0.3-0.8,0.1-1.1-0.3c0,0.5,0.3,0.8,0.7,0.9c0.5,0.1,0.8-0.1,1-0.6
			C105.3,70,105.1,69.6,104.7,69.3z"/>
		<path class="st53" d="M96.5,69.1c0.3,0.4,0.4,0.8,0,1.1c-0.4,0.4-0.8,0.3-1.2,0c0.1,0.5,0.4,0.7,0.9,0.7c0.4,0,0.8-0.2,0.9-0.7
			C97.2,69.7,97,69.3,96.5,69.1z"/>
		<path class="st68" d="M100.2,73.2c-0.2,0.4-0.1,0.8-0.1,1.3C100.4,74,100.3,73.6,100.2,73.2z"/>
		<path class="st69" d="M97.7,74.3c0.3-0.4,0.4-0.8,0.3-1.3C97.7,73.3,97.6,73.7,97.7,74.3z"/>
		<path class="st70" d="M102.4,73.5c-0.1,0.4,0.1,0.7,0.3,1.2C102.7,74.2,102.7,73.8,102.4,73.5z"/>
		<path class="st71" d="M99,73c-0.3,0.3-0.2,0.6-0.3,1C99,73.7,99.1,73.5,99,73z"/>
		<path class="st72" d="M101.3,73.3c-0.1,0.4-0.1,0.6,0,1C101.5,74,101.6,73.7,101.3,73.3z"/>
	</g>
	<g>
		<path class="st73" d="M88.5,76.1c-0.9-0.1-1-0.5-0.6-1.2c0.3-0.5,0.6-0.9,1-1.2c0.5-0.4,0.6-0.9,0.6-1.5c0-0.5,0.1-0.8,0.5-1.2
			c0.6-0.5,0.7-1.2,0.7-1.9c0-0.6,0.1-1.2-0.1-1.9c-0.1-0.3,0.1-0.7,0.2-1c0.6-1.6-1.4-3.5-2.6-3.2c-0.7,0.2-1.2,0.1-1.8-0.2
			c-0.4-0.2-0.9-0.1-1.3,0.1c-0.7,0.3-1.4,0.5-2.1,0.7s-1.2,0.7-1.4,1.4c-0.3,1.4-0.9,2.9-0.9,4.3c0,1.2-0.2,2.5,0.1,3.7
			c0.3,1.3,1.1,2.3,2.3,2.9c0.4,0.2,0.8,0.5,1,0.9c0.6,1.2,1.6,1.8,2.9,2.1c0,0,0,0,0-0.1s0-0.1-0.1-0.1c-0.2-0.1-0.4-0.3-0.5-0.5
			c0-0.5-0.2-0.9,0-1.4c0.2-0.4,0.4-0.6,0.9-0.5c0.2,0.1,0.5,0,0.7,0C88.3,76.3,88.5,76.3,88.5,76.1z"/>
		<path d="M88.1,80.2c0.2,1.2,0.6,2.3,1.4,3.3c0.6,0.8,1.5,1.3,2.5,1.5c1.4,0.4,2.8,0.2,4.2-0.2c0.7-0.2,1.5-0.4,2.2-0.6
			c1.6-0.4,3.2-0.1,4.6,0.7c1.1,0.6,2.2,1.2,3.5,1.4c2.6,0.4,4.5-1,4.9-3.6s-0.4-4.7-2.5-6.2c-1.5-1-3-1.1-4.6-0.1
			c-2.1,1.3-4.3,1.2-6.5,0.2c-1.4-0.7-2.8-1.4-4.3-1.9c-1.7-0.5-3.7,0.1-4.6,1.4c0,0.1-0.2,0.1-0.2,0.2s0.2,0.2,0.3,0.2
			c0.4,0.1,0.7,0,1-0.4c0.8-0.6,1.8-0.8,2.8-0.8c0.2,0,0.3-0.1,0.5,0s0.5,0.2,0.7,0.3c0.1,0.1,0.2,0.1,0.3,0.1
			c0.2,0,0.4,0.1,0.6,0.2L95,76c0.4,0.2,0.8,0.4,1.2,0.6c0.1,0.1,0.2,0.1,0.3,0.1c0.1,0,0.2,0.1,0.2,0.1c0.3,0.1,0.6,0.2,0.8,0.4
			c0.8,0.5,1.7,0.7,2.6,0.9c0.3,0,0.1,0.6,0.5,0.6c0.1-0.1,0.1-0.2,0.1-0.3c0.1-0.3,0.4-0.2,0.6-0.3c0.2,0,0.5,0,0.7,0
			c0.5-0.1,1-0.2,1.5-0.5c0.1-0.1,0.3,0,0.4-0.1s0.2-0.2,0.4-0.2c0.5-0.1,1-0.2,1.3-0.7c0.3-0.4,0.8-0.2,1.2-0.2c0.1,0,0.2,0,0.4,0
			c-0.1,0.1-0.2,0.3-0.2,0.5c0,0.1,0,0.2,0.2,0.3c0,0,0,0,0.1,0c0.6-0.5,0.6-0.5,1.4,0.1c0.3,0.1,0.4,0.4,0.6,0.6s0.2,0.4,0,0.7
			c-0.1,0.1-0.2,0.3-0.3,0.4c-0.8,1.3-0.9,1.4-2.4,1.1c-0.2,0-0.3,0-0.5-0.1c-0.1,0-0.2,0-0.3,0c-0.4,0-0.8,0-1.2,0
			c-0.3,0-0.7,0-1,0c-0.3,0.1-0.4-0.2-0.7-0.2c-0.3,0.2-0.7,0.3-1.1,0.2c-0.3,0-0.6,0-0.6,0.4c0,0.3-0.2,0.4-0.4,0.5
			c-0.1,0.1-0.2,0.2-0.2,0.3c0.1,0.1,0.2,0.1,0.3,0.1c0.6,0,1.3-0.1,1.9,0.1c0.2,0,0.5,0.1,0.7,0.1c0.6,0.1,1.3,0,1.9,0
			c0.8,0,1.6-0.1,2.4,0c0.3,0.2,0.5,0.5,0.7,0.8c0.3,0.5,0.6,1,0.9,1.5c0.1,0.3,0.1,0.5-0.1,0.7c-0.6,0.5-1.3,0.6-2,0.6
			c-0.2,0-0.3-0.1-0.4-0.3c-0.1-0.1-0.1-0.2-0.2-0.3c-0.1,0-0.2,0.1-0.2,0.2c-0.2,0.3-0.4,0.1-0.7,0.1c-0.8-0.3-1.7-0.7-2.4-1.1
			c-0.2-0.1-0.1-0.4-0.2-0.5c0-0.1-0.1-0.2-0.1-0.2c-0.2,0-0.2,0.2-0.3,0.3c-0.2,0.2-0.4,0-0.6,0c-0.7-0.2-1.4-0.4-2.1-0.4
			c-0.1,0-0.2,0-0.3,0c-1.1,0-2.1,0.4-3.1,0.5c-0.1,0-0.1,0-0.2,0s-0.2,0.1-0.4,0.1C95.7,84,95,84,94.5,84.2
			c-0.6,0.2-1.2,0.1-1.8,0.1c-0.1,0-0.1,0-0.2,0c-0.2,0-0.5,0-0.7-0.1c-0.1-0.1-0.2-0.1-0.3-0.1c-0.5-0.2-0.9-0.5-1.2-0.8
			C90,83,90,82.8,90.2,82.4c0.3-0.3,0.6-0.7,0.8-1.1c0.2-0.4,0.5-0.3,0.8-0.1c0.1,0.1,0.3,0.1,0.4,0.1c0.3,0,0.4-0.2,0.4-0.5
			c0-0.1,0-0.1,0-0.2s-0.1-0.2-0.2-0.2c-0.8,0.3-1.5-0.2-2.2-0.4c-0.6-0.2-1.3-0.4-1.9-0.7c-0.1,0-0.1,0-0.2,0
			c-0.2,0-0.4,0.1-0.3,0.3C88.1,79.6,88,79.9,88.1,80.2z"/>
		<path class="st53" d="M108.9,76.5c0.4,0.4,0.8,0.9,1.2,1.3c1.4,2.1,1.7,4.2,0.6,6.5c-0.6,1.3-2.3,2.1-3.9,1.8
			c-1.3-0.2-2.5-0.8-3.7-1.4c-1.5-0.8-3-1.1-4.7-0.7c-1.5,0.3-2.9,0.8-4.4,1c-0.7,0.1-1.4-0.1-2-0.1c1.6,0.6,3.3,0.7,4.9,0.1
			c1.5-0.5,2.9-0.5,4.4,0c1.3,0.4,2.6,0.9,3.8,1.4c1.1,0.4,2.2,0.6,3.4,0.5c1.5-0.1,2.3-1.1,2.9-2.3c0.9-2,0.7-4-0.3-5.9
			C110.6,77.7,109.9,76.9,108.9,76.5z"/>
		<path class="st74" d="M93.2,75.2c-0.1-0.2-0.3,0-0.4,0c0,0,0,0,0,0.1c0,0.9,0,0.9-0.9,0.7c-0.7-0.1-1.3-0.1-2-0.1
			c-0.2,0.3-0.4,0.4-0.8,0.4c-0.4-0.1,0-0.2-0.1-0.3c-0.1,0-0.2,0-0.3,0.1c-0.1,0-0.3,0.1-0.4,0.1c-0.1,0.1-0.1,0.1-0.2,0.1
			c-0.7,0-0.7,0-0.6,0.7c0.1,0.3,0,0.4-0.3,0.5c-0.1,0.1-0.1,0.2-0.2,0.3l-0.1,0.1c-0.1,0.1-0.4,0.2-0.3,0.4
			c0.1,0.3,0.3,0.5,0.6,0.5c0.2-0.2,0.4-0.3,0.4-0.5c0,0.6,0.4,0.8,0.8,0.9c0.3,0.1,0.5,0.4,0.8,0.1c0.2-0.3-0.1-0.5-0.2-0.8
			c-0.2-0.3-0.4-0.6-0.3-1c0-0.1,0-0.1,0-0.2c0-0.3-0.2-0.6,0.3-0.7c0.6-0.1,1,0,1.1,0.5c0.2,0.5,0.2,1,0.8,1.3
			c0.1-0.1,0.2-0.2,0.2-0.3c0-0.4-0.2-0.6-0.3-0.9c-0.1-0.3-0.1-0.5,0.3-0.5c0.6,0,1.2,0.1,1.8,0.3c0.1,0,0.3,0.1,0.3,0.2
			c0,0.2-0.1,0.3-0.3,0.3c-0.6,0.2-0.9,0.6-0.9,1.2c0,0.2-0.2,0.3-0.3,0.4c-0.1,0.5,0.3,0.8,0.6,0.8c0.6,0.1,0.3-0.4,0.3-0.7
			c0-1.1,0-1.1,0.9-1.4c0.2-0.1,0.2-0.4,0.3-0.6c0-0.2,0.2-0.3,0.4-0.3c0.1,0,0.2,0,0.3,0c0.2,0,0.3-0.1,0.4-0.2c0-0.1,0-0.1,0-0.2
			c-0.2-0.2-0.5-0.2-0.8-0.3c-0.3,0-0.5-0.1-0.6-0.3C93.3,75.7,93.2,75.4,93.2,75.2z"/>
		<path d="M88.3,79.2c-0.5-0.3-0.8-0.6-0.7-1.3c-0.2,0.3-0.5,0.6-0.6,0.9l0,0c0.2,0.1,0.5,0.2,0.6,0.4c0.4,0.2,0.3,0.6,0.5,1
			c0-0.3,0-0.5-0.1-0.8C87.9,79.1,88.2,79.2,88.3,79.2z"/>
		<path class="st74" d="M87.6,79.2c-0.1-0.3-0.4-0.4-0.6-0.4v0.1C87.2,79,87.4,79.1,87.6,79.2z"/>
		<path class="st75" d="M87.4,77.1c0-0.2,0.1-0.5-0.1-0.7c0.3-0.1,0.6,0.1,0.8-0.2c-0.3-0.1-0.7,0-1-0.1c-0.5-0.1-0.6,0.3-0.7,0.7
			c-0.1,0.1-0.1,0.2,0.1,0.3c0.1,0,0.1,0,0.2,0s0.2-0.1,0.2-0.2s0-0.1,0.1-0.2c0,0.1,0.1,0.2,0.1,0.2l0.1,0.1
			C87.3,77.2,87.3,77.1,87.4,77.1z"/>
		<path class="st76" d="M86.5,77.1c-0.1-0.1-0.1-0.2-0.1-0.3c-0.4,0.5,0,1,0,1.5c0.1-0.3,0.4-0.2,0.5-0.4c-0.1-0.1,0-0.3-0.2-0.4
			C86.6,77.4,86.7,77.2,86.5,77.1z"/>
		<path d="M92.6,80.6c-0.1,0.1-0.1,0.4-0.4,0.4c0.3,0.6,0.8,0.4,1.3,0.7c0.1,0,0.3,0.2,0.4,0.1c1,0,1.9,0.2,2.9,0.3
			c0.1,0.1,0.2,0.2,0.3,0.1c0.7-0.4,1.5-0.2,2.3-0.3c0.2,0,0.3,0.2,0.3,0.4c0,0.3-0.1,0.6,0.1,0.9c0.1,0,0.2,0,0.3,0
			c0.2-0.2,0.2-0.5,0.2-0.8c0-0.5,0.3-0.7,0.8-0.8c0.5-0.1,1,0.1,1.6,0c0.1,0,0.2-0.1,0.2-0.2c-0.7-0.3-1.5-0.1-2.3-0.1
			c0.5-0.3,1-0.4,0.6-1.1c0.2,0,0.4,0,0.5,0c-0.3-0.5-0.8-0.7-1.2-1.1c-0.1-0.1-0.2-0.3-0.3-0.3c-0.2,0-0.3,0-0.5-0.1
			c-0.4-0.2-0.7-0.4-1.1-0.6c-0.1,0-0.2,0-0.3,0c-0.3,0.4,0,0.5,0.2,0.6c0.5,0.3,1.1,0.6,1.6,1C99.4,80,99,80,98.5,79.4
			c-0.4-0.5-0.7-1-0.8-1.6c-0.1-0.3-0.6-0.3-0.4-0.7c-0.2-0.3-0.6-0.3-0.9-0.4c-0.1,0.1,0.2,0.4-0.2,0.4c-0.1,0-0.2,0-0.3,0
			c-0.4,0.3-0.2,0.5,0.1,0.6c0.9,0.2,1.2,1,1.6,1.7c0.3,0.4,0.2,0.5-0.3,0.6c-0.1,0-0.2,0-0.4,0c-1.3,0-1.5,0-1.4-1.3
			c0-0.2,0-0.3-0.2-0.4c-0.1,0-0.2,0-0.3,0.1c0,0.1,0,0.1,0,0.2c0.1,0.4,0.2,0.8-0.2,1.2c-0.2,0.1-0.4,0.1-0.6,0.3
			c-0.4,0.2-0.2,0.8-0.6,1c-0.3,0.1-0.5-0.1-0.7-0.2C92.9,80.8,92.8,80.6,92.6,80.6z"/>
		<path class="st52" d="M105.5,81.5c-0.7,0-1.3,0.1-2,0c-0.4-0.1-0.6,0-0.7,0.4c0,0.1,0,0.3,0,0.4c0.1,0.2,0.1,0.4,0.1,0.7
			c0,0.1,0.1,0.2,0.1,0.3c0,0.1,0,0.1,0,0.2c0.1,0.2-0.1,0.5,0.1,0.6c1,0.5,1.9,1.1,3,1.3c0.3,0.1,0.3-0.1,0.3-0.3
			c-0.1-0.9-0.5-1.8-0.6-2.7C105.9,82.1,106,81.6,105.5,81.5z"/>
		<path class="st52" d="M97,81.9c-0.9-0.1-1.9-0.3-2.8-0.4c-0.1,0-0.2,0.1-0.3,0.2c-0.3,0.1-0.3,0.3-0.4,0.6
			c-0.2,0.5-0.5,0.9-0.8,1.4c-0.1,0.2-0.3,0.4-0.1,0.6l0,0c0.7,0.1,1.3,0.1,2,0c0.6-0.2,1.2-0.1,1.7-0.5c0.1-0.1,0.2-0.2,0.3-0.3
			c0.1-0.3,0.2-0.6,0.3-0.9C97,82.4,96.9,82.1,97,81.9z"/>
		<path class="st52" d="M108.7,82.4c-0.2-0.3-0.3-0.6-0.5-0.8c-0.7-0.2-1.3,0-2-0.1c-0.4,0-0.2,0.3-0.2,0.5c0.2,0.7,0.3,1.5,0.6,2.2
			c0.1,0.2,0.1,0.5,0.3,0.6c0,0.1,0.1,0.2,0.1,0.2c0.6,0.4,1.2,0.1,1.6-0.3c0.5-0.3,0.6-0.8,0.5-1.4
			C108.9,83.1,108.8,82.7,108.7,82.4z"/>
		<path class="st77" d="M106.1,80.2c0.1,0,0.3,0,0.4,0c0.5,0.1,0.9,0,1.4,0c0.1,0,0.3,0,0.3-0.1c0.3-0.5,0.7-1.1,0.9-1.7
			c0.2-0.6-0.2-0.9-0.6-1.3c-0.1-0.1-0.1-0.1-0.2-0.2c-0.8-0.6-0.8-0.6-1.1,0.2c-0.5,0.5-0.6,1.3-0.9,1.9
			C106.1,79.5,105.9,79.8,106.1,80.2z"/>
		<path class="st52" d="M93.6,81.5c-0.5-0.1-1-0.2-1.4-0.5c-0.1,0-0.3,0.1-0.4-0.1c-0.1-0.1-0.3-0.1-0.5-0.1
			c-0.9,0.5-1.4,2.5,0.1,3.3c0.1,0,0.2,0.1,0.2,0.1c0.3,0.1,0.6,0.1,0.7-0.2c0.4-0.7,0.8-1.4,1.1-2.1C93.7,81.8,93.8,81.6,93.6,81.5
			z"/>
		<path class="st78" d="M100.5,79.2c0.4,0.3,0.8,0.7,1.3,1c0.4-0.1,0.9,0.3,1.1-0.4c0.5-0.6,0.6-1.4,0.8-2.1c0-0.1,0-0.3-0.2-0.2
			c-0.5,0.2-1,0.4-1.5,0.5c-0.3,0.1-0.7,0.1-1,0c-0.3,0-0.4,0.1-0.5,0.3c0,0.1,0,0.2,0,0.3C100.4,78.9,100.4,79,100.5,79.2z"/>
		<path class="st79" d="M102.8,81.5c-0.6-0.1-1.2-0.2-1.9,0c-0.4,0.1-0.7,0.3-0.6,0.8c0,0.3,0,0.7-0.1,1c0.8,0.1,1.6,0.2,2.4,0.5
			c0.2,0.1,0.4,0.3,0.5-0.1c-0.1-0.3,0.1-0.7,0-1C102.8,82.2,103,81.8,102.8,81.5z"/>
		<path class="st80" d="M99.9,83.2c0-0.4,0.1-0.7,0.1-1.1c0.1-0.3-0.1-0.4-0.4-0.4c-0.7,0.1-1.3,0.1-2,0.1c-0.3,0-0.4,0.2-0.5,0.4
			c-0.2,0.1-0.2,0.4-0.4,0.6c0,0.3-0.4,0.5-0.1,0.9c0.8,0,1.5-0.3,2.3-0.4C99.3,83.3,99.6,83.2,99.9,83.2z"/>
		<path d="M92.4,79.2c-0.1,0.1-0.1,0.2,0,0.3c0.1,0.1,0.2,0.2,0,0.3c-0.1,0.1-0.2,0-0.3-0.1c-0.2-0.2-0.4-0.4-0.5-0.6
			c0-0.4-0.2-0.8-0.6-1c-0.1,0.1-0.1,0.1-0.1,0.2c-0.1,0.1,0,0.2,0,0.3c0.1,0.1,0.2,0.3,0.2,0.4s0,0.2-0.1,0.3
			c-0.4,0.2-1.2,0-1.4-0.4c-0.3-0.4-0.6-0.8-0.8-1.2c-0.1-0.1-0.1-0.2-0.3-0.2c-0.3,0.3,0.1,0.6,0.2,0.8c0.1,0.1,0.2,0.3,0.3,0.4
			c0.1,0.1,0.3,0.3,0.1,0.4c-0.1,0.2-0.3,0-0.4,0s-0.2,0-0.2,0c1.2,0.6,2.4,0.9,3.6,1.4c0.3,0.1,0.5-0.5,0.8-0.1
			c0.3,0,0.3-0.3,0.4-0.5C93,79.5,92.8,79.3,92.4,79.2z"/>
		<path class="st81" d="M108.7,82.4c0,0.3,0.1,0.5,0.1,0.8c0.2,1.3-0.3,1.8-1.6,1.9c-0.1,0-0.2,0-0.3,0c0,0.3,0,0.4,0.4,0.4
			c0.8,0,1.6-0.2,2.3-0.7c0.2-0.2,0.3-0.3,0.2-0.6C109.4,83.6,109.1,83,108.7,82.4z"/>
		<path class="st82" d="M89.8,76c0.1,0.2,0.4,0.2,0.6,0.2c0.7,0,1.4,0.1,2.1,0.2c0.2,0,0.5,0.1,0.6,0c0.1-0.2,0-0.4-0.1-0.6
			c-0.1-0.1-0.1-0.3-0.2-0.4C91.7,75,90.7,75.3,89.8,76z"/>
		<path class="st83" d="M106.8,76.3c-0.5,0-1.1-0.1-1.3,0.2c-0.2,0.3-0.6,0.4-0.8,0.6c-0.2,0.2-0.4,0.1-0.6,0
			c-0.2,0.2-0.4,0.5-0.2,0.8c0,0.1,0.1,0.1,0.2,0.1c0.3-0.3,0.6-0.4,1.1-0.4c0.4,0.1,0.9,0,1.2-0.3C106.7,77.1,107,76.8,106.8,76.3z
			"/>
		<path class="st81" d="M91.5,84.1c-1.1-1.1-1.1-2-0.1-3.2c-0.3-0.1-0.4,0.1-0.5,0.3c-0.3,0.4-0.6,0.9-0.9,1.3
			c-0.1,0.2-0.2,0.3,0,0.5C90.4,83.4,90.8,83.9,91.5,84.1z"/>
		<path class="st84" d="M97.5,77.1c-0.2,0-0.4-0.1-0.3,0.3c0.1,0.3,0.4,0.2,0.6,0.4c0.2,0.2,0.5,0.4,0.8,0.4c0.1,0,0.1,0,0.2,0
			c0.5-0.1,1,0.3,1.5,0.1c0.1-0.2,0-0.3-0.2-0.4C99.2,77.8,98.3,77.6,97.5,77.1z"/>
		<path class="st85" d="M106.8,76.3c0,0.4-0.2,0.7-0.4,1c-0.2,0.3-0.4,0.6-0.6,1c-0.1,0.5-0.6,0.8-0.5,1.3c0.1,0.1,0.2,0.1,0.3,0.1
			c0.3-0.1,0.4-0.4,0.6-0.7c0.2-0.2,0.1-0.6,0.4-0.7c0.3-0.4,0.4-0.9,0.5-1.4C107.1,76.7,107.5,76.3,106.8,76.3z"/>
		<path class="st86" d="M96.3,77.2c0.1,0,0.2,0,0.2,0c0.2,0.1,0.3,0.1,0.2-0.2c-0.1-0.2-0.2-0.2-0.3-0.3c0-0.1-0.2-0.1-0.3-0.1
			c-0.5-0.2-1-0.3-1.4-0.6l0,0c-0.2-0.1-0.4-0.1-0.6-0.2c-0.1,0-0.1-0.1-0.2-0.1c-0.2,0.1-0.5-0.5-0.7,0.1c0.2,0.3,0.6,0.4,0.9,0.5
			c0.2,0.1,0.5,0.1,0.6,0.3v0.1C95.2,77,95.7,77.1,96.3,77.2z"/>
		<path class="st87" d="M108.5,77.2c0.6,0.9,0.4,2.1-0.3,2.9c-0.2,0.2-0.3,0.1-0.5,0.1c-0.4,0-0.8,0-1.2,0c0.5,0.2,1,0.1,1.5,0.1
			c0.2,0,0.3-0.1,0.4-0.3c0.2-0.3,0.4-0.6,0.6-0.9C109.6,78.1,109.6,77.9,108.5,77.2z"/>
		<path class="st88" d="M93.6,81.5c-0.3,0.9-0.9,1.7-1.3,2.6c-0.1,0.3-0.4,0.1-0.6,0.1c0.2,0.3,0.5,0.1,0.8,0.1
			c0.5-0.9,0.9-1.7,1.4-2.6C93.8,81.7,93.8,81.5,93.6,81.5z"/>
		<path class="st89" d="M107,77c-0.3,0.4-0.4,0.9-0.6,1.4c-0.3,0.2-0.3,0.6-0.5,0.8c-0.1,0.3-0.2,0.5-0.3,0.7c0,0.1,0,0.2,0,0.3
			c0.1,0,0.2,0,0.3,0c0.4-1,0.7-2,1.1-3C107.1,77.2,107,77.1,107,77z"/>
		<path class="st90" d="M103.5,77.5c0.1,0.6-0.3,1.1-0.5,1.7c-0.1,0.2-0.1,0.4-0.2,0.7c0.1,0.2,0.2,0.5,0.5,0.4c0,0,0-0.1,0-0.2
			c-0.1-0.1-0.1-0.2,0-0.4c0.1-0.2,0.1-0.3,0.2-0.5c0-0.2,0.1-0.4,0.2-0.7c0.1-0.3,0.2-0.6,0.1-1C103.8,77.5,103.7,77.2,103.5,77.5z
			"/>
		<path class="st91" d="M106.8,84.8c-0.2-0.9-0.5-1.8-0.7-2.8c-0.3,0-0.2,0.2-0.1,0.4c0.2,0.8,0.4,1.6,0.6,2.4
			c0,0.1,0.1,0.1,0.1,0.2C106.6,85,106.6,84.9,106.8,84.8z"/>
		<path class="st92" d="M105.9,82.5c0-0.1,0-0.3,0.1-0.4c-0.1-0.5,0-0.6,0.5-0.6c0.5,0.1,1.1,0,1.6,0.1c-0.7-0.3-1.4-0.1-2.1-0.2
			c-0.2,0-0.4,0-0.5,0C105.8,81.7,105.7,82.2,105.9,82.5z"/>
		<path class="st93" d="M92.9,80c-0.1,0.2-0.2,0.3-0.2,0.5v0.1c0,0.3,0.2,0.3,0.4,0.4c0,0,0,0,0.1,0c0.1-0.1,0.3-0.1,0.4-0.3
			c0-0.1,0-0.1,0-0.2c-0.1-0.1-0.2-0.1-0.2-0.3c0-0.1-0.1-0.2-0.2-0.3C93,79.9,92.9,79.9,92.9,80z"/>
		<path class="st94" d="M102.8,81.5c0,0.4,0,0.8,0.1,1.2c0.2-0.2,0-0.5,0.1-0.7c-0.1-0.4,0.2-0.5,0.5-0.5
			C103.3,81.3,103.1,81.4,102.8,81.5C102.9,81.4,102.8,81.4,102.8,81.5z"/>
		<path class="st88" d="M94.5,84.3c-0.7,0-1.3,0.1-2,0C93.2,84.6,93.9,84.5,94.5,84.3z"/>
		<path class="st95" d="M96.7,83.7c0-0.3,0.2-0.6,0.2-0.9c-0.1-0.1,0-0.2-0.1-0.3c-0.2,0.3-0.3,0.6-0.4,0.9c0.1,0.1,0,0.2,0.1,0.2
			C96.6,83.7,96.6,83.7,96.7,83.7z"/>
		<path class="st96" d="M94.8,76c0.4,0.4,0.9,0.6,1.4,0.6C95.7,76.3,95.3,76.1,94.8,76z"/>
		<path class="st97" d="M103,82c-0.2,0.2-0.1,0.5-0.1,0.7c0,0.3,0,0.7,0.1,1c0.1-0.1,0-0.3,0.1-0.4c0-0.1,0-0.2,0-0.3
			c-0.1-0.2,0-0.5-0.1-0.7C103,82.2,103,82.1,103,82z"/>
		<path class="st98" d="M103.9,77.6c-0.1,0.3-0.2,0.7-0.2,1c0.4,0,0.4-0.3,0.4-0.5c-0.1-0.3,0-0.6,0.1-0.8
			C103.9,77.2,103.9,77.4,103.9,77.6z"/>
		<path class="st99" d="M100.5,78.4c0.1-0.2,0.3-0.3,0.5-0.3c0.3,0,0.7,0.1,1-0.1c-0.4,0-0.8,0-1.2,0
			C100.6,77.9,100.4,78,100.5,78.4z"/>
		<path class="st100" d="M105.7,80.2c0-0.1,0-0.2,0.1-0.2c0-0.1,0.1-0.2-0.1-0.3c-0.1,0-0.2,0.1-0.3,0.2c-0.1,0-0.2,0-0.2,0
			c-0.2,0-0.4,0-0.6,0.1c-0.1,0-0.1,0.1,0,0.2C104.9,80.2,105.3,80.2,105.7,80.2z"/>
		<path class="st96" d="M93.3,75.7c0.1-0.5,0.4,0,0.6-0.2c-0.2-0.2-0.5-0.2-0.8-0.3c-0.1,0.2,0,0.4,0.1,0.6
			C93.3,75.8,93.3,75.8,93.3,75.7z"/>
		<path class="st99" d="M100.1,78c0.1,0.1,0.2,0.2,0.1,0.4c-0.1,0.1-0.1,0.2-0.1,0.3c0,0.1,0,0.2,0.1,0.2c0.1,0.1,0.2,0.2,0.2,0.4
			c0-0.2,0-0.3,0-0.5C100.2,78.5,100.6,78,100.1,78z"/>
		<path d="M90.9,81.1c0.2-0.1,0.2-0.4,0.5-0.3c0.2,0,0.3,0,0.5,0C91.5,80.7,91.1,80.4,90.9,81.1z"/>
		<path class="st101" d="M104.5,80.2C104.5,80.1,104.5,80.1,104.5,80.2c-0.2-0.3-0.4-0.3-0.7-0.3c-0.1,0-0.2,0-0.4,0.1
			c-0.1,0-0.1,0.1-0.1,0.1v0.1C103.8,80.2,104.2,80.2,104.5,80.2z"/>
		<path class="st96" d="M96.4,76.7c-0.1,0.2,0.6,0.3,0.1,0.5c0.1,0.1,0.3,0.2,0.4,0.1c0.1-0.2-0.1-0.4-0.2-0.6
			C96.5,76.7,96.5,76.7,96.4,76.7z"/>
		<path class="st96" d="M94.1,75.7c0.2,0.2,0.4,0.3,0.6,0.2C94.6,75.8,94.4,75.7,94.1,75.7z"/>
		<path class="st97" d="M103.3,84.1c0-0.2-0.1-0.4-0.1-0.6C103.1,83.7,103.1,83.9,103.3,84.1z"/>
		<path class="st102" d="M96.5,83.7c0-0.1,0-0.2-0.1-0.2c0,0.1-0.1,0.2-0.1,0.4C96.4,83.8,96.5,83.8,96.5,83.7z"/>
		<path class="st103" d="M96.3,77.2c-0.5-0.2-1-0.4-1.5-0.6c-0.1,0.1-0.2,0.1-0.4,0.1c0.2,0.3,0.7,0.4,0.5,0.9c0,0.4,0,0.7,0.5,0.8
			l0.1-0.1c0.2-0.2-0.1-0.4,0-0.7c0.5,0.4,0.9,0.9,1.3,1.3c0.2,0.2,0.1,0.3-0.1,0.4c-0.3,0.1-0.6,0.2-0.8-0.2
			c-0.1-0.2,0-0.5-0.3-0.5c0,0.3,0,0.5,0,0.8c0,0.4,0.3,0.7,0.7,0.7c0.6,0,1.2,0,1.7-0.1c0.3-0.1,0.4-0.2,0.2-0.4
			c-0.3-0.5-0.7-1-0.9-1.5c-0.2-0.4-0.6-0.4-1-0.5C96.1,77.5,96.1,77.5,96.3,77.2z"/>
		<path class="st104" d="M90.9,78.1c0.2,0.3,0.4,0.7,0.6,1c0.3,0,0.5,0,0.5-0.4c-0.1-0.6,0.2-1,0.8-1.1c0.2,0,0.5-0.1,0.4-0.4
			c0-0.3-0.3-0.4-0.5-0.4c-0.7-0.1-1.3-0.2-2-0.3c-0.6,0-0.6,0.2-0.4,0.6C90.6,77.4,90.7,77.7,90.9,78.1z"/>
		<path class="st104" d="M88.4,77.6c0,0.1,0.1,0.2,0.1,0.2c0.5,0.7,1.3,0.9,2,1.1c0.2,0.1,0.5,0,0.4-0.3c0-0.1-0.1-0.2-0.1-0.2
			c-0.4-0.4-0.5-0.9-0.7-1.4s-0.8-0.7-1.4-0.5s-0.3,0.6-0.2,0.9C88.4,77.4,88.4,77.5,88.4,77.6z"/>
		<path class="st105" d="M92.9,80L92.9,80c0.2-0.1,0.4,0,0.5,0c0.1-0.2,0-0.4-0.2-0.5l-0.1-0.1c-0.1-0.3-0.5-0.6-0.1-0.9
			c0.5-0.3,0.6,0.1,0.8,0.5c0.1,0.1-0.1,0.1,0,0.1c0,0,0,0,0-0.1c-0.2-0.2-0.3-0.2-0.4,0.1c-0.1,0.6,0.3,0.7,0.7,0.8
			c0.1,0,0.1,0,0.2,0c0.1-0.1,0.2-0.2,0.2-0.4c0-0.1,0-0.2,0-0.3c0-0.2-0.1-0.5-0.2-0.7c0-0.1-0.2-0.2-0.1-0.3
			c0.1-0.1,0.3-0.1,0.4-0.2c0-0.1,0-0.1,0-0.2c-0.2-0.1-0.4-0.1-0.6-0.1c-0.1,0-0.1,0-0.1,0.1c-0.1,0.1-0.2,0.2-0.3,0.1
			c-0.1,0-0.1-0.1-0.2-0.1c-1,0.1-1.2,0.4-1,1.5C92.5,79.5,93,79.5,92.9,80z"/>
		<path class="st106" d="M93.3,75.7L93.3,75.7c0,0.5,0.2,0.6,0.6,0.6c0.3,0,0.6,0.1,0.9,0.1c0.1,0,0.3,0,0.1-0.2
			C94.3,76,93.8,75.8,93.3,75.7z"/>
		<path class="st107" d="M94.6,77.7L94.6,77.7c0,0.3,0.1,0.4,0.3,0.4c0.1-0.2,0-0.4,0.1-0.5c0.3-0.7-0.2-0.7-0.6-0.9
			c-0.1,0-0.2,0-0.4,0c-0.4,0.5,0.3,0.3,0.3,0.5C94.4,77.4,94.3,77.7,94.6,77.7z"/>
		<path class="st108" d="M94.5,77.1c-0.1-0.2-0.3-0.1-0.4-0.1c-0.2,0-0.2-0.1-0.1-0.2c-0.3,0-0.4,0.1-0.4,0.4v0.1
			C94,77.3,94.3,77.7,94.5,77.1z"/>
		<path class="st109" d="M86.6,77.6c0.1,0.1,0.2,0.2,0.2,0.4v-0.1c0.1-0.3,0.1-0.6,0.2-0.9c-0.1-0.1-0.1-0.3-0.2-0.4
			c-0.2,0.1-0.1,0.4-0.3,0.5C86.6,77.2,86.6,77.4,86.6,77.6z"/>
		<path class="st109" d="M87.4,77.1c-0.1,0-0.2,0-0.3,0c-0.1,0.1-0.3,0.3-0.1,0.5C87.4,77.6,87.8,77.6,87.4,77.1z"/>
		<path class="st110" d="M93.4,77.7c0.1,0,0.1,0.1,0.2,0.1c0.2,0.1,0.3,0,0.3-0.1l0,0c0.1-0.1,0.2-0.2,0.1-0.3
			c-0.2-0.1-0.2-0.3-0.3-0.4l0,0C93.4,77.2,93.6,77.5,93.4,77.7z"/>
		<path class="st111" d="M87,77.6c0-0.2,0.1-0.3,0.1-0.5V77c-0.5,0.2-0.2,0.6-0.2,0.9C87,77.8,87,77.7,87,77.6z"/>
		<path class="st111" d="M86.6,77.6c0.1-0.2,0.1-0.3,0-0.5h-0.1C86.6,77.2,86.4,77.5,86.6,77.6z"/>
		<path class="st112" d="M98.6,78.2c-0.2-0.2-0.5-0.3-0.8-0.4c0,0.9,0.6,1.5,1.2,2.1c0.2,0.3,1.3,0.2,1.5,0s0.1-0.3-0.1-0.4
			c-0.6-0.3-1.1-0.6-1.7-0.9C98.6,78.5,98.3,78.5,98.6,78.2z"/>
		<path class="st113" d="M95.6,78.7c0,0.1,0.1,0.2,0.1,0.3c-0.1,0.7,0.3,0.6,0.8,0.6c0.3,0,0.5-0.1,0.6-0.3c0.1-0.3-0.2-0.4-0.3-0.5
			c-0.3-0.4-0.7-0.7-1-1c-0.1-0.1-0.3-0.4-0.5-0.1c-0.2,0.2-0.1,0.4,0.1,0.5c0.1,0,0.1,0.2,0.1,0.3C95.7,78.4,95.6,78.6,95.6,78.7z"
			/>
		<path class="st114" d="M100.2,78.6c0-0.1,0-0.2,0-0.2c-0.4-0.2-1-0.2-1.4-0.3c-0.2,0,0,0.1-0.1,0.2c0.4,0.2,0.7,0.4,1.1,0.6
			C100.2,79,100.2,78.7,100.2,78.6z"/>
		<path class="st115" d="M93.4,79.9c-0.1-0.1-0.3-0.2-0.4,0c0,0.1,0,0.2,0.1,0.3c0,0.1,0.2,0.1,0.2,0.2s0,0.2,0,0.3
			c-0.1,0.1-0.3,0.1-0.4,0.2l0,0c0.3,0.2,0.6,0.3,0.9,0.2c0.1-0.1,0.1-0.2,0-0.3c0-0.1-0.1-0.1-0.1-0.1c0.1,0,0.1,0.1,0.2,0.1
			c0.1-0.1,0.2-0.2,0.1-0.3c0-0.2-0.2-0.2-0.4-0.4c0.2,0.2,0.3,0.1,0.4,0c0-0.1,0-0.2-0.1-0.3C93.8,79.8,93.6,79.8,93.4,79.9z"/>
		<path class="st116" d="M94,80.6c0,0.1,0,0.2-0.1,0.2l0,0c0,0.1,0,0.2,0,0.4c0.5-0.2,0.2-0.8,0.6-1.1c0.1-0.1,0.1-0.1,0.1-0.2
			c-0.1-0.1-0.2-0.1-0.3-0.1c-0.1,0-0.1,0-0.2,0S93.9,79.9,94,80c0,0.1,0,0.2,0,0.3C94,80.3,94.1,80.5,94,80.6z"/>
		<path class="st117" d="M94.5,79.8c0,0.1,0,0.2,0,0.2c0.2-0.1,0.5,0,0.6-0.2s0.4-0.4,0.2-0.7c-0.1,0-0.1,0-0.2,0s-0.1,0-0.2,0.1
			s-0.2,0.3-0.4,0.3C94.5,79.6,94.4,79.7,94.5,79.8z"/>
		<path class="st117" d="M95,77.6c-0.2,0.1-0.1,0.3-0.1,0.5c-0.2,0.3-0.3,0.6,0.1,0.8c0.1,0,0.2-0.2,0.3-0.2c0,0,0.1,0,0.1-0.1v-0.1
			C95.1,78.2,95,77.9,95,77.6z"/>
		<path class="st118" d="M95.4,78.6L95.4,78.6c-0.2,0.2-0.3,0.4-0.1,0.6c0.1,0.2-0.2,0.4-0.1,0.6C95.6,79.5,95.6,79.1,95.4,78.6z"/>
		<path class="st60" d="M96.8,82.6c0,0.1,0.1,0.2,0.1,0.3c0.1-0.2,0.2-0.4,0.2-0.6c0-0.1-0.1-0.2-0.1-0.3
			C96.9,82.1,96.8,82.3,96.8,82.6z"/>
		<path class="st84" d="M100.2,78.6c-0.1,0.1-0.2,0.3-0.4,0.3c0.1,0.2,0.3,0.2,0.4,0C100.3,78.7,100.3,78.7,100.2,78.6z"/>
		<path class="st94" d="M103,82.3c0,0.2-0.1,0.5,0.1,0.7C103.1,82.7,103.2,82.5,103,82.3z"/>
		<path class="st119" d="M90.9,78.6c0,0.3-0.2,0.2-0.4,0.2c-0.7-0.2-1.4-0.4-2-0.9c0.2,0.6,0.7,1,1,1.5c0.2,0.3,1.5,0.4,1.7,0.2
			c0.1-0.1,0.1-0.2,0.1-0.3C91.2,79,91.1,78.7,90.9,78.6z"/>
		<path class="st120" d="M105.9,78.3c0.2-0.3,0.4-0.6,0.5-1c-0.4,0.3-0.9,0.3-1.4,0.3c-0.4-0.1-0.7,0.1-0.8,0.5
			c-0.1,0.1-0.1,0.2-0.1,0.3c0,0.2,0,0.3,0.1,0.4C104.8,79,105.4,78.7,105.9,78.3z"/>
		<path class="st121" d="M104.1,78.3c0-0.1,0-0.2,0-0.2H104c-0.1,0.2-0.3,0.4-0.4,0.5c-0.2,0.2-0.2,0.4-0.2,0.6
			c0.2,0.1,0.3,0,0.4-0.1C104.1,78.9,104,78.5,104.1,78.3z"/>
		<path class="st122" d="M105.9,78.3c-0.6,0-1.1,0.5-1.7,0.4c-0.2,0.1-0.3,0.3-0.3,0.6c0,0.1,0,0.3,0.1,0.4c0,0.1,0.1,0.1,0.2,0.1
			c0.4,0.1,0.8,0,1.1-0.2C105.5,79.2,105.9,78.8,105.9,78.3z"/>
		<path class="st123" d="M105.3,79.6c-0.4,0.1-0.8,0.1-1.2,0.2c0,0.3,0.2,0.3,0.4,0.3c0.3,0,0.5,0,0.8,0c0.1,0,0.2,0,0.2,0
			c0.1-0.2,0-0.3,0-0.5C105.4,79.6,105.3,79.6,105.3,79.6z"/>
		<path class="st124" d="M105.5,79.6c-0.1,0.2,0,0.3,0,0.5c0.2,0.2,0.1-0.5,0.3-0.1c0.2-0.2,0.2-0.5,0.2-0.7c0.1-0.1,0.1-0.2,0-0.3
			C105.8,79.1,105.8,79.5,105.5,79.6z"/>
		<path class="st125" d="M106,78.9c0,0.1,0,0.2,0,0.3c0.1-0.3,0.3-0.6,0.4-0.9C106,78.4,106.1,78.7,106,78.9z"/>
		<path class="st126" d="M103.8,79.1c-0.1,0-0.2,0.1-0.3,0.1c-0.1,0.2-0.1,0.3-0.2,0.5c0,0.1,0.1,0.3,0.2,0.4c0.1,0,0.2,0,0.3-0.1
			c0-0.1,0.2-0.1,0.1-0.3C103.8,79.6,103.9,79.4,103.8,79.1C103.8,79.1,103.8,79.1,103.8,79.1z"/>
		<path class="st127" d="M103.5,80.1c0-0.2,0-0.4-0.2-0.4C103.2,79.9,103,80.1,103.5,80.1L103.5,80.1z"/>
		<path class="st128" d="M93,80.9c0.2,0.1,0.3,0,0.4-0.2C93.2,80.7,93,80.7,93,80.9z"/>
		<path class="st129" d="M93.4,80.4c0-0.2-0.1-0.2-0.2-0.2C93,80.5,93.3,80.4,93.4,80.4z"/>
		<path class="st124" d="M103.9,79.7c0,0.1-0.3,0.1-0.1,0.2c0.2,0.1,0.5,0.1,0.8,0.1c0.2,0,0.5,0,0.7,0c-0.2-0.2-0.4-0.1-0.7-0.1
			c-0.2,0-0.5,0-0.6-0.2v-0.1C104,79.7,103.9,79.7,103.9,79.7z"/>
		<path class="st130" d="M94,79.9c0-0.1,0-0.1,0.1-0.2c0-0.1-0.1-0.2-0.2-0.2c-0.5,0-0.5-0.3-0.4-0.6c0.2,0,0.1,0.1,0.2,0.2
			s0.2,0.3,0.4,0.2c0.2-0.1,0-0.3-0.1-0.4c-0.2-0.2-0.1-0.7-0.6-0.7s-0.7,0.2-0.6,0.7s0.5,0.7,0.7,1.2C93.6,79.9,93.8,79.9,94,79.9z
			"/>
		<path class="st131" d="M95,78.8c-0.3-0.2,0-0.5-0.1-0.7c-0.1-0.1-0.2-0.2-0.3-0.3c-0.2,0-0.4-0.1-0.6,0.1c0.1,0.2,0.3,0.2,0.3,0.4
			c-0.1,0.3,0.1,0.5,0.1,0.7c0,0,0.1,0.1,0.1,0c0.1,0,0.1,0,0.2,0c0,0.1,0.1,0.1,0.2,0.1s0.1,0,0.1-0.1h0.1
			C95.2,79,95.3,78.9,95,78.8z"/>
		<path class="st132" d="M93.6,77.1c-0.2,0.3,0.4,0.3,0.3,0.6c0.2,0,0.5,0,0.7,0c-0.4-0.1,0.2-0.5-0.1-0.6
			C94.2,77.5,93.9,77,93.6,77.1z"/>
		<path class="st133" d="M94.3,78.3c0.1,0,0.3-0.1,0.3-0.2c-0.1-0.2-0.4-0.1-0.5-0.2C94,78.1,94,78.3,94.3,78.3z"/>
		<path class="st134" d="M94.5,79.8c0-0.1,0.1-0.2,0.1-0.4c0-0.1,0-0.1,0-0.2c-0.1,0-0.2,0-0.2,0c0,0.1-0.1,0.2-0.1,0.4
			C94.3,79.8,94.4,79.8,94.5,79.8z"/>
		<path class="st135" d="M93.9,77.7c-0.1,0-0.2,0.1-0.3,0.1c0,0.1,0.1,0.3,0.2,0.2C93.9,78,93.9,77.8,93.9,77.7z"/>
		<path class="st136" d="M94.4,79.3c0.1,0,0.2,0,0.2,0c0.1,0.1,0.2,0.1,0.3-0.1c0-0.1-0.1-0.1-0.1-0.2c-0.1-0.1-0.2,0-0.3,0
			c0,0,0,0-0.1,0C94.4,79.2,94.4,79.2,94.4,79.3z"/>
		<path class="st137" d="M93.9,80.8c0-0.1,0-0.4-0.2-0.2c-0.1,0.1-0.2,0.3-0.1,0.4C93.8,81.2,93.8,80.9,93.9,80.8L93.9,80.8z"/>
		<path class="st105" d="M94,80.6c0.1-0.1,0.2-0.3,0-0.4C93.8,80.2,93.8,80.2,94,80.6z"/>
		<path class="st103" d="M95,78.8c0.1,0.1,0.1,0.2,0.1,0.4c0.1,0,0.1,0,0.2,0c0-0.2,0-0.4,0-0.6C95,78.4,95,78.7,95,78.8z"/>
		<path class="st138" d="M94.9,79.2c-0.1,0-0.2,0.1-0.3,0.1v0.1C95,79.8,94.9,79.4,94.9,79.2L94.9,79.2z"/>
		<path class="st139" d="M103.8,79.1L103.8,79.1c0.1,0.2,0.1,0.3,0.2,0.2c0-0.2,0.1-0.4,0.1-0.6s0-0.3,0-0.5
			C103.9,78.5,103.9,78.8,103.8,79.1z"/>
		<path class="st140" d="M104,79.3c-0.1,0-0.2-0.1-0.2-0.1c-0.1,0.2-0.3,0.4,0.1,0.5c0,0,0.1,0,0.1-0.1C104,79.6,104,79.4,104,79.3z
			"/>
		<path class="st141" d="M93.2,78.3c-0.2,0.2-0.2,0.4-0.1,0.6C93.3,78.8,93.3,78.6,93.2,78.3z"/>
		<path class="st142" d="M94.5,79.1c0.1,0.2,0.2,0,0.3,0c0-0.1,0.1-0.2,0-0.3C94.6,78.9,94.6,79,94.5,79.1z"/>
	</g>
</g>
</svg>
