<?xml version="1.0" encoding="utf-8"?>
<!-- Generator: Adobe Illustrator 26.0.3, SVG Export Plug-In . SVG Version: 6.00 Build 0)  -->
<svg version="1.1" id="Layer_1" xmlns="http://www.w3.org/2000/svg" xmlns:xlink="http://www.w3.org/1999/xlink" x="0px" y="0px"
	 viewBox="0 0 968 938" style="enable-background:new 0 0 968 938;" xml:space="preserve">
<style type="text/css">
	.st0{opacity:0.3;fill-rule:evenodd;clip-rule:evenodd;fill:#54577F;}
	.st1{fill-rule:evenodd;clip-rule:evenodd;fill:url(#SVGID_1_);}
	.st2{opacity:0.3;fill-rule:evenodd;clip-rule:evenodd;fill:#5457A6;}
</style>
<g>
	<path class="st0" d="M306.4,467.5c-0.9,1.8-1.2,3.6-1,5.5c2.7,0.3,4.3,4.6,7.5,4.1c0.8-2.4,4-6,1-8.2c-0.4-0.3-1.6-0.2-2.1-0.4
		c-0.8-0.3-1.3-1.2-2-1.2c-1.7-0.1-5.1,1.9-6.6,2.6L306.4,467.5z"/>
	
		<radialGradient id="SVGID_1_" cx="-517.567" cy="-309.1768" r="191.588" gradientTransform="matrix(0.6192 -0.7853 0.7853 0.6192 788.6125 301.5158)" gradientUnits="userSpaceOnUse">
		<stop  offset="0" style="stop-color:#FFFFFF"/>
		<stop  offset="1" style="stop-color:#A091CB"/>
	</radialGradient>
	<path class="st1" d="M299.7,236.6c-0.2,0.3-0.4,0.8-0.6,1.2c-2.6,5.8-6.4,10.9-10.5,16.1c-0.9,1.1-1.8,3-3,3.8
		c-0.9,0.7-1.6,0.7-2.5,1.6c-1.9,1.8-3.9,3.6-5.9,5.1c-3.6,2.6-6.4,7.3-9.2,11c-3.5,4.5-9.1,7.4-12.1,12.1
		c-3.2,5.2-4.9,11.1-8.8,15.9l-2.7,3.4c-2.2,2.9-1.6,5.5-2.7,9.7c1.5,2.3,4.6,5.7,4.6,8.5c0,1-0.2,2.2-0.5,3.1
		c-0.8,2.6-1.2,5.3-2.3,7.8c-2.1,4.7-4.1,9.6-7.2,13.8c-2.6,3.5-5.6,6.2-8.6,9.3c-5.8,6.1-11.7,11.7-13.8,20.2
		c-1.1,4.7-2.1,9.5-3.3,14.3c-0.7,2.7-1.8,5.7-1.9,8.5c-0.1,2.1,0.3,4.3,0.3,6.4c0,2.6-1.6,4.8-2.4,7.2c-0.9,3-0.5,5.5,0.3,8.4
		c1,4,4.4,6.1,5.8,9.6c0.8,2.2,0.3,4.2-0.1,6.4c-1.4,9.9,4,17.7,5.5,27.2c1.1,6.9-1.9,13.8-1.3,20.8c0.5,7.1,2.2,14,3.6,21
		c1,4.7,0.3,7.3-0.9,11.6c-1.1,4.2-1.8,9.7-0.9,14c0.9,4.7,1.8,9.2,2.3,13.9c0.3,3.7-0.6,7.4-0.2,11.1c0.5,3.4,2.3,6.4,3.4,9.6
		c2.5,7.1,6.6,13.2,9.3,20.1c2.2,5.7,2.5,13.1,7.3,17.4c1.7,1.6,3,2,4.9,2.9c2.8,1.3,4.9,3.9,7.5,5.7c1.5,1,3,1.4,4.6,2
		c2.1,0.9,3.9,2.3,6.2,2.9c3.6,0.8,7.4-0.3,11.1,0c4.2,0.4,7.2,2.9,9.5,6.2c2.3,3.5,4.6,7.2,6.7,10.8c3.2,5.6,4.1,13,8.2,18.1
		c1.6,1.9,3.9,2.6,6,3.7c2.5,1.2,5.2,2.9,7.5,4.4c2.5,1.6,4.5,3.7,6.2,6.1c1.2,1.7,1.7,3.4,2.3,5.5c0.3,0.9,0.1,2,0.4,2.9
		c0.5,1.6,1.7,2.8,2.5,4.3c0.8,1.5,2.8,4.9,2.4,6.8c-0.8,3.8-7.1,0.5-6.8,3.5c0.1,2.2,3.8,3.5,5.1,4.9c1.8,1.7,3.6,4.4,4.7,6.7
		c2.3,4.6,2.1,6.8,6.9,8.9c3.9,1.7,7.7,2.6,11.9,3.2c5.1,0.6,8,4.1,12.4,6.1c2.4,1.1,4.1,3.1,6.2,4.6c2,1.5,4.3,1.8,6.5,2.9
		c1.6,0.8,4,2.3,4.9,3.9c0.6,1.1,0.2,2.8,0.4,4c0.4,2.5,2,3.7,3.4,5.7c2.1,2.9,4.2,5,7.1,7.2c-30.3-10.6-59.3-26.4-85.9-47.3
		C181.4,607,154.4,435,236.8,307c4.1-6.4,8.4-12.6,13-18.7c0,0,0,0,0.1-0.1c1.2-1.7,2.5-3.3,3.8-4.9
		C267.5,265.8,283,250.2,299.7,236.6z"/>
	<path class="st2" d="M786.6,486.9c-0.8,15.8-3,31.5-6.5,47.1c-9.5,42.3-28.4,83.2-57,119.5c-30.4,38.6-68.4,67.6-110.2,86.7
		c-7.2,3.3-14.5,6.3-22,9c-12.7-14.2-4.5-55.1-2.5-70.1c7.6-53.1,16.2-108.9,49-151.3c6.2-7.9,14.6-15.9,24.6-14.8
		c4.9,0.5,9.5,3.3,14.5,3c6.6-0.2,12.2-5.4,18.8-5.6c5-0.1,9.7,2.6,14.6,3.4c11,1.8,19.5-5.5,27.9-13.6c8.7-8.4,17.3-17.6,28.6-19.1
		c2.5-0.4,4.9-0.3,7.4,0.2C778.5,481.9,782.9,484,786.6,486.9z"/>
	<path class="st2" d="M646.9,465.7c-5,3.1-2.5,11.8,3,13.9c5.5,2.1,11.7-0.5,16.5-3.9c5.8-4.1,11.1-10.1,11.1-17.2
		c0-11.9-16.3-18.8-26.7-13c-10.4,5.8-14.4,19.3-13,31.1L646.9,465.7z"/>
	<path class="st2" d="M777.7,393.6c-2.9,1.9-6,3.4-9.3,4.4c-0.6,0.2-1.2,0.4-1.8,0.5c-9.4,2.4-19.3,1-28.9-0.6
		c-11.8-1.8-23.9-3.8-35.6-6.6c-14.3-3.4-27.9-8.1-40.4-15.7c-20-12.3-35.1-31.1-54.5-44.2c-9.7-6.5-20.4-11.7-29-19.5
		c-15.7-14.1-22.8-35.2-29.3-55.3c-7.7-24.5-26.5-58-17.8-84.2c50.3,7.2,99.4,27.3,142.3,61.1c2.4,1.9,4.7,3.8,6.9,5.8
		c23.2,19.3,42.7,41.4,58.3,65.5C756.6,332.5,769.7,362.4,777.7,393.6z"/>
	<path class="st2" d="M554,394.4c-5.2-1.9-4.1-10.7,0.9-13c5-2.3,11.1,0.1,15.4,3.6c8.9,7.3,13.8,20.5,8.5,30.8
		c-5.3,10.2-22.2,12.8-28.3,3.1c-1.8-2.9-2.5-6.4-3-9.8c-0.8-6.3-0.8-12.8,0-19.2L554,394.4z"/>
	<path class="st2" d="M551.9,543.3c-4.7,3.1-10.8-4.2-8.1-9.1c2.7-4.9,10-5.5,14.8-2.7c4.8,2.8,7.7,8,10.3,12.9
		c-5.6,3.9-14.5,1.6-17.5-4.5L551.9,543.3z"/>
	<path class="st2" d="M304.3,353.8c-4.1-1.2-8,3.2-12.2,2.6c-6.2-0.9-5.8-10.1-3.1-15.8c5-10.4,13.1-20.7,24.5-22.4
		c6.6-1,13.3,1,19.6,3.4c6.7,2.6,13.5,6,17.3,12c4.6,7.1,3.9,16.6,0.5,24.3c-3.4,7.7-9.2,14.1-15,20.3c-4.1,4.5-9.2,9.3-15.2,8.8
		c-4.2-0.4-7.7-3.3-10.4-6.5c-6.8-7.7-11.2-17.5-12.5-27.7L304.3,353.8z"/>
</g>
</svg>
