<?xml version="1.0" encoding="utf-8"?>
<!-- Generator: Adobe Illustrator 26.3.1, SVG Export Plug-In . SVG Version: 6.00 Build 0)  -->
<svg version="1.1" id="Layer_1" xmlns="http://www.w3.org/2000/svg" xmlns:xlink="http://www.w3.org/1999/xlink" x="0px" y="0px"
	 viewBox="0 0 311.9 430" style="enable-background:new 0 0 311.9 430;" xml:space="preserve">
<style type="text/css">
	
		.st0{clip-path:url(#SVGID_00000069358781714097307270000011167628922718028479_);fill:url(#SVGID_00000062908172388032337340000002838961251132092562_);}
	.st1{clip-path:url(#SVGID_00000069358781714097307270000011167628922718028479_);}
	.st2{filter:url(#Adobe_OpacityMaskFilter);}
	
		.st3{mask:url(#SVGID_00000106136712691738400910000001410175658615626369_);fill:url(#SVGID_00000140693229728757374690000003881397427174932146_);}
</style>
<g>
	<defs>
		<rect id="SVGID_1_" y="-5.5" width="311.9" height="443.9"/>
	</defs>
	<clipPath id="SVGID_00000150083045217792799320000008934276661194494109_">
		<use xlink:href="#SVGID_1_"  style="overflow:visible;"/>
	</clipPath>
	
		<linearGradient id="SVGID_00000087381347809074857630000005798298032708609214_" gradientUnits="userSpaceOnUse" x1="1126.9408" y1="1144.967" x2="1150.5425" y2="1122.9388" gradientTransform="matrix(0 1 -1 0 1242.2754 -939.3105)">
		<stop  offset="0" style="stop-color:#FFE0B2"/>
		<stop  offset="1" style="stop-color:#000000;stop-opacity:0"/>
	</linearGradient>
	
		<ellipse style="clip-path:url(#SVGID_00000150083045217792799320000008934276661194494109_);fill:url(#SVGID_00000087381347809074857630000005798298032708609214_);" cx="107.2" cy="198.3" rx="7.2" ry="7.5"/>
	<g style="clip-path:url(#SVGID_00000150083045217792799320000008934276661194494109_);">
		<g>
			<g>
				<defs>
					<polygon id="SVGID_00000028297898892333892040000016166810987496536706_" points="-200.4,501.1 -200.4,-69.5 340.8,-69.5 
						340.8,502.5 					"/>
				</defs>
				<clipPath id="SVGID_00000010311335594256815610000003961815904820412329_">
					<use xlink:href="#SVGID_00000028297898892333892040000016166810987496536706_"  style="overflow:visible;"/>
				</clipPath>
			</g>
		</g>
		<defs>
			<filter id="Adobe_OpacityMaskFilter" filterUnits="userSpaceOnUse" x="-8" y="-68.5" width="324" height="570">
				<feColorMatrix  type="matrix" values="1 0 0 0 0  0 1 0 0 0  0 0 1 0 0  0 0 0 1 0"/>
			</filter>
		</defs>
		
			<mask maskUnits="userSpaceOnUse" x="-8" y="-68.5" width="324" height="570" id="SVGID_00000088128524293015980790000016282740544545622939_">
			<g class="st2">
				<g>
					
						<rect x="-176.5" y="24.9" transform="matrix(-1.836970e-16 1 -1 -1.836970e-16 354.8695 53.722)" width="654.2" height="358.7"/>
					<g>
						
							<image style="overflow:visible;opacity:0.5;" width="192.5" height="225.3" xlink:href="EA35D35775EFDFA6.png"  transform="matrix(1 0 0 1 60.6384 -113.0799)"/>
						
							<image style="overflow:visible;opacity:0.5;" width="193.8" height="207.9" xlink:href="EA35D35775EFDFA1.png"  transform="matrix(1 0 0 1 44.2913 13.9667)"/>
						
							<image style="overflow:visible;" width="178.4" height="225.7" xlink:href="EA35D35775EFDFA0.png"  transform="matrix(1 0 0 1 41.217 137.987)"/>
						
							<image style="overflow:visible;" width="204.6" height="191.7" xlink:href="EA35D35775EFDFAE.png"  transform="matrix(1 0 0 1 -12.5695 249.7938)"/>
						
							<image style="overflow:visible;opacity:0.5;" width="162.3" height="215.4" xlink:href="EA35D35775EFDFA4.png"  transform="matrix(1 0 0 1 167.6109 182.781)"/>
						
							<image style="overflow:visible;opacity:0.5;" width="203.8" height="212.5" xlink:href="EA35D35775EFDFB9.png"  transform="matrix(1 0 0 1 -6.0127 299.4071)"/>
					</g>
				</g>
			</g>
		</mask>
		
			<linearGradient id="SVGID_00000013189017373603880390000011213878193399418020_" gradientUnits="userSpaceOnUse" x1="1267.0841" y1="2187.4875" x2="1837.1119" y2="2187.4875" gradientTransform="matrix(0 1 -1 0 2341.5332 -1335.6187)">
			<stop  offset="0" style="stop-color:#009BFF"/>
			<stop  offset="0.5201" style="stop-color:#B15EED"/>
			<stop  offset="1" style="stop-color:#3DFFBE"/>
		</linearGradient>
		
			<polygon style="mask:url(#SVGID_00000088128524293015980790000016282740544545622939_);fill:url(#SVGID_00000013189017373603880390000011213878193399418020_);" points="
			-8,501.5 -8,-68.5 316,-68.5 316,501.5 		"/>
	</g>
</g>
</svg>
